Assignments/2Q2/simulation/qsim/fsm.msim.vcd
$comment
	File created using the following command:
		vcd file fsm.msim.vcd -direction
$end
$date
	Thu Mar 05 23:37:33 2020
$end
$version
	ModelSim Version 10.3c
$end
$timescale
	1ps
$end

$scope module fsm_vlg_vec_tst $end
$var reg 1 ! clk $end
$var reg 8 " q [7:0] $end
$var reg 8 # rom_data [7:0] $end
$var reg 1 $ start $end
$var wire 1 % address [7] $end
$var wire 1 & address [6] $end
$var wire 1 ' address [5] $end
$var wire 1 ( address [4] $end
$var wire 1 ) address [3] $end
$var wire 1 * address [2] $end
$var wire 1 + address [1] $end
$var wire 1 , address [0] $end
$var wire 1 - complete $end
$var wire 1 . data [7] $end
$var wire 1 / data [6] $end
$var wire 1 0 data [5] $end
$var wire 1 1 data [4] $end
$var wire 1 2 data [3] $end
$var wire 1 3 data [2] $end
$var wire 1 4 data [1] $end
$var wire 1 5 data [0] $end
$var wire 1 6 rom_addr [7] $end
$var wire 1 7 rom_addr [6] $end
$var wire 1 8 rom_addr [5] $end
$var wire 1 9 rom_addr [4] $end
$var wire 1 : rom_addr [3] $end
$var wire 1 ; rom_addr [2] $end
$var wire 1 < rom_addr [1] $end
$var wire 1 = rom_addr [0] $end
$var wire 1 > wren $end
$var wire 1 ? sampler $end

$scope module i1 $end
$var wire 1 @ gnd $end
$var wire 1 A vcc $end
$var wire 1 B unknown $end
$var tri1 1 C devclrn $end
$var tri1 1 D devpor $end
$var tri1 1 E devoe $end
$var wire 1 F data[0]~output_o $end
$var wire 1 G data[1]~output_o $end
$var wire 1 H data[2]~output_o $end
$var wire 1 I data[3]~output_o $end
$var wire 1 J data[4]~output_o $end
$var wire 1 K data[5]~output_o $end
$var wire 1 L data[6]~output_o $end
$var wire 1 M data[7]~output_o $end
$var wire 1 N address[0]~output_o $end
$var wire 1 O address[1]~output_o $end
$var wire 1 P address[2]~output_o $end
$var wire 1 Q address[3]~output_o $end
$var wire 1 R address[4]~output_o $end
$var wire 1 S address[5]~output_o $end
$var wire 1 T address[6]~output_o $end
$var wire 1 U address[7]~output_o $end
$var wire 1 V wren~output_o $end
$var wire 1 W rom_addr[0]~output_o $end
$var wire 1 X rom_addr[1]~output_o $end
$var wire 1 Y rom_addr[2]~output_o $end
$var wire 1 Z rom_addr[3]~output_o $end
$var wire 1 [ rom_addr[4]~output_o $end
$var wire 1 \ rom_addr[5]~output_o $end
$var wire 1 ] rom_addr[6]~output_o $end
$var wire 1 ^ rom_addr[7]~output_o $end
$var wire 1 _ complete~output_o $end
$var wire 1 ` clk~input_o $end
$var wire 1 a q[0]~input_o $end
$var wire 1 b Equal17~0_combout $end
$var wire 1 c Equal5~0_combout $end
$var wire 1 d Add3~1_sumout $end
$var wire 1 e Equal17~1_combout $end
$var wire 1 f Selector45~0_combout $end
$var wire 1 g Equal16~0_combout $end
$var wire 1 h Equal16~1_combout $end
$var wire 1 i Add3~2 $end
$var wire 1 j Add3~5_sumout $end
$var wire 1 k Selector44~0_combout $end
$var wire 1 l Add3~6 $end
$var wire 1 m Add3~9_sumout $end
$var wire 1 n Selector43~0_combout $end
$var wire 1 o Add3~10 $end
$var wire 1 p Add3~13_sumout $end
$var wire 1 q Selector42~0_combout $end
$var wire 1 r Add3~14 $end
$var wire 1 s Add3~17_sumout $end
$var wire 1 t Selector41~0_combout $end
$var wire 1 u Add3~18 $end
$var wire 1 v Add3~21_sumout $end
$var wire 1 w Selector40~0_combout $end
$var wire 1 x Equal0~0_combout $end
$var wire 1 y Add3~22 $end
$var wire 1 z Add3~25_sumout $end
$var wire 1 { Selector39~0_combout $end
$var wire 1 | Add3~26 $end
$var wire 1 } Add3~29_sumout $end
$var wire 1 ~ Selector38~0_combout $end
$var wire 1 !! Equal0~1_combout $end
$var wire 1 "! Selector2~1_combout $end
$var wire 1 #! Equal3~1_combout $end
$var wire 1 $! Selector7~0_combout $end
$var wire 1 %! Selector11~0_combout $end
$var wire 1 &! Equal9~0_combout $end
$var wire 1 '! Equal11~0_combout $end
$var wire 1 (! Selector9~0_combout $end
$var wire 1 )! Selector5~0_combout $end
$var wire 1 *! Equal11~1_combout $end
$var wire 1 +! Equal11~2_combout $end
$var wire 1 ,! Equal9~1_combout $end
$var wire 1 -! Equal9~2_combout $end
$var wire 1 .! Equal9~3_combout $end
$var wire 1 /! start~input_o $end
$var wire 1 0! Selector4~1_combout $end
$var wire 1 1! Selector4~2_combout $end
$var wire 1 2! Equal3~0_combout $end
$var wire 1 3! Equal7~0_combout $end
$var wire 1 4! Selector2~0_combout $end
$var wire 1 5! Selector10~0_combout $end
$var wire 1 6! Equal14~0_combout $end
$var wire 1 7! Equal6~1_combout $end
$var wire 1 8! Equal8~0_combout $end
$var wire 1 9! Selector12~0_combout $end
$var wire 1 :! Equal6~0_combout $end
$var wire 1 ;! Equal15~0_combout $end
$var wire 1 <! Equal15~1_combout $end
$var wire 1 =! Selector4~0_combout $end
$var wire 1 >! Selector3~0_combout $end
$var wire 1 ?! Equal1~1_combout $end
$var wire 1 @! Equal1~2_combout $end
$var wire 1 A! Equal4~0_combout $end
$var wire 1 B! Equal4~1_combout $end
$var wire 1 C! Equal17~2_combout $end
$var wire 1 D! WideNor0~3_combout $end
$var wire 1 E! Equal14~1_combout $end
$var wire 1 F! Equal14~2_combout $end
$var wire 1 G! Equal12~0_combout $end
$var wire 1 H! Equal12~1_combout $end
$var wire 1 I! Selector2~2_combout $end
$var wire 1 J! Selector2~3_combout $end
$var wire 1 K! Equal13~0_combout $end
$var wire 1 L! Equal13~1_combout $end
$var wire 1 M! WideNor0~2_combout $end
$var wire 1 N! Selector0~0_combout $end
$var wire 1 O! Selector0~1_combout $end
$var wire 1 P! Equal1~0_combout $end
$var wire 1 Q! Equal2~0_combout $end
$var wire 1 R! Equal10~0_combout $end
$var wire 1 S! Selector1~0_combout $end
$var wire 1 T! Selector1~1_combout $end
$var wire 1 U! Equal2~1_combout $end
$var wire 1 V! WideNor0~0_combout $end
$var wire 1 W! WideNor0~1_combout $end
$var wire 1 X! Selector13~0_combout $end
$var wire 1 Y! Selector13~1_combout $end
$var wire 1 Z! Equal6~2_combout $end
$var wire 1 [! Selector6~0_combout $end
$var wire 1 \! rom_data[0]~input_o $end
$var wire 1 ]! Mux7~0_combout $end
$var wire 1 ^! q[1]~input_o $end
$var wire 1 _! rom_data[1]~input_o $end
$var wire 1 `! Mux6~0_combout $end
$var wire 1 a! q[2]~input_o $end
$var wire 1 b! rom_data[2]~input_o $end
$var wire 1 c! Mux5~0_combout $end
$var wire 1 d! q[3]~input_o $end
$var wire 1 e! rom_data[3]~input_o $end
$var wire 1 f! Mux4~0_combout $end
$var wire 1 g! q[4]~input_o $end
$var wire 1 h! rom_data[4]~input_o $end
$var wire 1 i! Mux3~0_combout $end
$var wire 1 j! q[5]~input_o $end
$var wire 1 k! rom_data[5]~input_o $end
$var wire 1 l! Mux2~0_combout $end
$var wire 1 m! q[6]~input_o $end
$var wire 1 n! rom_data[6]~input_o $end
$var wire 1 o! Mux1~0_combout $end
$var wire 1 p! q[7]~input_o $end
$var wire 1 q! rom_data[7]~input_o $end
$var wire 1 r! Mux0~0_combout $end
$var wire 1 s! Add0~1_sumout $end
$var wire 1 t! Selector21~0_combout $end
$var wire 1 u! Add1~1_sumout $end
$var wire 1 v! Selector29~0_combout $end
$var wire 1 w! Add2~1_sumout $end
$var wire 1 x! Selector37~0_combout $end
$var wire 1 y! Mux15~0_combout $end
$var wire 1 z! Add0~2 $end
$var wire 1 {! Add0~5_sumout $end
$var wire 1 |! Selector20~0_combout $end
$var wire 1 }! Add1~2 $end
$var wire 1 ~! Add1~5_sumout $end
$var wire 1 !" Selector28~0_combout $end
$var wire 1 "" Add2~2 $end
$var wire 1 #" Add2~5_sumout $end
$var wire 1 $" Selector36~0_combout $end
$var wire 1 %" Mux14~0_combout $end
$var wire 1 &" Add0~6 $end
$var wire 1 '" Add0~9_sumout $end
$var wire 1 (" Selector19~0_combout $end
$var wire 1 )" Add1~6 $end
$var wire 1 *" Add1~9_sumout $end
$var wire 1 +" Selector27~0_combout $end
$var wire 1 ," Add2~6 $end
$var wire 1 -" Add2~9_sumout $end
$var wire 1 ." Selector35~0_combout $end
$var wire 1 /" Mux13~0_combout $end
$var wire 1 0" Add0~10 $end
$var wire 1 1" Add0~13_sumout $end
$var wire 1 2" Selector18~0_combout $end
$var wire 1 3" Add1~10 $end
$var wire 1 4" Add1~13_sumout $end
$var wire 1 5" Selector26~0_combout $end
$var wire 1 6" Add2~10 $end
$var wire 1 7" Add2~13_sumout $end
$var wire 1 8" Selector34~0_combout $end
$var wire 1 9" Mux12~0_combout $end
$var wire 1 :" Add0~14 $end
$var wire 1 ;" Add0~17_sumout $end
$var wire 1 <" Selector17~0_combout $end
$var wire 1 =" Add1~14 $end
$var wire 1 >" Add1~17_sumout $end
$var wire 1 ?" Selector25~0_combout $end
$var wire 1 @" Add2~14 $end
$var wire 1 A" Add2~17_sumout $end
$var wire 1 B" Selector33~0_combout $end
$var wire 1 C" Mux11~0_combout $end
$var wire 1 D" Add0~18 $end
$var wire 1 E" Add0~21_sumout $end
$var wire 1 F" Selector16~0_combout $end
$var wire 1 G" Add1~18 $end
$var wire 1 H" Add1~21_sumout $end
$var wire 1 I" Selector24~0_combout $end
$var wire 1 J" Add2~18 $end
$var wire 1 K" Add2~21_sumout $end
$var wire 1 L" Selector32~0_combout $end
$var wire 1 M" Mux10~0_combout $end
$var wire 1 N" Add0~22 $end
$var wire 1 O" Add0~25_sumout $end
$var wire 1 P" Selector15~0_combout $end
$var wire 1 Q" Add1~22 $end
$var wire 1 R" Add1~25_sumout $end
$var wire 1 S" Selector23~0_combout $end
$var wire 1 T" Add2~22 $end
$var wire 1 U" Add2~25_sumout $end
$var wire 1 V" Selector31~0_combout $end
$var wire 1 W" Mux9~0_combout $end
$var wire 1 X" Add0~26 $end
$var wire 1 Y" Add0~29_sumout $end
$var wire 1 Z" Selector14~0_combout $end
$var wire 1 [" Add1~26 $end
$var wire 1 \" Add1~29_sumout $end
$var wire 1 ]" Selector22~0_combout $end
$var wire 1 ^" Add2~26 $end
$var wire 1 _" Add2~29_sumout $end
$var wire 1 `" Selector30~0_combout $end
$var wire 1 a" Mux8~0_combout $end
$var wire 1 b" i [7] $end
$var wire 1 c" i [6] $end
$var wire 1 d" i [5] $end
$var wire 1 e" i [4] $end
$var wire 1 f" i [3] $end
$var wire 1 g" i [2] $end
$var wire 1 h" i [1] $end
$var wire 1 i" i [0] $end
$var wire 1 j" j [7] $end
$var wire 1 k" j [6] $end
$var wire 1 l" j [5] $end
$var wire 1 m" j [4] $end
$var wire 1 n" j [3] $end
$var wire 1 o" j [2] $end
$var wire 1 p" j [1] $end
$var wire 1 q" j [0] $end
$var wire 1 r" sum [7] $end
$var wire 1 s" sum [6] $end
$var wire 1 t" sum [5] $end
$var wire 1 u" sum [4] $end
$var wire 1 v" sum [3] $end
$var wire 1 w" sum [2] $end
$var wire 1 x" sum [1] $end
$var wire 1 y" sum [0] $end
$var wire 1 z" k [7] $end
$var wire 1 {" k [6] $end
$var wire 1 |" k [5] $end
$var wire 1 }" k [4] $end
$var wire 1 ~" k [3] $end
$var wire 1 !# k [2] $end
$var wire 1 "# k [1] $end
$var wire 1 ## k [0] $end
$var wire 1 $# q_sj [7] $end
$var wire 1 %# q_sj [6] $end
$var wire 1 &# q_sj [5] $end
$var wire 1 '# q_sj [4] $end
$var wire 1 (# q_sj [3] $end
$var wire 1 )# q_sj [2] $end
$var wire 1 *# q_sj [1] $end
$var wire 1 +# q_sj [0] $end
$var wire 1 ,# state [13] $end
$var wire 1 -# state [12] $end
$var wire 1 .# state [11] $end
$var wire 1 /# state [10] $end
$var wire 1 0# state [9] $end
$var wire 1 1# state [8] $end
$var wire 1 2# state [7] $end
$var wire 1 3# state [6] $end
$var wire 1 4# state [5] $end
$var wire 1 5# state [4] $end
$var wire 1 6# state [3] $end
$var wire 1 7# state [2] $end
$var wire 1 8# state [1] $end
$var wire 1 9# state [0] $end
$var wire 1 :# f [7] $end
$var wire 1 ;# f [6] $end
$var wire 1 <# f [5] $end
$var wire 1 =# f [4] $end
$var wire 1 ># f [3] $end
$var wire 1 ?# f [2] $end
$var wire 1 @# f [1] $end
$var wire 1 A# f [0] $end
$var wire 1 B# q_si [7] $end
$var wire 1 C# q_si [6] $end
$var wire 1 D# q_si [5] $end
$var wire 1 E# q_si [4] $end
$var wire 1 F# q_si [3] $end
$var wire 1 G# q_si [2] $end
$var wire 1 H# q_si [1] $end
$var wire 1 I# q_si [0] $end
$upscope $end
$upscope $end
$enddefinitions $end
#0
$dumpvars
0!
b110001 "
b110010 #
1$
0,
0+
0*
0)
0(
0'
0&
0%
0-
05
04
03
02
01
00
0/
0.
0=
0<
0;
0:
09
08
07
06
0>
x?
0@
1A
xB
1C
1D
1E
0F
0G
0H
0I
0J
0K
0L
0M
0N
0O
0P
0Q
0R
0S
0T
0U
0V
0W
0X
0Y
0Z
0[
0\
0]
0^
0_
0`
1a
1b
1c
1d
0e
0f
0g
1h
0i
0j
0k
0l
0m
0n
0o
0p
0q
0r
0s
0t
0u
0v
0w
0x
0y
0z
0{
0|
0}
0~
1!!
1"!
0#!
0$!
0%!
1&!
0'!
0(!
0)!
0*!
0+!
0,!
0-!
0.!
1/!
00!
11!
02!
03!
14!
05!
06!
17!
08!
09!
1:!
0;!
0<!
0=!
0>!
1?!
1@!
0A!
0B!
0C!
0D!
0E!
0F!
0G!
0H!
1I!
0J!
1K!
0L!
1M!
0N!
0O!
1P!
0Q!
1R!
1S!
0T!
1U!
0V!
1W!
1X!
0Y!
0Z!
0[!
0\!
0]!
0^!
1_!
0`!
0a!
0b!
0c!
0d!
0e!
0f!
1g!
1h!
0i!
1j!
1k!
0l!
0m!
0n!
0o!
0p!
0q!
0r!
1s!
0t!
0u!
0v!
0w!
0x!
0y!
0z!
0{!
0|!
0}!
0~!
0!"
0""
0#"
0$"
0%"
0&"
0'"
0("
0)"
0*"
0+"
0,"
0-"
0."
0/"
00"
01"
02"
03"
04"
05"
06"
07"
08"
09"
0:"
0;"
0<"
0="
0>"
0?"
0@"
0A"
0B"
0C"
0D"
0E"
0F"
0G"
0H"
0I"
0J"
0K"
0L"
0M"
0N"
0O"
0P"
0Q"
0R"
0S"
0T"
0U"
0V"
0W"
0X"
0Y"
0Z"
0["
0\"
0]"
0^"
0_"
0`"
0a"
0i"
0h"
0g"
0f"
0e"
0d"
0c"
0b"
0q"
0p"
0o"
0n"
0m"
0l"
0k"
0j"
0y"
0x"
0w"
0v"
0u"
0t"
0s"
0r"
0##
0"#
0!#
0~"
0}"
0|"
0{"
0z"
0+#
0*#
0)#
0(#
0'#
0&#
0%#
0$#
09#
08#
07#
06#
05#
z4#
03#
02#
01#
00#
0/#
0.#
0-#
0,#
0A#
0@#
0?#
0>#
0=#
0<#
0;#
0:#
0I#
0H#
0G#
0F#
0E#
0D#
0C#
0B#
$end
#10000
1!
0?
1`
10#
1Q!
0K!
0?!
0@!
0U!
0W!
1D!
10!
01!
1>!
#20000
0!
1?
0`
#30000
1!
0?
1`
1i"
1/#
00#
0Q!
1;!
12!
1'!
1t!
1z!
1y!
0s!
1N
1V!
1#!
1U!
1,
1{!
00!
1$!
11!
#40000
0!
1?
0`
#50000
1!
0?
1`
10#
13#
1A!
0:!
0;!
02!
1g
0V!
0#!
1B!
0I!
0D!
10!
1W!
0$!
1J!
0>!
01!
#60000
0!
1?
0`
#70000
1!
0?
1`
1D#
1E#
1I#
1.#
0/#
00#
03#
0A!
1:!
1K!
0B!
1?!
0g
0'!
0&!
1w!
1u!
1]!
1A"
1>"
1i!
1K"
1H"
1l!
1K
1J
1F
0c
1I!
1D!
10
11
15
0D!
04!
0"!
11!
15!
#80000
0!
1?
0`
#90000
1!
0?
1`
1l"
1m"
1q"
16#
10#
1Q!
0K!
0?!
16!
0b
1v!
1}!
1?"
1G"
1I"
1Q"
1M"
1C"
0u!
0>"
0H"
1R
1S
1c
1Z!
1(
1'
1~!
1H"
1R"
0W!
0I!
1D!
14!
1"!
1[!
01!
05!
1>!
#100000
0!
1?
0`
#110000
1!
0?
1`
12#
1/#
06#
00#
0Q!
1;!
06!
12!
1b
0Z!
0P!
07!
0M"
0C"
0R
0S
1W!
1I!
1V!
13!
0(
0'
0[!
0X!
04!
0"!
0W!
1[!
0[!
1Y!
15!
11!
#120000
0!
1?
0`
#130000
1!
0?
1`
1&#
1'#
1+#
02#
16#
10#
19#
1V
0;!
16!
02!
1g
0b
0V!
1P!
17!
03!
1""
1J"
1T"
1>
1M"
1C"
0w!
0A"
0K"
1R
1S
1X!
14!
1"!
18!
1W!
1(
1'
1#"
1K"
1U"
0X!
0M!
19!
1T!
0J!
0>!
05!
01!
#140000
0!
1?
0`
#150000
1!
0?
1`
1-#
0.#
0/#
18#
06#
00#
1K!
06!
1-!
0g
1&!
0:!
08!
1,!
07!
0M"
0C"
0R
0S
1.!
1X!
1M!
0(
0'
09!
0M!
00!
19!
11!
0Y!
09!
#160000
0!
1?
0`
#170000
1!
0?
1`
08#
10#
09#
0V
1Q!
0K!
0-!
1:!
0,!
1b
0>
0R!
0.!
1M!
10!
0W!
0S!
1(!
1>!
01!
#180000
0!
1?
0`
#190000
1!
0?
1`
1s"
1t"
1x"
1/#
00#
15#
0:!
1*!
0Q!
1;!
1'!
1$"
1L"
1V"
1W"
1M"
1%"
0y!
0N
1O
1S
1T
1+!
1R!
0,
1+
1'
1&
00!
0(!
1)!
11!
#200000
0!
1?
0`
#210000
1!
0?
1`
10#
11#
05#
1G!
0*!
0;!
1g
0W"
0M"
0%"
1y!
1N
0O
0S
0T
0+!
1H!
1,
0+
0'
0&
0M!
0I!
1W!
1S!
10!
0)!
01!
1J!
0>!
#220000
0!
1?
0`
#230000
1!
0?
1`
1<#
1=#
1A#
1.#
0/#
00#
01#
0G!
1:!
1K!
0g
0'!
0&!
0H!
1L!
0X!
04!
0"!
1I!
1(!
1%!
11!
15!
1Y!
#240000
0!
1?
0`
#250000
1!
0?
1`
16#
10#
15#
17#
19#
1V
1E!
0:!
1Q!
0K!
16!
0b
1,!
1>
0l!
0i!
1`!
0y!
0N
1G
0J
0K
1F!
0L!
0,
14
01
00
1X!
1M!
14!
1"!
0W!
0S!
0I!
0(!
0%!
0Y!
1>!
05!
01!
#260000
0!
1?
0`
#270000
1!
0?
1`
1/#
06#
00#
05#
07#
09#
0V
0E!
1:!
0Q!
1;!
06!
1b
0,!
1'!
0>
1l!
1i!
0`!
1y!
1N
0G
1J
1K
0F!
1<!
1,
04
11
10
0D!
1=!
0"!
1W!
1S!
1I!
11!
#280000
0!
1?
0`
#290000
1!
0?
1`
10#
0;!
1g
0h
0<!
0=!
1"!
00!
0J!
0T!
0>!
#300000
0!
1?
0`
#310000
1!
0?
1`
0-#
0.#
0/#
1##
1W
1Q!
0'!
0g
1&!
1h
17!
1f
1i
1=
0d
1D!
10!
0U!
1j
0W!
1>!
01!
#320000
0!
1?
0`
#330000
1!
0?
1`
1h"
0i"
1/#
00#
0Q!
1;!
12!
1'!
0t!
0z!
1|!
1&"
0y!
1s!
1%"
0{!
1O
0N
0&"
1V!
1#!
1U!
1+
0,
1{!
1'"
00!
0'"
1$!
11!
#340000
0!
1?
0`
#350000
1!
0?
1`
10#
13#
1A!
0:!
0;!
02!
1g
0V!
0#!
1B!
0I!
0D!
10!
1W!
0$!
1J!
0>!
01!
#360000
0!
1?
0`
#370000
1!
0?
1`
1.#
0/#
00#
03#
0A!
1:!
1K!
0B!
1?!
0g
0'!
0&!
0c
1I!
1D!
0D!
04!
0"!
11!
15!
#380000
0!
1?
0`
#390000
1!
0?
1`
1k"
0m"
1p"
0q"
16#
10#
1Q!
0K!
0?!
16!
0b
0v!
0}!
1!"
1)"
0?"
0G"
1S"
1["
1W"
1M"
1u!
0~!
1>"
0R"
1S
1T
0)"
1c
1Z!
1'
1&
1~!
1*"
0H"
1\"
0W!
0I!
1D!
14!
1"!
0*"
1[!
01!
05!
1>!
#400000
0!
1?
0`
#410000
1!
0?
1`
12#
1/#
06#
00#
0Q!
1;!
06!
12!
1b
0Z!
0P!
07!
0W"
0M"
0S
0T
1W!
1I!
1V!
13!
0'
0&
0[!
0X!
04!
0"!
0W!
1[!
0[!
1Y!
15!
11!
#420000
0!
1?
0`
#430000
1!
0?
1`
02#
16#
10#
19#
1V
0;!
16!
02!
1g
0b
0V!
1P!
17!
03!
1>
1W"
1M"
1S
1T
1X!
14!
1"!
18!
1W!
1'
1&
0X!
0M!
19!
1T!
0J!
0>!
05!
01!
#440000
0!
1?
0`
#450000
1!
0?
1`
1-#
0.#
0/#
18#
06#
00#
1K!
06!
1-!
0g
1&!
0:!
08!
1,!
07!
0W"
0M"
0S
0T
1.!
1X!
1M!
0'
0&
09!
0M!
00!
19!
11!
0Y!
09!
#460000
0!
1?
0`
#470000
1!
0?
1`
08#
10#
09#
0V
1Q!
0K!
0-!
1:!
0,!
1b
0>
0R!
0.!
1M!
10!
0W!
0S!
1(!
1>!
01!
#480000
0!
1?
0`
#490000
1!
0?
1`
1/#
00#
15#
0:!
1*!
0Q!
1;!
1'!
1W"
1M"
1S
1T
1+!
1R!
1'
1&
00!
0(!
1)!
11!
#500000
0!
1?
0`
#510000
1!
0?
1`
10#
11#
05#
1G!
0*!
0;!
1g
0W"
0M"
0S
0T
0+!
1H!
0'
0&
0M!
0I!
1W!
1S!
10!
0)!
01!
1J!
0>!
#520000
0!
1?
0`
#530000
1!
0?
1`
1.#
0/#
00#
01#
0G!
1:!
1K!
0g
0'!
0&!
0H!
1L!
0X!
04!
0"!
1I!
1(!
1%!
11!
15!
1Y!
#540000
0!
1?
0`
#550000
1!
0?
1`
16#
10#
15#
17#
19#
1V
1E!
0:!
1Q!
0K!
16!
0b
1,!
1>
0l!
0i!
1`!
0%"
1y!
1N
0O
1G
0J
0K
1F!
0L!
1,
0+
14
01
00
1X!
1M!
14!
1"!
0W!
0S!
0I!
0(!
0%!
0Y!
1>!
05!
01!
#560000
0!
1?
0`
#570000
1!
0?
1`
1/#
06#
00#
05#
07#
09#
0V
0E!
1:!
0Q!
1;!
06!
1b
0,!
1'!
0>
1l!
1i!
0`!
1%"
0y!
0N
1O
0G
1J
1K
0F!
1<!
0,
1+
04
11
10
0D!
1=!
0"!
1W!
1S!
1I!
11!
#580000
0!
1?
0`
#590000
1!
0?
1`
10#
0;!
1g
0h
0<!
0=!
1"!
00!
0J!
0T!
0>!
#600000
0!
1?
0`
#610000
1!
0?
1`
0-#
0.#
0/#
1"#
0##
0W
1X
1Q!
0'!
0g
1&!
1h
17!
0f
0i
1k
1l
0=
1<
1d
0j
0l
1D!
10!
0U!
1j
1m
0W!
0m
1>!
01!
#620000
0!
1?
0`
#630000
1!
0?
1`
1i"
1/#
00#
0Q!
1;!
12!
1'!
1t!
1z!
1y!
0s!
1N
1&"
1V!
1#!
1U!
1,
0{!
00!
1'"
1$!
11!
#640000
0!
1?
0`
#650000
1!
0?
1`
10#
13#
1A!
0:!
0;!
02!
1g
0V!
0#!
1B!
0I!
0D!
10!
1W!
0$!
1J!
0>!
01!
#660000
0!
1?
0`
#670000
1!
0?
1`
1.#
0/#
00#
03#
0A!
1:!
1K!
0B!
1?!
0g
0'!
0&!
0c
1I!
1D!
0D!
04!
0"!
11!
15!
#680000
0!
1?
0`
#690000
1!
0?
1`
1j"
0k"
0l"
1m"
1q"
16#
10#
1Q!
0K!
0?!
16!
0b
1v!
1}!
1?"
1G"
0I"
0Q"
0S"
0["
1]"
1a"
1C"
0u!
0>"
1H"
1R"
0\"
1R
1U
1)"
1Q"
1c
1Z!
1(
1%
0~!
0H"
0R"
1\"
0W!
0I!
1D!
14!
1"!
1*"
1R"
1[!
01!
05!
1>!
#700000
0!
1?
0`
#710000
1!
0?
1`
12#
1/#
06#
00#
0Q!
1;!
06!
12!
1b
0Z!
0P!
07!
0a"
0C"
0R
0U
1W!
1I!
1V!
13!
0(
0%
0[!
0X!
04!
0"!
0W!
1[!
0[!
1Y!
15!
11!
#720000
0!
1?
0`
#730000
1!
0?
1`
02#
16#
10#
19#
1V
0;!
16!
02!
1g
0b
0V!
1P!
17!
03!
1>
1a"
1C"
1R
1U
1X!
14!
1"!
18!
1W!
1(
1%
0X!
0M!
19!
1T!
0J!
0>!
05!
01!
#740000
0!
1?
0`
#750000
1!
0?
1`
1-#
0.#
0/#
18#
06#
00#
1K!
06!
1-!
0g
1&!
0:!
08!
1,!
07!
0a"
0C"
0R
0U
1.!
1X!
1M!
0(
0%
09!
0M!
00!
19!
11!
0Y!
09!
#760000
0!
1?
0`
#770000
1!
0?
1`
08#
10#
09#
0V
1Q!
0K!
0-!
1:!
0,!
1b
0>
0R!
0.!
1M!
10!
0W!
0S!
1(!
1>!
01!
#780000
0!
1?
0`
#790000
1!
0?
1`
1/#
00#
15#
0:!
1*!
0Q!
1;!
1'!
1W"
1M"
0y!
0N
1S
1T
1+!
1R!
0,
1'
1&
00!
0(!
1)!
11!
#800000
0!
1?
0`
#810000
1!
0?
1`
10#
11#
05#
1G!
0*!
0;!
1g
0W"
0M"
1y!
1N
0S
0T
0+!
1H!
1,
0'
0&
0M!
0I!
1W!
1S!
10!
0)!
01!
1J!
0>!
#820000
0!
1?
0`
#830000
1!
0?
1`
1.#
0/#
00#
01#
0G!
1:!
1K!
0g
0'!
0&!
0H!
1L!
0X!
04!
0"!
1I!
1(!
1%!
11!
15!
1Y!
#840000
0!
1?
0`
#850000
1!
0?
1`
16#
10#
15#
17#
19#
1V
1E!
0:!
1Q!
0K!
16!
0b
1,!
1>
0l!
0i!
1`!
0y!
0N
1G
0J
0K
1F!
0L!
0,
14
01
00
1X!
1M!
14!
1"!
0W!
0S!
0I!
0(!
0%!
0Y!
1>!
05!
01!
#860000
0!
1?
0`
#870000
1!
0?
1`
1/#
06#
00#
05#
07#
09#
0V
0E!
1:!
0Q!
1;!
06!
1b
0,!
1'!
0>
1l!
1i!
0`!
1y!
1N
0G
1J
1K
0F!
1<!
1,
04
11
10
0D!
1=!
0"!
1W!
1S!
1I!
11!
#880000
0!
1?
0`
#890000
1!
0?
1`
10#
0;!
1g
0h
0<!
0=!
1"!
00!
0J!
0T!
0>!
#900000
0!
1?
0`
#910000
1!
0?
1`
0-#
0.#
0/#
1##
1W
1Q!
0'!
0g
1&!
1h
17!
1f
1i
1=
0d
1l
1D!
10!
0U!
0j
0W!
1m
1>!
01!
#920000
0!
1?
0`
#930000
1!
0?
1`
1g"
0h"
0i"
1/#
00#
0Q!
1;!
12!
1'!
0t!
0z!
0|!
0&"
1("
10"
0y!
1s!
0%"
1{!
1/"
0'"
1P
0O
0N
00"
1V!
1#!
1U!
1*
0+
0,
0{!
1'"
11"
00!
01"
1$!
11!
#940000
0!
1?
0`
#950000
1!
0?
1`
10#
13#
1A!
0:!
0;!
02!
1g
0V!
0#!
1B!
0I!
0D!
10!
1W!
0$!
1J!
0>!
01!
#960000
0!
1?
0`
#970000
1!
0?
1`
1.#
0/#
00#
03#
0A!
1:!
1K!
0B!
1?!
0g
0'!
0&!
0c
1I!
1D!
0D!
04!
0"!
11!
15!
#980000
0!
1?
0`
#990000
1!
0?
1`
1k"
0m"
1o"
0p"
0q"
16#
10#
1Q!
0K!
0?!
16!
0b
0v!
0}!
0!"
0)"
1+"
13"
0?"
0G"
1S"
1["
1a"
1W"
1u!
1~!
0*"
1>"
0R"
1T
1U
03"
0Q"
1c
1Z!
1&
1%
0~!
1*"
14"
1H"
0\"
0["
0W!
0I!
1D!
14!
1"!
04"
1R"
1[!
1\"
01!
05!
1>!
