Assignments/2Q2/simulation/qsim/fsm.msim.vcd
$comment
	File created using the following command:
		vcd file fsm.msim.vcd -direction
$end
$date
	Thu Feb 13 00:50:43 2020
$end
$version
	ModelSim Version 10.3c
$end
$timescale
	1ps
$end

$scope module fsm_vlg_vec_tst $end
$var reg 1 ! clk $end
$var reg 1 " direction $end
$var reg 1 # readComplete $end
$var reg 1 $ restart $end
$var reg 32 % songData [31:0] $end
$var reg 1 & start $end
$var reg 1 ' sync_clk $end
$var wire 1 ( addr [22] $end
$var wire 1 ) addr [21] $end
$var wire 1 * addr [20] $end
$var wire 1 + addr [19] $end
$var wire 1 , addr [18] $end
$var wire 1 - addr [17] $end
$var wire 1 . addr [16] $end
$var wire 1 / addr [15] $end
$var wire 1 0 addr [14] $end
$var wire 1 1 addr [13] $end
$var wire 1 2 addr [12] $end
$var wire 1 3 addr [11] $end
$var wire 1 4 addr [10] $end
$var wire 1 5 addr [9] $end
$var wire 1 6 addr [8] $end
$var wire 1 7 addr [7] $end
$var wire 1 8 addr [6] $end
$var wire 1 9 addr [5] $end
$var wire 1 : addr [4] $end
$var wire 1 ; addr [3] $end
$var wire 1 < addr [2] $end
$var wire 1 = addr [1] $end
$var wire 1 > addr [0] $end
$var wire 1 ? byteEnable [3] $end
$var wire 1 @ byteEnable [2] $end
$var wire 1 A byteEnable [1] $end
$var wire 1 B byteEnable [0] $end
$var wire 1 C complete $end
$var wire 1 D outData [7] $end
$var wire 1 E outData [6] $end
$var wire 1 F outData [5] $end
$var wire 1 G outData [4] $end
$var wire 1 H outData [3] $end
$var wire 1 I outData [2] $end
$var wire 1 J outData [1] $end
$var wire 1 K outData [0] $end
$var wire 1 L read $end
$var wire 1 M start_read_flash $end
$var wire 1 N sampler $end

$scope module i1 $end
$var wire 1 O gnd $end
$var wire 1 P vcc $end
$var wire 1 Q unknown $end
$var tri1 1 R devclrn $end
$var tri1 1 S devpor $end
$var tri1 1 T devoe $end
$var wire 1 U songData[8]~input_o $end
$var wire 1 V songData[9]~input_o $end
$var wire 1 W songData[10]~input_o $end
$var wire 1 X songData[11]~input_o $end
$var wire 1 Y songData[12]~input_o $end
$var wire 1 Z songData[13]~input_o $end
$var wire 1 [ songData[14]~input_o $end
$var wire 1 \ songData[15]~input_o $end
$var wire 1 ] songData[16]~input_o $end
$var wire 1 ^ songData[17]~input_o $end
$var wire 1 _ songData[18]~input_o $end
$var wire 1 ` songData[19]~input_o $end
$var wire 1 a songData[20]~input_o $end
$var wire 1 b songData[21]~input_o $end
$var wire 1 c songData[22]~input_o $end
$var wire 1 d songData[23]~input_o $end
$var wire 1 e start_read_flash~output_o $end
$var wire 1 f read~output_o $end
$var wire 1 g addr[0]~output_o $end
$var wire 1 h addr[1]~output_o $end
$var wire 1 i addr[2]~output_o $end
$var wire 1 j addr[3]~output_o $end
$var wire 1 k addr[4]~output_o $end
$var wire 1 l addr[5]~output_o $end
$var wire 1 m addr[6]~output_o $end
$var wire 1 n addr[7]~output_o $end
$var wire 1 o addr[8]~output_o $end
$var wire 1 p addr[9]~output_o $end
$var wire 1 q addr[10]~output_o $end
$var wire 1 r addr[11]~output_o $end
$var wire 1 s addr[12]~output_o $end
$var wire 1 t addr[13]~output_o $end
$var wire 1 u addr[14]~output_o $end
$var wire 1 v addr[15]~output_o $end
$var wire 1 w addr[16]~output_o $end
$var wire 1 x addr[17]~output_o $end
$var wire 1 y addr[18]~output_o $end
$var wire 1 z addr[19]~output_o $end
$var wire 1 { addr[20]~output_o $end
$var wire 1 | addr[21]~output_o $end
$var wire 1 } addr[22]~output_o $end
$var wire 1 ~ outData[0]~output_o $end
$var wire 1 !! outData[1]~output_o $end
$var wire 1 "! outData[2]~output_o $end
$var wire 1 #! outData[3]~output_o $end
$var wire 1 $! outData[4]~output_o $end
$var wire 1 %! outData[5]~output_o $end
$var wire 1 &! outData[6]~output_o $end
$var wire 1 '! outData[7]~output_o $end
$var wire 1 (! byteEnable[0]~output_o $end
$var wire 1 )! byteEnable[1]~output_o $end
$var wire 1 *! byteEnable[2]~output_o $end
$var wire 1 +! byteEnable[3]~output_o $end
$var wire 1 ,! complete~output_o $end
$var wire 1 -! clk~input_o $end
$var wire 1 .! readComplete~input_o $end
$var wire 1 /! direction~input_o $end
$var wire 1 0! Selector2~0_combout $end
$var wire 1 1! state[0]~2_combout $end
$var wire 1 2! Equal3~1_combout $end
$var wire 1 3! Selector0~0_combout $end
$var wire 1 4! Selector0~1_combout $end
$var wire 1 5! state[3]~4_combout $end
$var wire 1 6! state[4]~3_combout $end
$var wire 1 7! Selector3~1_combout $end
$var wire 1 8! start~input_o $end
$var wire 1 9! sync_clk~input_o $end
$var wire 1 :! Selector3~0_combout $end
$var wire 1 ;! Selector3~2_combout $end
$var wire 1 <! state[1]~0_combout $end
$var wire 1 =! state[1]~1_combout $end
$var wire 1 >! Add1~1_sumout $end
$var wire 1 ?! Equal3~0_combout $end
$var wire 1 @! restart~input_o $end
$var wire 1 A! Add1~2 $end
$var wire 1 B! Add1~5_sumout $end
$var wire 1 C! Selector35~0_combout $end
$var wire 1 D! Add1~18 $end
$var wire 1 E! Add1~21_sumout $end
$var wire 1 F! Selector31~0_combout $end
$var wire 1 G! Equal0~0_combout $end
$var wire 1 H! WideNor1~combout $end
$var wire 1 I! addr[5]~reg0_q $end
$var wire 1 J! Add1~22 $end
$var wire 1 K! Add1~25_sumout $end
$var wire 1 L! Selector30~0_combout $end
$var wire 1 M! addr[6]~reg0_q $end
$var wire 1 N! Add1~26 $end
$var wire 1 O! Add1~29_sumout $end
$var wire 1 P! Selector29~0_combout $end
$var wire 1 Q! addr[7]~reg0_q $end
$var wire 1 R! Add1~30 $end
$var wire 1 S! Add1~33_sumout $end
$var wire 1 T! Selector28~0_combout $end
$var wire 1 U! addr[8]~reg0_q $end
$var wire 1 V! Add1~34 $end
$var wire 1 W! Add1~37_sumout $end
$var wire 1 X! Selector27~0_combout $end
$var wire 1 Y! addr[9]~reg0_q $end
$var wire 1 Z! Add1~38 $end
$var wire 1 [! Add1~41_sumout $end
$var wire 1 \! Selector26~0_combout $end
$var wire 1 ]! addr[10]~reg0_q $end
$var wire 1 ^! Add1~42 $end
$var wire 1 _! Add1~45_sumout $end
$var wire 1 `! Selector25~0_combout $end
$var wire 1 a! addr[11]~reg0_q $end
$var wire 1 b! Add1~46 $end
$var wire 1 c! Add1~49_sumout $end
$var wire 1 d! Selector24~0_combout $end
$var wire 1 e! addr[12]~reg0_q $end
$var wire 1 f! Add1~50 $end
$var wire 1 g! Add1~53_sumout $end
$var wire 1 h! Selector23~0_combout $end
$var wire 1 i! addr[13]~reg0_q $end
$var wire 1 j! Add1~54 $end
$var wire 1 k! Add1~57_sumout $end
$var wire 1 l! Selector22~0_combout $end
$var wire 1 m! addr[14]~reg0_q $end
$var wire 1 n! Add1~58 $end
$var wire 1 o! Add1~61_sumout $end
$var wire 1 p! Selector21~0_combout $end
$var wire 1 q! addr[15]~reg0_q $end
$var wire 1 r! Add1~62 $end
$var wire 1 s! Add1~65_sumout $end
$var wire 1 t! Selector20~0_combout $end
$var wire 1 u! addr[16]~reg0_q $end
$var wire 1 v! Add1~66 $end
$var wire 1 w! Add1~69_sumout $end
$var wire 1 x! Selector19~0_combout $end
$var wire 1 y! addr[17]~reg0_q $end
$var wire 1 z! Add1~70 $end
$var wire 1 {! Add1~74 $end
$var wire 1 |! Add1~78 $end
$var wire 1 }! Add1~81_sumout $end
$var wire 1 ~! Selector16~0_combout $end
$var wire 1 !" addr[20]~reg0_q $end
$var wire 1 "" Add1~82 $end
$var wire 1 #" Add1~85_sumout $end
$var wire 1 $" Selector15~0_combout $end
$var wire 1 %" addr[21]~reg0_q $end
$var wire 1 &" Add1~86 $end
$var wire 1 '" Add1~89_sumout $end
$var wire 1 (" Selector14~0_combout $end
$var wire 1 )" addr[22]~reg0_q $end
$var wire 1 *" addr[17]~5_combout $end
$var wire 1 +" addr[1]~reg0_q $end
$var wire 1 ," Add1~6 $end
$var wire 1 -" Add1~9_sumout $end
$var wire 1 ." Selector34~0_combout $end
$var wire 1 /" addr[2]~reg0_q $end
$var wire 1 0" Add1~10 $end
$var wire 1 1" Add1~13_sumout $end
$var wire 1 2" Selector33~0_combout $end
$var wire 1 3" addr[3]~reg0_q $end
$var wire 1 4" Add1~14 $end
$var wire 1 5" Add1~17_sumout $end
$var wire 1 6" Selector32~0_combout $end
$var wire 1 7" addr[4]~reg0_q $end
$var wire 1 8" addr[17]~1_combout $end
$var wire 1 9" addr[17]~2_combout $end
$var wire 1 :" addr[17]~3_combout $end
$var wire 1 ;" addr[17]~4_combout $end
$var wire 1 <" Add1~77_sumout $end
$var wire 1 =" Selector17~0_combout $end
$var wire 1 >" addr[19]~reg0_q $end
$var wire 1 ?" addr[17]~6_combout $end
$var wire 1 @" Add1~73_sumout $end
$var wire 1 A" Selector18~0_combout $end
$var wire 1 B" addr[18]~reg0_q $end
$var wire 1 C" addr[17]~0_combout $end
$var wire 1 D" Selector36~0_combout $end
$var wire 1 E" addr[0]~reg0_q $end
$var wire 1 F" songData[0]~input_o $end
$var wire 1 G" songData[24]~input_o $end
$var wire 1 H" Selector13~0_combout $end
$var wire 1 I" WideNor0~combout $end
$var wire 1 J" outData[0]~reg0_q $end
$var wire 1 K" songData[1]~input_o $end
$var wire 1 L" songData[25]~input_o $end
$var wire 1 M" Selector12~0_combout $end
$var wire 1 N" outData[1]~reg0_q $end
$var wire 1 O" songData[2]~input_o $end
$var wire 1 P" songData[26]~input_o $end
$var wire 1 Q" Selector11~0_combout $end
$var wire 1 R" outData[2]~reg0_q $end
$var wire 1 S" songData[3]~input_o $end
$var wire 1 T" songData[27]~input_o $end
$var wire 1 U" Selector10~0_combout $end
$var wire 1 V" outData[3]~reg0_q $end
$var wire 1 W" songData[4]~input_o $end
$var wire 1 X" songData[28]~input_o $end
$var wire 1 Y" Selector9~0_combout $end
$var wire 1 Z" outData[4]~reg0_q $end
$var wire 1 [" songData[5]~input_o $end
$var wire 1 \" songData[29]~input_o $end
$var wire 1 ]" Selector8~0_combout $end
$var wire 1 ^" outData[5]~reg0_q $end
$var wire 1 _" songData[6]~input_o $end
$var wire 1 `" songData[30]~input_o $end
$var wire 1 a" Selector7~0_combout $end
$var wire 1 b" outData[6]~reg0_q $end
$var wire 1 c" songData[7]~input_o $end
$var wire 1 d" songData[31]~input_o $end
$var wire 1 e" Selector6~0_combout $end
$var wire 1 f" outData[7]~reg0_q $end
$var wire 1 g" state [5] $end
$var wire 1 h" state [4] $end
$var wire 1 i" state [3] $end
$var wire 1 j" state [2] $end
$var wire 1 k" state [1] $end
$var wire 1 l" state [0] $end
$upscope $end
$upscope $end
$enddefinitions $end
#0
$dumpvars
0!
1"
1#
0$
b0 %
0&
1'
0>
0=
0<
0;
0:
09
08
07
06
05
04
03
02
01
00
0/
0.
0-
0,
0+
0*
0)
0(
1B
1A
1@
1?
0C
0K
0J
0I
0H
0G
0F
0E
0D
0L
0M
xN
0O
1P
xQ
1R
1S
1T
0U
0V
0W
0X
0Y
0Z
0[
0\
0]
0^
0_
0`
0a
0b
0c
0d
0e
0f
0g
0h
0i
0j
0k
0l
0m
0n
0o
0p
0q
0r
0s
0t
0u
0v
0w
0x
0y
0z
0{
0|
0}
0~
0!!
0"!
0#!
0$!
0%!
0&!
0'!
1(!
1)!
1*!
1+!
0,!
0-!
1.!
1/!
00!
01!
12!
03!
04!
05!
06!
17!
08!
19!
0:!
0;!
1<!
0=!
1>!
0?!
0@!
0A!
1B!
1C!
0D!
1E!
1F!
0G!
0H!
0I!
0J!
1K!
1L!
0M!
0N!
1O!
1P!
0Q!
0R!
1S!
1T!
0U!
0V!
1W!
1X!
0Y!
0Z!
1[!
1\!
0]!
0^!
1_!
1`!
0a!
0b!
1c!
1d!
0e!
0f!
1g!
1h!
0i!
0j!
1k!
1l!
0m!
0n!
1o!
1p!
0q!
0r!
1s!
1t!
0u!
0v!
1w!
1x!
0y!
0z!
0{!
0|!
1}!
0~!
0!"
0""
1#"
0$"
0%"
0&"
1'"
0("
0)"
0*"
0+"
0,"
1-"
1."
0/"
00"
11"
12"
03"
04"
15"
16"
07"
18"
19"
1:"
1;"
1<"
0="
0>"
1?"
1@"
1A"
0B"
1C"
1D"
0E"
0F"
0G"
0H"
0I"
0J"
0K"
0L"
0M"
0N"
0O"
0P"
0Q"
0R"
0S"
0T"
0U"
0V"
0W"
0X"
0Y"
0Z"
0["
0\"
0]"
0^"
0_"
0`"
0a"
0b"
0c"
0d"
0e"
0f"
0l"
0k"
0j"
0i"
0h"
0g"
$end
#5000
1!
0N
1-!
#10000
0'
1$
1&
0!
09!
1@!
18!
1N
0-!
1:!
1=!
1;!
#15000
1!
0N
1-!
1j"
1k"
1e
1f
10!
07!
02!
1M
1L
0=!
0;!
15!
#20000
0$
0&
0!
0@!
08!
1N
0-!
0:!
#25000
1!
0N
1-!
0j"
1i"
0k"
0e
0f
0<!
12!
0M
0L
#30000
1&
0!
18!
1N
0-!
#35000
1!
0N
1-!
#40000
0&
0!
08!
1N
0-!
#45000
1'
1!
19!
0N
1-!
1:!
1;!
#50000
1$
0!
1@!
1N
0-!
#55000
1!
0N
1-!
1j"
1I"
1G!
0:!
00!
16!
05!
0;!
#60000
0!
1N
0-!
#65000
1!
0N
1-!
0j"
1h"
0i"
0I"
1:!
0G!
1;!
#70000
0!
1N
0-!
#75000
1!
0N
1-!
1j"
1I"
1G!
0:!
10!
15!
0;!
#80000
0'
0!
09!
1N
0-!
#85000
1!
0N
1-!
0j"
1i"
0I"
1H!
17!
00!
0G!
06!
14!
0H!
05!
#90000
1&
0$
0!
18!
0@!
1N
0-!
#95000
1!
0N
1-!
0h"
0i"
1g"
1?!
07!
13!
1:!
1;!
11!
04!
01"
0-"
0'"
0#"
0}!
0<"
0@"
0w!
0s!
0o!
0k!
0g!
0c!
0_!
0[!
0W!
0S!
0O!
0K!
1H!
0E!
05"
0B!
14!
1="
1("
1$"
1~!
0C!
06"
0F!
0L!
0P!
0T!
0X!
0\!
0`!
0d!
0h!
0l!
0p!
0t!
0x!
0A"
0="
0~!
0$"
0("
0."
02"
#100000
0&
1$
0!
08!
1@!
1N
0-!
1*"
0:!
#105000
1!
0N
1-!
1j"
1l"
1,!
0?!
03!
02!
1C
01!
11"
1-"
0*"
1'"
1#"
1}!
1<"
1@"
1w!
1s!
1o!
1k!
1g!
1c!
1_!
1[!
1W!
1S!
1O!
1K!
0H!
1E!
15"
1B!
0;!
04!
1A"
16"
12"
1."
1x!
1t!
1p!
1l!
1h!
1d!
1`!
1\!
1X!
1T!
1P!
1L!
1F!
1C!
#110000
0$
0!
0@!
1N
0-!
#115000
1'
1!
19!
0N
1-!
0j"
0g"
0l"
0,!
1<!
17!
12!
0C
#120000
1&
1$
0!
18!
1@!
1N
0-!
1:!
1=!
1;!
#125000
1!
0N
1-!
1j"
1k"
1e
1f
10!
07!
02!
1M
1L
0=!
0;!
15!
#130000
0!
1N
0-!
#135000
1!
0N
1-!
0j"
1i"
0k"
0e
0f
0<!
12!
0M
0L
1=!
1;!
0=!
#140000
0$
0!
0@!
1N
0-!
#145000
1!
0N
1-!
1j"
1I"
1G!
0:!
00!
16!
05!
0;!
#150000
0'
0&
0!
09!
08!
1N
0-!
#155000
1!
0N
1-!
0j"
1h"
0i"
0I"
0G!
#160000
1$
0!
1@!
1N
0-!
#165000
1!
0N
1-!
#170000
0$
0!
0@!
1N
0-!
#175000
1!
0N
1-!
#180000
1&
1$
0!
18!
1@!
1N
0-!
#185000
1'
1!
19!
0N
1-!
1:!
1;!
#190000
0&
0$
0!
08!
0@!
1N
0-!
#195000
1!
0N
1-!
1j"
1I"
1G!
0:!
10!
15!
0;!
#200000
0!
1N
0-!
#205000
1!
0N
1-!
0j"
1i"
0I"
1H!
17!
00!
0G!
06!
14!
0H!
05!
#210000
1$
0!
1@!
1N
0-!
#215000
1!
0N
1-!
0h"
0i"
1g"
1?!
07!
13!
1;!
11!
04!
01"
0-"
1*"
0'"
0#"
0}!
0<"
0@"
0w!
0s!
0o!
0k!
0g!
0c!
0_!
0[!
0W!
0S!
0O!
0K!
1H!
0E!
05"
0B!
14!
1="
1("
1$"
1~!
0C!
06"
0F!
0L!
0P!
0T!
0X!
0\!
0`!
0d!
0h!
0l!
0p!
0t!
0x!
0A"
0="
0~!
0$"
0("
0."
02"
#220000
0'
0$
0!
09!
0@!
1N
0-!
0*"
#225000
1!
0N
1-!
1j"
1E"
1l"
1,!
1g
0?!
03!
02!
09"
1A!
0>!
1C
1>
01!
1,"
0;"
11"
1-"
1'"
1#"
1}!
1<"
1@"
1w!
1s!
1o!
1k!
1g!
1c!
1_!
1[!
1W!
1S!
1O!
1K!
0H!
1E!
15"
0;!
04!
1A"
16"
12"
1."
1x!
1t!
1p!
1l!
1h!
1d!
1`!
1\!
1X!
1T!
1P!
1L!
1F!
1C!
10"
0-"
1="
1~!
1$"
1("
0D"
0C!
14"
01"
0."
1D!
05"
02"
1J!
0E!
06"
1N!
0K!
0F!
1R!
0O!
0L!
1V!
0S!
0P!
1Z!
0W!
0T!
1^!
0[!
0X!
1b!
0_!
0\!
1f!
0c!
0`!
1j!
0g!
0d!
1n!
0k!
0h!
1r!
0o!
0l!
1v!
0s!
0p!
1z!
0w!
0t!
1{!
0@"
0x!
1|!
0<"
0A"
1""
0}!
0="
1&"
0#"
0~!
0'"
0$"
0("
#230000
1$
0!
1@!
1N
0-!
1D"
1A"
16"
12"
1."
1x!
1t!
1p!
1l!
1h!
1d!
1`!
1\!
1X!
1T!
1P!
1L!
1F!
1C!
#235000
1!
0N
1-!
0j"
0g"
0l"
0,!
1<!
17!
12!
0C
#240000
0!
1N
0-!
#245000
1!
0N
1-!
#250000
1&
0!
18!
1N
0-!
1:!
1=!
1;!
#255000
1'
1!
19!
0N
1-!
1j"
1k"
1e
1f
10!
07!
02!
1M
1L
0=!
0;!
15!
#260000
0!
1N
0-!
#265000
1!
0N
1-!
0j"
1i"
0k"
0e
0f
0<!
12!
0M
0L
1=!
1;!
0=!
#270000
0!
1N
0-!
#275000
1!
0N
1-!
1j"
1I"
1G!
0:!
00!
16!
05!
0;!
#280000
0!
1N
0-!
#285000
1!
0N
1-!
0j"
1h"
0i"
0I"
1:!
0G!
1;!
#290000
0'
0!
09!
1N
0-!
0:!
0;!
#295000
1!
0N
1-!
#300000
0&
0!
08!
1N
0-!
#305000
1!
0N
1-!
#310000
0!
1N
0-!
#315000
1!
0N
1-!
#320000
0!
1N
0-!
#325000
1'
1!
19!
0N
1-!
1:!
1;!
#330000
0$
1&
0!
0@!
18!
1N
0-!
0D"
0A"
06"
02"
0."
0x!
0t!
0p!
0l!
0h!
0d!
0`!
0\!
0X!
0T!
0P!
0L!
0F!
0C!
#335000
1!
0N
1-!
1j"
1I"
1G!
0:!
10!
15!
0;!
#340000
1$
0!
1@!
1N
0-!
1D"
1A"
16"
12"
1."
1x!
1t!
1p!
1l!
1h!
1d!
1`!
1\!
1X!
1T!
1P!
1L!
1F!
1C!
#345000
1!
0N
1-!
0j"
1i"
0I"
1H!
17!
00!
0G!
06!
14!
0H!
05!
#350000
0!
1N
0-!
#355000
1!
0N
1-!
0h"
0i"
1g"
1?!
07!
13!
1:!
1;!
11!
04!
04"
11"
00"
1-"
1*"
1'"
0&"
1#"
0""
1}!
0|!
1<"
0{!
1@"
0z!
1w!
0v!
1s!
0r!
1o!
0n!
1k!
0j!
1g!
0f!
1c!
0b!
1_!
0^!
1[!
0Z!
1W!
0V!
1S!
0R!
1O!
0N!
1K!
1H!
0J!
1E!
0D!
15"
0,"
1B!
14!
0D"
0A"
06"
02"
0."
0x!
0t!
0p!
0l!
0h!
0d!
0`!
0\!
0X!
0T!
0P!
0L!
0F!
0C!
05"
01"
0'"
0#"
0}!
0<"
0@"
0w!
0s!
0o!
0k!
0g!
0c!
0_!
0[!
0W!
0S!
0O!
0K!
0E!
0-"
1C!
16"
1F!
1L!
1P!
1T!
1X!
1\!
1`!
1d!
1h!
1l!
1p!
1t!
1x!
1A"
1="
1~!
1$"
1("
1."
12"
0."
0F!
0L!
0P!
0T!
0X!
0\!
0`!
0d!
0h!
0l!
0p!
0t!
0x!
0A"
0="
0~!
0$"
0("
02"
06"
#360000
0'
0$
0!
09!
0@!
1N
0-!
0*"
#365000
1!
0N
1-!
1j"
0E"
1+"
1l"
1,!
1h
0g
0?!
03!
02!
1,"
0B!
0A!
1>!
1C
1=
0>
01!
10"
11"
1'"
1#"
1}!
1<"
1@"
1w!
1s!
1o!
1k!
1g!
1c!
1_!
1[!
1W!
1S!
1O!
1K!
0H!
1E!
15"
1D"
0C!
0;!
04!
14"
01"
16"
1F!
1L!
1P!
1T!
1X!
1\!
1`!
1d!
1h!
1l!
1p!
1t!
1x!
1A"
1="
1~!
1$"
1("
12"
1D!
05"
02"
1J!
0E!
06"
1N!
0K!
0F!
1R!
0O!
0L!
1V!
0S!
0P!
1Z!
0W!
0T!
1^!
0[!
0X!
1b!
0_!
0\!
1f!
0c!
0`!
1j!
0g!
0d!
1n!
0k!
0h!
1r!
0o!
0l!
1v!
0s!
0p!
1z!
0w!
0t!
1{!
0@"
0x!
1|!
0<"
0A"
1""
0}!
0="
1&"
0#"
0~!
0'"
0$"
0("
#370000
0&
0!
08!
1N
0-!
0:!
#375000
1!
0N
1-!
0j"
0g"
0l"
0,!
1<!
17!
12!
0C
#380000
1$
0!
1@!
1N
0-!
1A"
16"
12"
1."
1x!
1t!
1p!
1l!
1h!
1d!
1`!
1\!
1X!
1T!
1P!
1L!
1F!
1C!
#385000
1!
0N
1-!
#390000
1&
0$
0!
18!
0@!
1N
0-!
1:!
0A"
06"
02"
0."
0x!
0t!
0p!
0l!
0h!
0d!
0`!
0\!
0X!
0T!
0P!
0L!
0F!
0C!
1=!
1;!
#395000
1'
1!
19!
0N
1-!
1j"
1k"
1e
1f
10!
07!
02!
1M
1L
0=!
0;!
15!
#400000
0!
1N
0-!
#405000
1!
0N
1-!
0j"
1i"
0k"
0e
0f
0<!
12!
0M
0L
1=!
1;!
0=!
#410000
0&
0!
08!
1N
0-!
#415000
1!
0N
1-!
1j"
1I"
1G!
0:!
00!
16!
05!
0;!
#420000
1$
0!
1@!
1N
0-!
1A"
16"
12"
1."
1x!
1t!
1p!
1l!
1h!
1d!
1`!
1\!
1X!
1T!
1P!
1L!
1F!
1C!
#425000
1!
0N
1-!
0j"
1h"
0i"
0I"
1:!
0G!
1;!
#430000
0'
0$
0!
09!
0@!
1N
0-!
0:!
0A"
06"
02"
0."
0x!
0t!
0p!
0l!
0h!
0d!
0`!
0\!
0X!
0T!
0P!
0L!
0F!
0C!
0;!
#435000
1!
0N
1-!
#440000
1&
0!
18!
1N
0-!
#445000
1!
0N
1-!
#450000
1$
0!
1@!
1N
0-!
1A"
16"
12"
1."
1x!
1t!
1p!
1l!
1h!
1d!
1`!
1\!
1X!
1T!
1P!
1L!
1F!
1C!
#455000
1!
0N
1-!
#460000
0!
1N
0-!
#465000
1'
1!
19!
0N
1-!
1:!
1;!
#470000
0&
0!
08!
1N
0-!
#475000
1!
0N
1-!
1j"
1I"
1G!
0:!
10!
15!
0;!
#480000
1&
0!
18!
1N
0-!
#485000
1!
0N
1-!
0j"
1i"
0I"
1H!
17!
00!
0G!
06!
14!
0H!
05!
#490000
0!
1N
0-!
#495000
1!
0N
1-!
0h"
0i"
1g"
1?!
07!
13!
1:!
1;!
11!
04!
04"
11"
00"
1-"
1*"
1'"
0&"
1#"
0""
1}!
0|!
1<"
0{!
1@"
0z!
1w!
0v!
1s!
0r!
1o!
0n!
1k!
0j!
1g!
0f!
1c!
0b!
1_!
0^!
1[!
0Z!
1W!
0V!
1S!
0R!
1O!
0N!
1K!
1H!
0J!
1E!
0D!
15"
0,"
1B!
14!
0A"
06"
02"
0."
0x!
0t!
0p!
0l!
0h!
0d!
0`!
0\!
0X!
0T!
0P!
0L!
0F!
0C!
05"
01"
0'"
0#"
0}!
0<"
0@"
0w!
0s!
0o!
0k!
0g!
0c!
0_!
0[!
0W!
0S!
0O!
0K!
0E!
0-"
1C!
16"
1F!
1L!
1P!
1T!
1X!
1\!
1`!
1d!
1h!
1l!
1p!
1t!
1x!
1A"
1="
1~!
1$"
1("
1."
12"
0."
0F!
0L!
0P!
0T!
0X!
0\!
0`!
0d!
0h!
0l!
0p!
0t!
0x!
0A"
0="
0~!
0$"
0("
02"
06"
#500000
0"
0$
0'
0&
0!
0/!
0@!
09!
08!
1N
0-!
0:!
0*"
#505000
1!
0N
1-!
1j"
1E"
1l"
1,!
1g
0?!
03!
02!
1A!
0>!
1C
1>
01!
1,"
11"
1-"
1'"
1#"
1}!
1<"
1@"
1w!
1s!
1o!
1k!
1g!
1c!
1_!
1[!
1W!
1S!
1O!
1K!
0H!
1E!
15"
0D"
0;!
04!
10"
0-"
16"
1F!
1L!
1P!
1T!
1X!
1\!
1`!
1d!
1h!
1l!
1p!
1t!
1x!
1A"
1="
1~!
1$"
1("
1."
12"
14"
01"
0."
1D!
05"
02"
1J!
0E!
06"
1N!
0K!
0F!
1R!
0O!
0L!
1V!
0S!
0P!
1Z!
0W!
0T!
1^!
0[!
0X!
1b!
0_!
0\!
1f!
0c!
0`!
1j!
0g!
0d!
1n!
0k!
0h!
1r!
0o!
0l!
1v!
0s!
0p!
1z!
0w!
0t!
1{!
0@"
0x!
1|!
0<"
0A"
1""
0}!
0="
1&"
0#"
0~!
0'"
0$"
0("
#510000
1&
0!
18!
1N
0-!
1:!
#515000
1!
0N
1-!
0j"
0g"
0l"
0,!
1<!
17!
12!
0C
1;!
1=!
#520000
1$
0&
0!
1@!
08!
1N
0-!
0:!
0=!
1D"
1A"
16"
12"
1."
1x!
1t!
1p!
1l!
1h!
1d!
1`!
1\!
1X!
1T!
1P!
1L!
1F!
0;!
#525000
1!
0N
1-!
#530000
0$
0!
0@!
1N
0-!
0D"
0A"
06"
02"
0."
0x!
0t!
0p!
0l!
0h!
0d!
0`!
0\!
0X!
0T!
0P!
0L!
0F!
#535000
1'
1!
19!
0N
1-!
#540000
1&
0!
18!
1N
0-!
1:!
1=!
1;!
#545000
1!
0N
1-!
1j"
1k"
1e
1f
10!
07!
02!
1M
1L
0=!
0;!
15!
#550000
0&
0!
08!
1N
0-!
0:!
#555000
1!
0N
1-!
0j"
1i"
0k"
0e
0f
0<!
1:!
12!
0M
0L
1;!
#560000
1$
0!
1@!
1N
0-!
1D"
1A"
16"
12"
1."
1x!
1t!
1p!
1l!
1h!
1d!
1`!
1\!
1X!
1T!
1P!
1L!
1F!
#565000
1!
0N
1-!
1j"
1I"
1G!
0:!
00!
16!
05!
0;!
#570000
0'
1&
0!
09!
18!
1N
0-!
#575000
1!
0N
1-!
0j"
1h"
0i"
0I"
0G!
#580000
0&
0!
08!
1N
0-!
#585000
1!
0N
1-!
#590000
1&
0!
18!
1N
0-!
#595000
1!
0N
1-!
#600000
0!
1N
0-!
#605000
1'
1!
19!
0N
1-!
1:!
1;!
#610000
0!
1N
0-!
#615000
1!
0N
1-!
1j"
1I"
1G!
0:!
10!
15!
0;!
#620000
0$
0!
0@!
1N
0-!
0D"
0A"
06"
02"
0."
0x!
0t!
0p!
0l!
0h!
0d!
0`!
0\!
0X!
0T!
0P!
0L!
0F!
#625000
1!
0N
1-!
0j"
1i"
0I"
1H!
1:!
17!
0G!
0H!
1;!
#630000
0!
1N
0-!
#635000
1!
0N
1-!
1j"
1G!
00!
06!
14!
11!
1H!
05!
#640000
0'
1$
0!
09!
1@!
1N
0-!
1D"
1A"
16"
12"
1."
1x!
1t!
1p!
1l!
1h!
1d!
1`!
1\!
1X!
1T!
1P!
1L!
1F!
#645000
1!
0N
1-!
0h"
0i"
1g"
1B"
17"
13"
1/"
1y!
1u!
1q!
1m!
1i!
1e!
1a!
1]!
1Y!
1U!
1Q!
1M!
1I!
1l"
1,!
1l
1m
1n
1o
1p
1q
1r
1s
1t
1u
1v
1w
1x
1i
1j
1k
1y
0G!
07!
0H!
02!
0:"
1E!
1K!
1O!
1S!
1W!
1[!
08"
1_!
1c!
1g!
1k!
1o!
1s!
1w!
1-"
11"
15"
0C"
1@"
1C
19
18
17
16
15
14
13
12
11
10
1/
1.
1-
1<
1;
1:
1,
01!
04!
0;!
#650000
0!
1N
0-!
#655000
1!
0N
1-!
0j"
0g"
0l"
0,!
1<!
17!
12!
0C
1;!
1=!
#660000
0!
1N
0-!
#665000
1!
0N
1-!
1j"
1k"
1e
1f
10!
07!
02!
1M
1L
0=!
0;!
15!
#670000
0&
0$
0!
08!
0@!
1N
0-!
0:!
0D"
#675000
1'
1!
19!
0N
1-!
0j"
1i"
0k"
0e
0f
0<!
1:!
12!
0M
0L
1;!
#680000
1&
1$
0!
18!
1@!
1N
0-!
1D"
#685000
1!
0N
1-!
1j"
1I"
1G!
0:!
00!
16!
05!
0;!
#690000
0!
1N
0-!
#695000
1!
0N
1-!
0j"
1h"
0i"
0I"
1:!
0G!
1;!
#700000
0$
0!
0@!
1N
0-!
0D"
#705000
1!
0N
1-!
1j"
1I"
1G!
0:!
10!
15!
0;!
#710000
0'
0&
0!
09!
08!
1N
0-!
#715000
1!
0N
1-!
0j"
1i"
0I"
1H!
1:!
17!
0G!
0H!
1;!
#720000
1$
0!
1@!
1N
0-!
1D"
#725000
1!
0N
1-!
1j"
1G!
00!
06!
14!
11!
1H!
05!
#730000
1&
0$
0!
18!
0@!
1N
0-!
0D"
#735000
1!
0N
1-!
0h"
0i"
1g"
0E"
1l"
1,!
0g
0G!
07!
0H!
02!
0A!
1>!
1C
0>
01!
04!
0B!
1D"
0;!
0C!
#740000
1$
0!
1@!
1N
0-!
1C!
