Lab5/simulation/qsim/dds_and_nios_lab.msim.vcd
$comment
	File created using the following command:
		vcd file dds_and_nios_lab.msim.vcd -direction
$end
$date
	Sun Mar 15 18:10:29 2020
$end
$version
	ModelSim Version 10.3c
$end
$timescale
	1ps
$end

$scope module lfsr_vlg_vec_tst $end
$var reg 1 ! clk $end
$var reg 1 " reset $end
$var wire 1 # lfsr_out [4] $end
$var wire 1 $ lfsr_out [3] $end
$var wire 1 % lfsr_out [2] $end
$var wire 1 & lfsr_out [1] $end
$var wire 1 ' lfsr_out [0] $end
$var wire 1 ( sampler $end

$scope module i1 $end
$var wire 1 ) gnd $end
$var wire 1 * vcc $end
$var wire 1 + unknown $end
$var tri1 1 , devclrn $end
$var tri1 1 - devpor $end
$var tri1 1 . devoe $end
$var wire 1 / lfsr_out[0]~output_o $end
$var wire 1 0 lfsr_out[1]~output_o $end
$var wire 1 1 lfsr_out[2]~output_o $end
$var wire 1 2 lfsr_out[3]~output_o $end
$var wire 1 3 lfsr_out[4]~output_o $end
$var wire 1 4 clk~input_o $end
$var wire 1 5 reset~input_o $end
$var wire 1 6 lfsr_out~4_combout $end
$var wire 1 7 lfsr_out[4]~reg0_q $end
$var wire 1 8 lfsr_out~3_combout $end
$var wire 1 9 lfsr_out[3]~reg0_q $end
$var wire 1 : lfsr_out~2_combout $end
$var wire 1 ; lfsr_out[2]~reg0_q $end
$var wire 1 < lfsr_out~1_combout $end
$var wire 1 = lfsr_out[1]~reg0_q $end
$var wire 1 > lfsr_out~0_combout $end
$var wire 1 ? lfsr_out[0]~reg0_q $end
$upscope $end
$upscope $end
$enddefinitions $end
#0
$dumpvars
0!
0"
0'
0&
0%
0$
0#
x(
0)
1*
x+
1,
1-
1.
0/
00
01
02
03
04
05
06
07
08
09
0:
0;
0<
0=
0>
0?
$end
#500
1!
0(
14
#1000
0!
1(
04
#1500
1!
0(
14
#2000
0!
1(
04
#2500
1!
0(
14
#3000
0!
1(
04
#3500
1!
0(
14
#4000
0!
1(
04
#4500
1!
0(
14
#5000
0!
1(
04
#5500
1!
0(
14
#6000
0!
1(
04
#6500
1!
0(
14
#7000
0!
1(
04
#7500
1!
0(
14
#8000
0!
1(
04
#8500
1!
0(
14
#9000
0!
1(
04
#9500
1!
0(
14
#10000
0!
1(
04
#10500
1!
0(
14
#11000
0!
1(
04
#11500
1!
0(
14
#12000
0!
1(
04
#12500
1!
0(
14
#13000
0!
1(
04
#13500
1!
0(
14
#14000
0!
1(
04
#14500
1!
0(
14
#15000
0!
1(
04
#15500
1!
0(
14
#16000
0!
1(
04
#16500
1!
0(
14
#17000
0!
1(
04
#17500
1!
0(
14
#18000
0!
1(
04
#18500
1!
0(
14
#19000
0!
1(
04
#19500
1!
0(
14
#20000
0!
1(
04
#20500
1!
0(
14
#21000
0!
1(
04
#21500
1!
0(
14
#22000
0!
1(
04
#22500
1!
0(
14
#23000
0!
1(
04
#23500
1!
0(
14
#24000
0!
1(
04
#24500
1!
0(
14
#25000
0!
1(
04
#25500
1!
0(
14
#26000
0!
1(
04
#26500
1!
0(
14
#27000
0!
1(
04
#27500
1!
0(
14
#28000
0!
1(
04
#28500
1!
0(
14
#29000
0!
1(
04
#29500
1!
0(
14
#30000
0!
1(
04
#30500
1!
0(
14
#31000
0!
1(
04
#31500
1!
0(
14
#32000
0!
1(
04
#32500
1!
0(
14
#33000
0!
1(
04
#33500
1!
0(
14
#34000
0!
1(
04
#34500
1!
0(
14
#35000
0!
1(
04
#35500
1!
0(
14
#36000
0!
1(
04
#36500
1!
0(
14
#37000
0!
1(
04
#37500
1!
0(
14
#38000
0!
1(
04
#38500
1!
0(
14
#39000
0!
1(
04
#39500
1!
0(
14
#40000
0!
1(
04
#40500
1!
0(
14
#41000
0!
1(
04
#41500
1!
0(
14
#42000
0!
1(
04
#42500
1!
0(
14
#43000
0!
1(
04
#43500
1!
0(
14
#44000
0!
1(
04
#44500
1!
0(
14
#45000
0!
1(
04
#45500
1!
0(
14
#46000
0!
1(
04
#46500
1!
0(
14
#47000
0!
1(
04
#47500
1!
0(
14
#48000
0!
1(
04
#48500
1!
0(
14
#49000
0!
1(
04
#49500
1!
0(
14
#50000
0!
1(
04
#50500
1!
0(
14
#51000
0!
1(
04
#51500
1!
0(
14
#52000
0!
1(
04
#52500
1!
0(
14
#53000
0!
1(
04
#53500
1!
0(
14
#54000
0!
1(
04
#54500
1!
0(
14
#55000
0!
1(
04
#55500
1!
0(
14
#56000
0!
1(
04
#56500
1!
0(
14
#57000
0!
1(
04
#57500
1!
0(
14
#58000
0!
1(
04
#58500
1!
0(
14
#59000
0!
1(
04
#59500
1!
0(
14
#60000
0!
1(
04
#60500
1!
0(
14
#61000
0!
1(
04
#61500
1!
0(
14
#62000
0!
1(
04
#62500
1!
0(
14
#63000
0!
1(
04
#63500
1!
0(
14
#64000
0!
1(
04
#64500
1!
0(
14
#65000
0!
1(
04
#65500
1!
0(
14
#66000
0!
1(
04
#66500
1!
0(
14
#67000
0!
1(
04
#67500
1!
0(
14
#68000
0!
1(
04
#68500
1!
0(
14
#69000
0!
1(
04
#69500
1!
0(
14
#70000
0!
1(
04
#70500
1!
0(
14
#71000
0!
1(
04
#71500
1!
0(
14
#72000
0!
1(
04
#72500
1!
0(
14
#73000
0!
1(
04
#73500
1!
0(
14
#74000
0!
1(
04
#74500
1!
0(
14
#75000
0!
1(
04
#75500
1!
0(
14
#76000
0!
1(
04
#76500
1!
0(
14
#77000
0!
1(
04
#77500
1!
0(
14
#78000
0!
1(
04
#78500
1!
0(
14
#79000
0!
1(
04
#79500
1!
0(
14
#80000
0!
1(
04
#80500
1!
0(
14
#81000
0!
1(
04
#81500
1!
0(
14
#82000
0!
1(
04
#82500
1!
0(
14
#83000
0!
1(
04
#83500
1!
0(
14
#84000
0!
1(
04
#84500
1!
0(
14
#85000
0!
1(
04
#85500
1!
0(
14
#86000
0!
1(
04
#86500
1!
0(
14
#87000
0!
1(
04
#87500
1!
0(
14
#88000
0!
1(
04
#88500
1!
0(
14
#89000
0!
1(
04
#89500
1!
0(
14
#90000
0!
1(
04
#90500
1!
0(
14
#91000
0!
1(
04
#91500
1!
0(
14
#92000
0!
1(
04
#92500
1!
0(
14
#93000
0!
1(
04
#93500
1!
0(
14
#94000
0!
1(
04
#94500
1!
0(
14
#95000
0!
1(
04
#95500
1!
0(
14
#96000
0!
1(
04
#96500
1!
0(
14
#97000
0!
1(
04
#97500
1!
0(
14
#98000
0!
1(
04
#98500
1!
0(
14
#99000
0!
1(
04
#99500
1!
0(
14
#100000
0!
1(
04
#100500
1!
0(
14
#101000
0!
1(
04
#101500
1!
0(
14
#102000
0!
1(
04
#102500
1!
0(
14
#103000
0!
1(
04
#103500
1!
0(
14
#104000
0!
1(
04
#104500
1!
0(
14
#105000
0!
1(
04
#105500
1!
0(
14
#106000
0!
1(
04
#106500
1!
0(
14
#107000
0!
1(
04
#107500
1!
0(
14
#108000
0!
1(
04
#108500
1!
0(
14
#109000
0!
1(
04
#109500
1!
0(
14
#110000
0!
1(
04
#110500
1!
0(
14
#111000
0!
1(
04
#111500
1!
0(
14
#112000
0!
1(
04
#112500
1!
0(
14
#113000
0!
1(
04
#113500
1!
0(
14
#114000
0!
1(
04
#114500
1!
0(
14
#115000
0!
1(
04
#115500
1!
0(
14
#116000
0!
1(
04
#116500
1!
0(
14
#117000
0!
1(
04
#117500
1!
0(
14
#118000
0!
1(
04
#118500
1!
0(
14
#119000
0!
1(
04
#119500
1!
0(
14
#120000
0!
1(
04
#120500
1!
0(
14
#121000
0!
1(
04
#121500
1!
0(
14
#122000
0!
1(
04
#122500
1!
0(
14
#123000
0!
1(
04
#123500
1!
0(
14
#124000
0!
1(
04
#124500
1!
0(
14
#125000
0!
1(
04
#125500
1!
0(
14
#126000
0!
1(
04
#126500
1!
0(
14
#127000
0!
1(
04
#127500
1!
0(
14
#128000
0!
1(
04
#128500
1!
0(
14
#129000
0!
1(
04
#129500
1!
0(
14
#130000
0!
1(
04
#130500
1!
0(
14
#131000
0!
1(
04
#131500
1!
0(
14
#132000
0!
1(
04
#132500
1!
0(
14
#133000
0!
1(
04
#133500
1!
0(
14
#134000
0!
1(
04
#134500
1!
0(
14
#135000
0!
1(
04
#135500
1!
0(
14
#136000
0!
1(
04
#136500
1!
0(
14
#137000
0!
1(
04
#137500
1!
0(
14
#138000
0!
1(
04
#138500
1!
0(
14
#139000
0!
1(
04
#139500
1!
0(
14
#140000
0!
1(
04
#140500
1!
0(
14
#141000
0!
1(
04
#141500
1!
0(
14
#142000
0!
1(
04
#142500
1!
0(
14
#143000
0!
1(
04
#143500
1!
0(
14
#144000
0!
1(
04
#144500
1!
0(
14
#145000
0!
1(
04
#145500
1!
0(
14
#146000
0!
1(
04
#146500
1!
0(
14
#147000
0!
1(
04
#147500
1!
0(
14
#148000
0!
1(
04
#148500
1!
0(
14
#149000
0!
1(
04
#149500
1!
0(
14
#150000
0!
1(
04
#150500
1!
0(
14
#151000
0!
1(
04
#151500
1!
0(
14
#152000
0!
1(
04
#152500
1!
0(
14
#153000
0!
1(
04
#153500
1!
0(
14
#154000
0!
1(
04
#154500
1!
0(
14
#155000
0!
1(
04
#155500
1!
0(
14
#156000
0!
1(
04
#156500
1!
0(
14
#157000
0!
1(
04
#157500
1!
0(
14
#158000
0!
1(
04
#158500
1!
0(
14
#159000
0!
1(
04
#159500
1!
0(
14
#160000
0!
1(
04
#160500
1!
0(
14
#161000
0!
1(
04
#161500
1!
0(
14
#162000
0!
1(
04
#162500
1!
0(
14
#163000
0!
1(
04
#163500
1!
0(
14
#164000
0!
1(
04
#164500
1!
0(
14
#165000
0!
1(
04
#165500
1!
0(
14
#166000
0!
1(
04
#166500
1!
0(
14
#167000
0!
1(
04
#167500
1!
0(
14
#168000
0!
1(
04
#168500
1!
0(
14
#169000
0!
1(
04
#169500
1!
0(
14
#170000
0!
1(
04
#170500
1!
0(
14
#171000
0!
1(
04
#171500
1!
0(
14
#172000
0!
1(
04
#172500
1!
0(
14
#173000
0!
1(
04
#173500
1!
0(
14
#174000
0!
1(
04
#174500
1!
0(
14
#175000
0!
1(
04
#175500
1!
0(
14
#176000
0!
1(
04
#176500
1!
0(
14
#177000
0!
1(
04
#177500
1!
0(
14
#178000
0!
1(
04
#178500
1!
0(
14
#179000
0!
1(
04
#179500
1!
0(
14
#180000
0!
1(
04
#180500
1!
0(
14
#181000
0!
1(
04
#181500
1!
0(
14
#182000
0!
1(
04
#182500
1!
0(
14
#183000
0!
1(
04
#183500
1!
0(
14
#184000
0!
1(
04
#184500
1!
0(
14
#185000
0!
1(
04
#185500
1!
0(
14
#186000
0!
1(
04
#186500
1!
0(
14
#187000
0!
1(
04
#187500
1!
0(
14
#188000
0!
1(
04
#188500
1!
0(
14
#189000
0!
1(
04
#189500
1!
0(
14
#190000
0!
1(
04
#190500
1!
0(
14
#191000
0!
1(
04
#191500
1!
0(
14
#192000
0!
1(
04
#192500
1!
0(
14
#193000
0!
1(
04
#193500
1!
0(
14
#194000
0!
1(
04
#194500
1!
0(
14
#195000
0!
1(
04
#195500
1!
0(
14
#196000
0!
1(
04
#196500
1!
0(
14
#197000
0!
1(
04
#197500
1!
0(
14
#198000
0!
1(
04
#198500
1!
0(
14
#199000
0!
1(
04
#199500
1!
0(
14
#200000
0!
1(
04
#200500
1!
0(
14
#201000
0!
1(
04
#201500
1!
0(
14
#202000
0!
1(
04
#202500
1!
0(
14
#203000
0!
1(
04
#203500
1!
0(
14
#204000
0!
1(
04
#204500
1!
0(
14
#205000
0!
1(
04
#205500
1!
0(
14
#206000
0!
1(
04
#206500
1!
0(
14
#207000
0!
1(
04
#207500
1!
0(
14
#208000
0!
1(
04
#208500
1!
0(
14
#209000
0!
1(
04
#209500
1!
0(
14
#210000
0!
1(
04
#210500
1!
0(
14
#211000
0!
1(
04
#211500
1!
0(
14
#212000
0!
1(
04
#212500
1!
0(
14
#213000
0!
1(
04
#213500
1!
0(
14
#214000
0!
1(
04
#214500
1!
0(
14
#215000
0!
1(
04
#215500
1!
0(
14
#216000
0!
1(
04
#216500
1!
0(
14
#217000
0!
1(
04
#217500
1!
0(
14
#218000
0!
1(
04
#218500
1!
0(
14
#219000
0!
1(
04
#219500
1!
0(
14
#220000
0!
1(
04
#220500
1!
0(
14
#221000
0!
1(
04
#221500
1!
0(
14
#222000
0!
1(
04
#222500
1!
0(
14
#223000
0!
1(
04
#223500
1!
0(
14
#224000
0!
1(
04
#224500
1!
0(
14
#225000
0!
1(
04
#225500
1!
0(
14
#226000
0!
1(
04
#226500
1!
0(
14
#227000
0!
1(
04
#227500
1!
0(
14
#228000
0!
1(
04
#228500
1!
0(
14
#229000
0!
1(
04
#229500
1!
0(
14
#230000
0!
1(
04
#230500
1!
0(
14
#231000
0!
1(
04
#231500
1!
0(
14
#232000
0!
1(
04
#232500
1!
0(
14
#233000
0!
1(
04
#233500
1!
0(
14
#234000
0!
1(
04
#234500
1!
0(
14
#235000
0!
1(
04
#235500
1!
0(
14
#236000
0!
1(
04
#236500
1!
0(
14
#237000
0!
1(
04
#237500
1!
0(
14
#238000
0!
1(
04
#238500
1!
0(
14
#239000
0!
1(
04
#239500
1!
0(
14
#240000
0!
1(
04
#240500
1!
0(
14
#241000
0!
1(
04
#241500
1!
0(
14
#242000
0!
1(
04
#242500
1!
0(
14
#243000
0!
1(
04
#243500
1!
0(
14
#244000
0!
1(
04
#244500
1!
0(
14
#245000
0!
1(
04
#245500
1!
0(
14
#246000
0!
1(
04
#246500
1!
0(
14
#247000
0!
1(
04
#247500
1!
0(
14
#248000
0!
1(
04
#248500
1!
0(
14
#249000
0!
1(
04
#249500
1!
0(
14
#250000
0!
1(
04
#250500
1!
0(
14
#251000
0!
1(
04
#251500
1!
0(
14
#252000
0!
1(
04
#252500
1!
0(
14
#253000
0!
1(
04
#253500
1!
0(
14
#254000
0!
1(
04
#254500
1!
0(
14
#255000
0!
1(
04
#255500
1!
0(
14
#256000
0!
1(
04
#256500
1!
0(
14
#257000
0!
1(
04
#257500
1!
0(
14
#258000
0!
1(
04
#258500
1!
0(
14
#259000
0!
1(
04
#259500
1!
0(
14
#260000
0!
1(
04
#260500
1!
0(
14
#261000
0!
1(
04
#261500
1!
0(
14
#262000
0!
1(
04
#262500
1!
0(
14
#263000
0!
1(
04
#263500
1!
0(
14
#264000
0!
1(
04
#264500
1!
0(
14
#265000
0!
1(
04
#265500
1!
0(
14
#266000
0!
1(
04
#266500
1!
0(
14
#267000
0!
1(
04
#267500
1!
0(
14
#268000
0!
1(
04
#268500
1!
0(
14
#269000
0!
1(
04
#269500
1!
0(
14
#270000
0!
1(
04
#270500
1!
0(
14
#271000
0!
1(
04
#271500
1!
0(
14
#272000
0!
1(
04
#272500
1!
0(
14
#273000
0!
1(
04
#273500
1!
0(
14
#274000
0!
1(
04
#274500
1!
0(
14
#275000
0!
1(
04
#275500
1!
0(
14
#276000
0!
1(
04
#276500
1!
0(
14
#277000
0!
1(
04
#277500
1!
0(
14
#278000
0!
1(
04
#278500
1!
0(
14
#279000
0!
1(
04
#279500
1!
0(
14
#280000
0!
1(
04
#280500
1!
0(
14
#281000
0!
1(
04
#281500
1!
0(
14
#282000
0!
1(
04
#282500
1!
0(
14
#283000
0!
1(
04
#283500
1!
0(
14
#284000
0!
1(
04
#284500
1!
0(
14
#285000
0!
1(
04
#285500
1!
0(
14
#286000
0!
1(
04
#286500
1!
0(
14
#287000
0!
1(
04
#287500
1!
0(
14
#288000
0!
1(
04
#288500
1!
0(
14
#289000
0!
1(
04
#289500
1!
0(
14
#290000
0!
1(
04
#290500
1!
0(
14
#291000
0!
1(
04
#291500
1!
0(
14
#292000
0!
1(
04
#292500
1!
0(
14
#293000
0!
1(
04
#293500
1!
0(
14
#294000
0!
1(
04
#294500
1!
0(
14
#295000
0!
1(
04
#295500
1!
0(
14
#296000
0!
1(
04
#296500
1!
0(
14
#297000
0!
1(
04
#297500
1!
0(
14
#298000
0!
1(
04
#298500
1!
0(
14
#299000
0!
1(
04
#299500
1!
0(
14
#300000
0!
1(
04
#300500
1!
0(
14
#301000
0!
1(
04
#301500
1!
0(
14
#302000
0!
1(
04
#302500
1!
0(
14
#303000
0!
1(
04
#303500
1!
0(
14
#304000
0!
1(
04
#304500
1!
0(
14
#305000
0!
1(
04
#305500
1!
0(
14
#306000
0!
1(
04
#306500
1!
0(
14
#307000
0!
1(
04
#307500
1!
0(
14
#308000
0!
1(
04
#308500
1!
0(
14
#309000
0!
1(
04
#309500
1!
0(
14
#310000
0!
1(
04
#310500
1!
0(
14
#311000
0!
1(
04
#311500
1!
0(
14
#312000
0!
1(
04
#312500
1!
0(
14
#313000
0!
1(
04
#313500
1!
0(
14
#314000
0!
1(
04
#314500
1!
0(
14
#315000
0!
1(
04
#315500
1!
0(
14
#316000
0!
1(
04
#316500
1!
0(
14
#317000
0!
1(
04
#317500
1!
0(
14
#318000
0!
1(
04
#318500
1!
0(
14
#319000
0!
1(
04
#319500
1!
0(
14
#320000
0!
1(
04
#320500
1!
0(
14
#321000
0!
1(
04
#321500
1!
0(
14
#322000
0!
1(
04
#322500
1!
0(
14
#323000
0!
1(
04
#323500
1!
0(
14
#324000
0!
1(
04
#324500
1!
0(
14
#325000
0!
1(
04
#325500
1!
0(
14
#326000
0!
1(
04
#326500
1!
0(
14
#327000
0!
1(
04
#327500
1!
0(
14
#328000
0!
1(
04
#328500
1!
0(
14
#329000
0!
1(
04
#329500
1!
0(
14
#330000
0!
1(
04
#330500
1!
0(
14
#331000
0!
1(
04
#331500
1!
0(
14
#332000
0!
1(
04
#332500
1!
0(
14
#333000
0!
1(
04
#333500
1!
0(
14
#334000
0!
1(
04
#334500
1!
0(
14
#335000
0!
1(
04
#335500
1!
0(
14
#336000
0!
1(
04
#336500
1!
0(
14
#337000
0!
1(
04
#337500
1!
0(
14
#338000
0!
1(
04
#338500
1!
0(
14
#339000
0!
1(
04
#339500
1!
0(
14
#340000
0!
1(
04
#340500
1!
0(
14
#341000
0!
1(
04
#341500
1!
0(
14
#342000
0!
1(
04
#342500
1!
0(
14
#343000
0!
1(
04
#343500
1!
0(
14
#344000
0!
1(
04
#344500
1!
0(
14
#345000
0!
1(
04
#345500
1!
0(
14
#346000
0!
1(
04
#346500
1!
0(
14
#347000
0!
1(
04
#347500
1!
0(
14
#348000
0!
1(
04
#348500
1!
0(
14
#349000
0!
1(
04
#349500
1!
0(
14
#350000
0!
1(
04
#350500
1!
0(
14
#351000
0!
1(
04
#351500
1!
0(
14
#352000
0!
1(
04
#352500
1!
0(
14
#353000
0!
1(
04
#353500
1!
0(
14
#354000
0!
1(
04
#354500
1!
0(
14
#355000
0!
1(
04
#355500
1!
0(
14
#356000
0!
1(
04
#356500
1!
0(
14
#357000
0!
1(
04
#357500
1!
0(
14
#358000
0!
1(
04
#358500
1!
0(
14
#359000
0!
1(
04
#359500
1!
0(
14
#360000
0!
1(
04
#360500
1!
0(
14
#361000
0!
1(
04
#361500
1!
0(
14
#362000
0!
1(
04
#362500
1!
0(
14
#363000
0!
1(
04
#363500
1!
0(
14
#364000
0!
1(
04
#364500
1!
0(
14
#365000
0!
1(
04
#365500
1!
0(
14
#366000
0!
1(
04
#366500
1!
0(
14
#367000
0!
1(
04
#367500
1!
0(
14
#368000
0!
1(
04
#368500
1!
0(
14
#369000
0!
1(
04
#369500
1!
0(
14
#370000
0!
1(
04
#370500
1!
0(
14
#371000
0!
1(
04
#371500
1!
0(
14
#372000
0!
1(
04
#372500
1!
0(
14
#373000
0!
1(
04
#373500
1!
0(
14
#374000
0!
1(
04
#374500
1!
0(
14
#375000
0!
1(
04
#375500
1!
0(
14
#376000
0!
1(
04
#376500
1!
0(
14
#377000
0!
1(
04
#377500
1!
0(
14
#378000
0!
1(
04
#378500
1!
0(
14
#379000
0!
1(
04
#379500
1!
0(
14
#380000
0!
1(
04
#380500
1!
0(
14
#381000
0!
1(
04
#381500
1!
0(
14
#382000
0!
1(
04
#382500
1!
0(
14
#383000
0!
1(
04
#383500
1!
0(
14
#384000
0!
1(
04
#384500
1!
0(
14
#385000
0!
1(
04
#385500
1!
0(
14
#386000
0!
1(
04
#386500
1!
0(
14
#387000
0!
1(
04
#387500
1!
0(
14
#388000
0!
1(
04
#388500
1!
0(
14
#389000
0!
1(
04
#389500
1!
0(
14
#390000
0!
1(
04
#390500
1!
0(
14
#391000
0!
1(
04
#391500
1!
0(
14
#392000
0!
1(
04
#392500
1!
0(
14
#393000
0!
1(
04
#393500
1!
0(
14
#394000
0!
1(
04
#394500
1!
0(
14
#395000
0!
1(
04
#395500
1!
0(
14
#396000
0!
1(
04
#396500
1!
0(
14
#397000
0!
1(
04
#397500
1!
0(
14
#398000
0!
1(
04
#398500
1!
0(
14
#399000
0!
1(
04
#399500
1!
0(
14
#400000
0!
1(
04
#400500
1!
0(
14
#401000
0!
1(
04
#401500
1!
0(
14
#402000
0!
1(
04
#402500
1!
0(
14
#403000
0!
1(
04
#403500
1!
0(
14
#404000
0!
1(
04
#404500
1!
0(
14
#405000
0!
1(
04
#405500
1!
0(
14
#406000
0!
1(
04
#406500
1!
0(
14
#407000
0!
1(
04
#407500
1!
0(
14
#408000
0!
1(
04
#408500
1!
0(
14
#409000
0!
1(
04
#409500
1!
0(
14
#410000
0!
1(
04
#410500
1!
0(
14
#411000
0!
1(
04
#411500
1!
0(
14
#412000
0!
1(
04
#412500
1!
0(
14
#413000
0!
1(
04
#413500
1!
0(
14
#414000
0!
1(
04
#414500
1!
0(
14
#415000
0!
1(
04
#415500
1!
0(
14
#416000
0!
1(
04
#416500
1!
0(
14
#417000
0!
1(
04
#417500
1!
0(
14
#418000
0!
1(
04
#418500
1!
0(
14
#419000
0!
1(
04
#419500
1!
0(
14
#420000
0!
1(
04
#420500
1!
0(
14
#421000
0!
1(
04
#421500
1!
0(
14
#422000
0!
1(
04
#422500
1!
0(
14
#423000
0!
1(
04
#423500
1!
0(
14
#424000
0!
1(
04
#424500
1!
0(
14
#425000
0!
1(
04
#425500
1!
0(
14
#426000
0!
1(
04
#426500
1!
0(
14
#427000
0!
1(
04
#427500
1!
0(
14
#428000
0!
1(
04
#428500
1!
0(
14
#429000
0!
1(
04
#429500
1!
0(
14
#430000
0!
1(
04
#430500
1!
0(
14
#431000
0!
1(
04
#431500
1!
0(
14
#432000
0!
1(
04
#432500
1!
0(
14
#433000
0!
1(
04
#433500
1!
0(
14
#434000
0!
1(
04
#434500
1!
0(
14
#435000
0!
1(
04
#435500
1!
0(
14
#436000
0!
1(
04
#436500
1!
0(
14
#437000
0!
1(
04
#437500
1!
0(
14
#438000
0!
1(
04
#438500
1!
0(
14
#439000
0!
1(
04
#439500
1!
0(
14
#440000
0!
1(
04
#440500
1!
0(
14
#441000
0!
1(
04
#441500
1!
0(
14
#442000
0!
1(
04
#442500
1!
0(
14
#443000
0!
1(
04
#443500
1!
0(
14
#444000
0!
1(
04
#444500
1!
0(
14
#445000
0!
1(
04
#445500
1!
0(
14
#446000
0!
1(
04
#446500
1!
0(
14
#447000
0!
1(
04
#447500
1!
0(
14
#448000
0!
1(
04
#448500
1!
0(
14
#449000
0!
1(
04
#449500
1!
0(
14
#450000
0!
1(
04
#450500
1!
0(
14
#451000
0!
1(
04
#451500
1!
0(
14
#452000
0!
1(
04
#452500
1!
0(
14
#453000
0!
1(
04
#453500
1!
0(
14
#454000
0!
1(
04
#454500
1!
0(
14
#455000
0!
1(
04
#455500
1!
0(
14
#456000
0!
1(
04
#456500
1!
0(
14
#457000
0!
1(
04
#457500
1!
0(
14
#458000
0!
1(
04
#458500
1!
0(
14
#459000
0!
1(
04
#459500
1!
0(
14
#460000
0!
1(
04
#460500
1!
0(
14
#461000
0!
1(
04
#461500
1!
0(
14
#462000
0!
1(
04
#462500
1!
0(
14
#463000
0!
1(
04
#463500
1!
0(
14
#464000
0!
1(
04
#464500
1!
0(
14
#465000
0!
1(
04
#465500
1!
0(
14
#466000
0!
1(
04
#466500
1!
0(
14
#467000
0!
1(
04
#467500
1!
0(
14
#468000
0!
1(
04
#468500
1!
0(
14
#469000
0!
1(
04
#469500
1!
0(
14
#470000
0!
1(
04
#470500
1!
0(
14
#471000
0!
1(
04
#471500
1!
0(
14
#472000
0!
1(
04
#472500
1!
0(
14
#473000
0!
1(
04
#473500
1!
0(
14
#474000
0!
1(
04
#474500
1!
0(
14
#475000
0!
1(
04
#475500
1!
0(
14
#476000
0!
1(
04
#476500
1!
0(
14
#477000
0!
1(
04
#477500
1!
0(
14
#478000
0!
1(
04
#478500
1!
0(
14
#479000
0!
1(
04
#479500
1!
0(
14
#480000
0!
1(
04
#480500
1!
0(
14
#481000
0!
1(
04
#481500
1!
0(
14
#482000
0!
1(
04
#482500
1!
0(
14
#483000
0!
1(
04
#483500
1!
0(
14
#484000
0!
1(
04
#484500
1!
0(
14
#485000
0!
1(
04
#485500
1!
0(
14
#486000
0!
1(
04
#486500
1!
0(
14
#487000
0!
1(
04
#487500
1!
0(
14
#488000
0!
1(
04
#488500
1!
0(
14
#489000
0!
1(
04
#489500
1!
0(
14
#490000
0!
1(
04
#490500
1!
0(
14
#491000
0!
1(
04
#491500
1!
0(
14
#492000
0!
1(
04
#492500
1!
0(
14
#493000
0!
1(
04
#493500
1!
0(
14
#494000
0!
1(
04
#494500
1!
0(
14
#495000
0!
1(
04
#495500
1!
0(
14
#496000
0!
1(
04
#496500
1!
0(
14
#497000
0!
1(
04
#497500
1!
0(
14
#498000
0!
1(
04
#498500
1!
0(
14
#499000
0!
1(
04
#499500
1!
0(
14
#500000
0!
1(
04
#500500
1!
0(
14
#501000
0!
1(
04
#501500
1!
0(
14
#502000
0!
1(
04
#502500
1!
0(
14
#503000
0!
1(
04
#503500
1!
0(
14
#504000
0!
1(
04
#504500
1!
0(
14
#505000
0!
1(
04
#505500
1!
0(
14
#506000
0!
1(
04
#506500
1!
0(
14
#507000
0!
1(
04
#507500
1!
0(
14
#508000
0!
1(
04
#508500
1!
0(
14
#509000
0!
1(
04
#509500
1!
0(
14
#510000
0!
1(
04
#510500
1!
0(
14
#511000
0!
1(
04
#511500
1!
0(
14
#512000
0!
1(
04
#512500
1!
0(
14
#513000
0!
1(
04
#513500
1!
0(
14
#514000
0!
1(
04
#514500
1!
0(
14
#515000
0!
1(
04
#515500
1!
0(
14
#516000
0!
1(
04
#516500
1!
0(
14
#517000
0!
1(
04
#517500
1!
0(
14
#518000
0!
1(
04
#518500
1!
0(
14
#519000
0!
1(
04
#519500
1!
0(
14
#520000
0!
1(
04
#520500
1!
0(
14
#521000
0!
1(
04
#521500
1!
0(
14
#522000
0!
1(
04
#522500
1!
0(
14
#523000
0!
1(
04
#523500
1!
0(
14
#524000
0!
1(
04
#524500
1!
0(
14
#525000
0!
1(
04
#525500
1!
0(
14
#526000
0!
1(
04
#526500
1!
0(
14
#527000
0!
1(
04
#527500
1!
0(
14
#528000
0!
1(
04
#528500
1!
0(
14
#529000
0!
1(
04
#529500
1!
0(
14
#530000
0!
1(
04
#530500
1!
0(
14
#531000
0!
1(
04
#531500
1!
0(
14
#532000
0!
1(
04
#532500
1!
0(
14
#533000
0!
1(
04
#533500
1!
0(
14
#534000
0!
1(
04
#534500
1!
0(
14
#535000
0!
1(
04
#535500
1!
0(
14
#536000
0!
1(
04
#536500
1!
0(
14
#537000
0!
1(
04
#537500
1!
0(
14
#538000
0!
1(
04
#538500
1!
0(
14
#539000
0!
1(
04
#539500
1!
0(
14
#540000
0!
1(
04
#540500
1!
0(
14
#541000
0!
1(
04
#541500
1!
0(
14
#542000
0!
1(
04
#542500
1!
0(
14
#543000
0!
1(
04
#543500
1!
0(
14
#544000
0!
1(
04
#544500
1!
0(
14
#545000
0!
1(
04
#545500
1!
0(
14
#546000
0!
1(
04
#546500
1!
0(
14
#547000
0!
1(
04
#547500
1!
0(
14
#548000
0!
1(
04
#548500
1!
0(
14
#549000
0!
1(
04
#549500
1!
0(
14
#550000
0!
1(
04
#550500
1!
0(
14
#551000
0!
1(
04
#551500
1!
0(
14
#552000
0!
1(
04
#552500
1!
0(
14
#553000
0!
1(
04
#553500
1!
0(
14
#554000
0!
1(
04
#554500
1!
0(
14
#555000
0!
1(
04
#555500
1!
0(
14
#556000
0!
1(
04
#556500
1!
0(
14
#557000
0!
1(
04
#557500
1!
0(
14
#558000
0!
1(
04
#558500
1!
0(
14
#559000
0!
1(
04
#559500
1!
0(
14
#560000
0!
1(
04
#560500
1!
0(
14
#561000
0!
1(
04
#561500
1!
0(
14
#562000
0!
1(
04
#562500
1!
0(
14
#563000
0!
1(
04
#563500
1!
0(
14
#564000
0!
1(
04
#564500
1!
0(
14
#565000
0!
1(
04
#565500
1!
0(
14
#566000
0!
1(
04
#566500
1!
0(
14
#567000
0!
1(
04
#567500
1!
0(
14
#568000
0!
1(
04
#568500
1!
0(
14
#569000
0!
1(
04
#569500
1!
0(
14
#570000
0!
1(
04
#570500
1!
0(
14
#571000
0!
1(
04
#571500
1!
0(
14
#572000
0!
1(
04
#572500
1!
0(
14
#573000
0!
1(
04
#573500
1!
0(
14
#574000
0!
1(
04
#574500
1!
0(
14
#575000
0!
1(
04
#575500
1!
0(
14
#576000
0!
1(
04
#576500
1!
0(
14
#577000
0!
1(
04
#577500
1!
0(
14
#578000
0!
1(
04
#578500
1!
0(
14
#579000
0!
1(
04
#579500
1!
0(
14
#580000
0!
1(
04
#580500
1!
0(
14
#581000
0!
1(
04
#581500
1!
0(
14
#582000
0!
1(
04
#582500
1!
0(
14
#583000
0!
1(
04
#583500
1!
0(
14
#584000
0!
1(
04
#584500
1!
0(
14
#585000
0!
1(
04
#585500
1!
0(
14
#586000
0!
1(
04
#586500
1!
0(
14
