Lab5/lab5_template_de1soc/simulation/qsim/dds_and_nios_lab.msim.vcd
$comment
	File created using the following command:
		vcd file dds_and_nios_lab.msim.vcd -direction
$end
$date
	Sun Mar 22 19:22:41 2020
$end
$version
	ModelSim Version 10.3c
$end
$timescale
	1ps
$end

$scope module waveform_gen_vlg_vec_tst $end
$var reg 1 ! clk $end
$var reg 1 " en $end
$var reg 32 # phase_inc [31:0] $end
$var reg 1 $ reset $end
$var wire 1 % cos_out [11] $end
$var wire 1 & cos_out [10] $end
$var wire 1 ' cos_out [9] $end
$var wire 1 ( cos_out [8] $end
$var wire 1 ) cos_out [7] $end
$var wire 1 * cos_out [6] $end
$var wire 1 + cos_out [5] $end
$var wire 1 , cos_out [4] $end
$var wire 1 - cos_out [3] $end
$var wire 1 . cos_out [2] $end
$var wire 1 / cos_out [1] $end
$var wire 1 0 cos_out [0] $end
$var wire 1 1 saw_out [11] $end
$var wire 1 2 saw_out [10] $end
$var wire 1 3 saw_out [9] $end
$var wire 1 4 saw_out [8] $end
$var wire 1 5 saw_out [7] $end
$var wire 1 6 saw_out [6] $end
$var wire 1 7 saw_out [5] $end
$var wire 1 8 saw_out [4] $end
$var wire 1 9 saw_out [3] $end
$var wire 1 : saw_out [2] $end
$var wire 1 ; saw_out [1] $end
$var wire 1 < saw_out [0] $end
$var wire 1 = sin_out [11] $end
$var wire 1 > sin_out [10] $end
$var wire 1 ? sin_out [9] $end
$var wire 1 @ sin_out [8] $end
$var wire 1 A sin_out [7] $end
$var wire 1 B sin_out [6] $end
$var wire 1 C sin_out [5] $end
$var wire 1 D sin_out [4] $end
$var wire 1 E sin_out [3] $end
$var wire 1 F sin_out [2] $end
$var wire 1 G sin_out [1] $end
$var wire 1 H sin_out [0] $end
$var wire 1 I squ_out [11] $end
$var wire 1 J squ_out [10] $end
$var wire 1 K squ_out [9] $end
$var wire 1 L squ_out [8] $end
$var wire 1 M squ_out [7] $end
$var wire 1 N squ_out [6] $end
$var wire 1 O squ_out [5] $end
$var wire 1 P squ_out [4] $end
$var wire 1 Q squ_out [3] $end
$var wire 1 R squ_out [2] $end
$var wire 1 S squ_out [1] $end
$var wire 1 T squ_out [0] $end
$var wire 1 U sampler $end

$scope module i1 $end
$var wire 1 V gnd $end
$var wire 1 W vcc $end
$var wire 1 X unknown $end
$var tri1 1 Y devclrn $end
$var tri1 1 Z devpor $end
$var tri1 1 [ devoe $end
$var wire 1 \ sin_out[0]~output_o $end
$var wire 1 ] sin_out[1]~output_o $end
$var wire 1 ^ sin_out[2]~output_o $end
$var wire 1 _ sin_out[3]~output_o $end
$var wire 1 ` sin_out[4]~output_o $end
$var wire 1 a sin_out[5]~output_o $end
$var wire 1 b sin_out[6]~output_o $end
$var wire 1 c sin_out[7]~output_o $end
$var wire 1 d sin_out[8]~output_o $end
$var wire 1 e sin_out[9]~output_o $end
$var wire 1 f sin_out[10]~output_o $end
$var wire 1 g sin_out[11]~output_o $end
$var wire 1 h cos_out[0]~output_o $end
$var wire 1 i cos_out[1]~output_o $end
$var wire 1 j cos_out[2]~output_o $end
$var wire 1 k cos_out[3]~output_o $end
$var wire 1 l cos_out[4]~output_o $end
$var wire 1 m cos_out[5]~output_o $end
$var wire 1 n cos_out[6]~output_o $end
$var wire 1 o cos_out[7]~output_o $end
$var wire 1 p cos_out[8]~output_o $end
$var wire 1 q cos_out[9]~output_o $end
$var wire 1 r cos_out[10]~output_o $end
$var wire 1 s cos_out[11]~output_o $end
$var wire 1 t squ_out[0]~output_o $end
$var wire 1 u squ_out[1]~output_o $end
$var wire 1 v squ_out[2]~output_o $end
$var wire 1 w squ_out[3]~output_o $end
$var wire 1 x squ_out[4]~output_o $end
$var wire 1 y squ_out[5]~output_o $end
$var wire 1 z squ_out[6]~output_o $end
$var wire 1 { squ_out[7]~output_o $end
$var wire 1 | squ_out[8]~output_o $end
$var wire 1 } squ_out[9]~output_o $end
$var wire 1 ~ squ_out[10]~output_o $end
$var wire 1 !! squ_out[11]~output_o $end
$var wire 1 "! saw_out[0]~output_o $end
$var wire 1 #! saw_out[1]~output_o $end
$var wire 1 $! saw_out[2]~output_o $end
$var wire 1 %! saw_out[3]~output_o $end
$var wire 1 &! saw_out[4]~output_o $end
$var wire 1 '! saw_out[5]~output_o $end
$var wire 1 (! saw_out[6]~output_o $end
$var wire 1 )! saw_out[7]~output_o $end
$var wire 1 *! saw_out[8]~output_o $end
$var wire 1 +! saw_out[9]~output_o $end
$var wire 1 ,! saw_out[10]~output_o $end
$var wire 1 -! saw_out[11]~output_o $end
$var wire 1 .! clk~input_o $end
$var wire 1 /! en~input_o $end
$var wire 1 0! phase_inc[20]~input_o $end
$var wire 1 1! phase_inc[19]~input_o $end
$var wire 1 2! phase_inc[18]~input_o $end
$var wire 1 3! phase_inc[17]~input_o $end
$var wire 1 4! phase_inc[16]~input_o $end
$var wire 1 5! phase_inc[15]~input_o $end
$var wire 1 6! phase_inc[14]~input_o $end
$var wire 1 7! phase_inc[13]~input_o $end
$var wire 1 8! phase_inc[12]~input_o $end
$var wire 1 9! phase_inc[11]~input_o $end
$var wire 1 :! phase_inc[10]~input_o $end
$var wire 1 ;! phase_inc[9]~input_o $end
$var wire 1 <! phase_inc[8]~input_o $end
$var wire 1 =! phase_inc[7]~input_o $end
$var wire 1 >! phase_inc[6]~input_o $end
$var wire 1 ?! phase_inc[5]~input_o $end
$var wire 1 @! phase_inc[4]~input_o $end
$var wire 1 A! phase_inc[3]~input_o $end
$var wire 1 B! phase_inc[2]~input_o $end
$var wire 1 C! phase_inc[1]~input_o $end
$var wire 1 D! phase_inc[0]~input_o $end
$var wire 1 E! Add0~125_sumout $end
$var wire 1 F! reset~input_o $end
$var wire 1 G! Add0~126 $end
$var wire 1 H! Add0~121_sumout $end
$var wire 1 I! Add0~122 $end
$var wire 1 J! Add0~117_sumout $end
$var wire 1 K! Add0~118 $end
$var wire 1 L! Add0~113_sumout $end
$var wire 1 M! Add0~114 $end
$var wire 1 N! Add0~109_sumout $end
$var wire 1 O! Add0~110 $end
$var wire 1 P! Add0~105_sumout $end
$var wire 1 Q! Add0~106 $end
$var wire 1 R! Add0~101_sumout $end
$var wire 1 S! Add0~102 $end
$var wire 1 T! Add0~97_sumout $end
$var wire 1 U! Add0~98 $end
$var wire 1 V! Add0~93_sumout $end
$var wire 1 W! Add0~94 $end
$var wire 1 X! Add0~89_sumout $end
$var wire 1 Y! Add0~90 $end
$var wire 1 Z! Add0~85_sumout $end
$var wire 1 [! Add0~86 $end
$var wire 1 \! Add0~81_sumout $end
$var wire 1 ]! Add0~82 $end
$var wire 1 ^! Add0~77_sumout $end
$var wire 1 _! Add0~78 $end
$var wire 1 `! Add0~73_sumout $end
$var wire 1 a! Add0~74 $end
$var wire 1 b! Add0~69_sumout $end
$var wire 1 c! Add0~70 $end
$var wire 1 d! Add0~65_sumout $end
$var wire 1 e! Add0~66 $end
$var wire 1 f! Add0~61_sumout $end
$var wire 1 g! Add0~62 $end
$var wire 1 h! Add0~57_sumout $end
$var wire 1 i! Add0~58 $end
$var wire 1 j! Add0~53_sumout $end
$var wire 1 k! Add0~54 $end
$var wire 1 l! Add0~49_sumout $end
$var wire 1 m! Add0~50 $end
$var wire 1 n! Add0~1_sumout $end
$var wire 1 o! phase_inc[21]~input_o $end
$var wire 1 p! Add0~2 $end
$var wire 1 q! Add0~5_sumout $end
$var wire 1 r! phase_inc[22]~input_o $end
$var wire 1 s! Add0~6 $end
$var wire 1 t! Add0~9_sumout $end
$var wire 1 u! phase_inc[23]~input_o $end
$var wire 1 v! Add0~10 $end
$var wire 1 w! Add0~13_sumout $end
$var wire 1 x! phase_inc[24]~input_o $end
$var wire 1 y! Add0~14 $end
$var wire 1 z! Add0~17_sumout $end
$var wire 1 {! phase_inc[25]~input_o $end
$var wire 1 |! Add0~18 $end
$var wire 1 }! Add0~21_sumout $end
$var wire 1 ~! phase_inc[26]~input_o $end
$var wire 1 !" Add0~22 $end
$var wire 1 "" Add0~25_sumout $end
$var wire 1 #" phase_inc[27]~input_o $end
$var wire 1 $" Add0~26 $end
$var wire 1 %" Add0~29_sumout $end
$var wire 1 &" phase_inc[28]~input_o $end
$var wire 1 '" Add0~30 $end
$var wire 1 (" Add0~33_sumout $end
$var wire 1 )" phase_inc[29]~input_o $end
$var wire 1 *" Add0~34 $end
$var wire 1 +" Add0~37_sumout $end
$var wire 1 ," phase_inc[30]~input_o $end
$var wire 1 -" Add0~38 $end
$var wire 1 ." Add0~41_sumout $end
$var wire 1 /" phase_inc[31]~input_o $end
$var wire 1 0" Add0~42 $end
$var wire 1 1" Add0~45_sumout $end
$var wire 1 2" lut|Mux22_rtl_0|auto_generated|ram_block1a23~portadataout $end
$var wire 1 3" lut|Mux22_rtl_0|auto_generated|ram_block1a11~portadataout $end
$var wire 1 4" lut|Mux22_rtl_0|auto_generated|ram_block1a12~portadataout $end
$var wire 1 5" lut|Mux22_rtl_0|auto_generated|ram_block1a13~portadataout $end
$var wire 1 6" lut|Mux22_rtl_0|auto_generated|ram_block1a14~portadataout $end
$var wire 1 7" lut|Mux22_rtl_0|auto_generated|ram_block1a15~portadataout $end
$var wire 1 8" lut|Mux22_rtl_0|auto_generated|ram_block1a16~portadataout $end
$var wire 1 9" lut|Mux22_rtl_0|auto_generated|ram_block1a17~portadataout $end
$var wire 1 :" lut|Mux22_rtl_0|auto_generated|ram_block1a18~portadataout $end
$var wire 1 ;" lut|Mux22_rtl_0|auto_generated|ram_block1a19~portadataout $end
$var wire 1 <" lut|Mux22_rtl_0|auto_generated|ram_block1a20~portadataout $end
$var wire 1 =" lut|Mux22_rtl_0|auto_generated|ram_block1a21~portadataout $end
$var wire 1 >" lut|Mux22_rtl_0|auto_generated|ram_block1a22~portadataout $end
$var wire 1 ?" lut|Mux22_rtl_0|auto_generated|ram_block1a0~portadataout $end
$var wire 1 @" lut|Mux22_rtl_0|auto_generated|ram_block1a1~portadataout $end
$var wire 1 A" lut|Mux22_rtl_0|auto_generated|ram_block1a2~portadataout $end
$var wire 1 B" lut|Mux22_rtl_0|auto_generated|ram_block1a3~portadataout $end
$var wire 1 C" lut|Mux22_rtl_0|auto_generated|ram_block1a4~portadataout $end
$var wire 1 D" lut|Mux22_rtl_0|auto_generated|ram_block1a5~portadataout $end
$var wire 1 E" lut|Mux22_rtl_0|auto_generated|ram_block1a6~portadataout $end
$var wire 1 F" lut|Mux22_rtl_0|auto_generated|ram_block1a7~portadataout $end
$var wire 1 G" lut|Mux22_rtl_0|auto_generated|ram_block1a8~portadataout $end
$var wire 1 H" lut|Mux22_rtl_0|auto_generated|ram_block1a9~portadataout $end
$var wire 1 I" lut|Mux22_rtl_0|auto_generated|ram_block1a10~portadataout $end
$var wire 1 J" lut_addr_reg [11] $end
$var wire 1 K" lut_addr_reg [10] $end
$var wire 1 L" lut_addr_reg [9] $end
$var wire 1 M" lut_addr_reg [8] $end
$var wire 1 N" lut_addr_reg [7] $end
$var wire 1 O" lut_addr_reg [6] $end
$var wire 1 P" lut_addr_reg [5] $end
$var wire 1 Q" lut_addr_reg [4] $end
$var wire 1 R" lut_addr_reg [3] $end
$var wire 1 S" lut_addr_reg [2] $end
$var wire 1 T" lut_addr_reg [1] $end
$var wire 1 U" lut_addr_reg [0] $end
$var wire 1 V" phase_acc [31] $end
$var wire 1 W" phase_acc [30] $end
$var wire 1 X" phase_acc [29] $end
$var wire 1 Y" phase_acc [28] $end
$var wire 1 Z" phase_acc [27] $end
$var wire 1 [" phase_acc [26] $end
$var wire 1 \" phase_acc [25] $end
$var wire 1 ]" phase_acc [24] $end
$var wire 1 ^" phase_acc [23] $end
$var wire 1 _" phase_acc [22] $end
$var wire 1 `" phase_acc [21] $end
$var wire 1 a" phase_acc [20] $end
$var wire 1 b" phase_acc [19] $end
$var wire 1 c" phase_acc [18] $end
$var wire 1 d" phase_acc [17] $end
$var wire 1 e" phase_acc [16] $end
$var wire 1 f" phase_acc [15] $end
$var wire 1 g" phase_acc [14] $end
$var wire 1 h" phase_acc [13] $end
$var wire 1 i" phase_acc [12] $end
$var wire 1 j" phase_acc [11] $end
$var wire 1 k" phase_acc [10] $end
$var wire 1 l" phase_acc [9] $end
$var wire 1 m" phase_acc [8] $end
$var wire 1 n" phase_acc [7] $end
$var wire 1 o" phase_acc [6] $end
$var wire 1 p" phase_acc [5] $end
$var wire 1 q" phase_acc [4] $end
$var wire 1 r" phase_acc [3] $end
$var wire 1 s" phase_acc [2] $end
$var wire 1 t" phase_acc [1] $end
$var wire 1 u" phase_acc [0] $end
$var wire 1 v" lut|Mux22_rtl_0|auto_generated|ram_block1a23_PORTADATAOUT_bus [0] $end
$var wire 1 w" lut|Mux22_rtl_0|auto_generated|ram_block1a11_PORTADATAOUT_bus [0] $end
$var wire 1 x" lut|Mux22_rtl_0|auto_generated|ram_block1a12_PORTADATAOUT_bus [0] $end
$var wire 1 y" lut|Mux22_rtl_0|auto_generated|ram_block1a13_PORTADATAOUT_bus [0] $end
$var wire 1 z" lut|Mux22_rtl_0|auto_generated|ram_block1a14_PORTADATAOUT_bus [0] $end
$var wire 1 {" lut|Mux22_rtl_0|auto_generated|ram_block1a15_PORTADATAOUT_bus [0] $end
$var wire 1 |" lut|Mux22_rtl_0|auto_generated|ram_block1a16_PORTADATAOUT_bus [0] $end
$var wire 1 }" lut|Mux22_rtl_0|auto_generated|ram_block1a17_PORTADATAOUT_bus [0] $end
$var wire 1 ~" lut|Mux22_rtl_0|auto_generated|ram_block1a18_PORTADATAOUT_bus [0] $end
$var wire 1 !# lut|Mux22_rtl_0|auto_generated|ram_block1a19_PORTADATAOUT_bus [0] $end
$var wire 1 "# lut|Mux22_rtl_0|auto_generated|ram_block1a20_PORTADATAOUT_bus [0] $end
$var wire 1 ## lut|Mux22_rtl_0|auto_generated|ram_block1a21_PORTADATAOUT_bus [0] $end
$var wire 1 $# lut|Mux22_rtl_0|auto_generated|ram_block1a22_PORTADATAOUT_bus [0] $end
$var wire 1 %# lut|Mux22_rtl_0|auto_generated|ram_block1a0_PORTADATAOUT_bus [0] $end
$var wire 1 &# lut|Mux22_rtl_0|auto_generated|ram_block1a1_PORTADATAOUT_bus [0] $end
$var wire 1 '# lut|Mux22_rtl_0|auto_generated|ram_block1a2_PORTADATAOUT_bus [0] $end
$var wire 1 (# lut|Mux22_rtl_0|auto_generated|ram_block1a3_PORTADATAOUT_bus [0] $end
$var wire 1 )# lut|Mux22_rtl_0|auto_generated|ram_block1a4_PORTADATAOUT_bus [0] $end
$var wire 1 *# lut|Mux22_rtl_0|auto_generated|ram_block1a5_PORTADATAOUT_bus [0] $end
$var wire 1 +# lut|Mux22_rtl_0|auto_generated|ram_block1a6_PORTADATAOUT_bus [0] $end
$var wire 1 ,# lut|Mux22_rtl_0|auto_generated|ram_block1a7_PORTADATAOUT_bus [0] $end
$var wire 1 -# lut|Mux22_rtl_0|auto_generated|ram_block1a8_PORTADATAOUT_bus [0] $end
$var wire 1 .# lut|Mux22_rtl_0|auto_generated|ram_block1a9_PORTADATAOUT_bus [0] $end
$var wire 1 /# lut|Mux22_rtl_0|auto_generated|ram_block1a10_PORTADATAOUT_bus [0] $end
$upscope $end
$upscope $end
$enddefinitions $end
#0
$dumpvars
0!
1"
b100000010 #
1$
00
0/
0.
0-
0,
0+
0*
0)
0(
0'
0&
0%
0<
0;
0:
09
08
07
06
05
04
03
02
01
0H
0G
0F
0E
0D
0C
0B
0A
0@
0?
0>
0=
0T
0S
0R
0Q
0P
0O
0N
0M
0L
0K
0J
1I
xU
0V
1W
xX
1Y
1Z
1[
0\
0]
0^
0_
0`
0a
0b
0c
0d
0e
0f
0g
0h
0i
0j
0k
0l
0m
0n
0o
0p
0q
0r
0s
0t
0u
0v
0w
0x
0y
0z
0{
0|
0}
0~
1!!
0"!
0#!
0$!
0%!
0&!
0'!
0(!
0)!
0*!
0+!
0,!
0-!
0.!
1/!
00!
01!
02!
03!
04!
05!
06!
07!
08!
09!
0:!
0;!
1<!
0=!
0>!
0?!
0@!
0A!
0B!
1C!
0D!
0E!
1F!
0G!
1H!
0I!
0J!
0K!
0L!
0M!
0N!
0O!
0P!
0Q!
0R!
0S!
0T!
0U!
1V!
0W!
0X!
0Y!
0Z!
0[!
0\!
0]!
0^!
0_!
0`!
0a!
0b!
0c!
0d!
0e!
0f!
0g!
0h!
0i!
0j!
0k!
0l!
0m!
0n!
0o!
0p!
0q!
0r!
0s!
0t!
0u!
0v!
0w!
0x!
0y!
0z!
0{!
0|!
0}!
0~!
0!"
0""
0#"
0$"
0%"
0&"
0'"
0("
0)"
0*"
0+"
0,"
0-"
0."
0/"
00"
01"
02"
03"
04"
05"
06"
07"
08"
09"
0:"
0;"
0<"
0="
0>"
0?"
0@"
0A"
0B"
0C"
0D"
0E"
0F"
0G"
0H"
0I"
0U"
0T"
0S"
0R"
0Q"
0P"
0O"
0N"
0M"
0L"
0K"
0J"
0u"
0t"
0s"
0r"
0q"
0p"
0o"
0n"
0m"
0l"
0k"
0j"
0i"
0h"
0g"
0f"
0e"
0d"
0c"
0b"
0a"
0`"
0_"
0^"
0]"
0\"
0["
0Z"
0Y"
0X"
0W"
0V"
0v"
0w"
0x"
0y"
0z"
0{"
0|"
0}"
0~"
0!#
0"#
0##
0$#
0%#
0&#
0'#
0(#
0)#
0*#
0+#
0,#
0-#
0.#
0/#
$end
#10000
1!
0U
1.!
1m"
1t"
1I!
1W!
0H!
0V!
1J!
1X!
#10001
1$#
1%#
1&#
1'#
1(#
1)#
1*#
1+#
1,#
1-#
1.#
1>"
1?"
1@"
1A"
1B"
1C"
1D"
1E"
1F"
1G"
1H"
1r
1q
1p
1o
1n
1m
1l
1k
1j
1i
1h
1&
1'
1(
1)
1*
1+
1,
1-
1.
1/
10
#20000
0!
1U
0.!
#30000
1!
0U
1.!
1l"
0m"
1s"
0t"
0I!
1K!
0W!
1Y!
1H!
0J!
1V!
0X!
0K!
0Y!
1J!
1L!
1X!
1Z!
0L!
0Z!
#40000
0!
1U
0.!
#50000
1!
0U
1.!
1m"
1t"
1I!
1W!
0H!
0V!
1K!
1Y!
0J!
0X!
1L!
1Z!
#60000
0!
1U
0.!
#70000
1!
0U
1.!
1k"
0l"
0m"
1r"
0s"
0t"
0I!
0K!
1M!
0W!
0Y!
1[!
1H!
1J!
0L!
1V!
1X!
0Z!
0M!
0[!
0J!
1L!
1N!
0X!
1Z!
1\!
0N!
0\!
#80000
0!
1U
0.!
#90000
1!
0U
1.!
1m"
1t"
1I!
1W!
0H!
0V!
1J!
1X!
#100000
0!
1U
0.!
#110000
1!
0U
1.!
1l"
0m"
1s"
0t"
0I!
1K!
0W!
1Y!
1H!
0J!
1V!
0X!
0K!
1M!
0Y!
1[!
1J!
0L!
1X!
0Z!
0M!
0[!
1L!
1N!
1Z!
1\!
0N!
0\!
#120000
0!
1U
0.!
#130000
1!
0U
1.!
1m"
1t"
1I!
1W!
0H!
0V!
1K!
1Y!
0J!
0X!
1M!
1[!
0L!
0Z!
1N!
1\!
#140000
0!
1U
0.!
#150000
1!
0U
1.!
1j"
0k"
0l"
0m"
1q"
0r"
0s"
0t"
0I!
0K!
0M!
1O!
0W!
0Y!
0[!
1]!
1H!
1J!
1L!
0N!
1V!
1X!
1Z!
0\!
0O!
0]!
0J!
0L!
1N!
1P!
0X!
0Z!
1\!
1^!
0P!
0^!
#160000
0!
1U
0.!
#170000
1!
0U
1.!
1m"
1t"
1I!
1W!
0H!
0V!
1J!
1X!
#180000
0!
1U
0.!
#190000
1!
0U
1.!
1l"
0m"
1s"
0t"
0I!
1K!
0W!
1Y!
1H!
0J!
1V!
0X!
0K!
0Y!
1J!
1L!
1X!
1Z!
0L!
0Z!
#200000
0!
1U
0.!
#210000
1!
0U
1.!
1m"
1t"
1I!
1W!
0H!
0V!
1K!
1Y!
0J!
0X!
1L!
1Z!
#220000
0!
1U
0.!
#230000
1!
0U
1.!
1k"
0l"
0m"
1r"
0s"
0t"
0I!
0K!
1M!
0W!
0Y!
1[!
1H!
1J!
0L!
1V!
1X!
0Z!
0M!
1O!
0[!
1]!
0J!
1L!
0N!
0X!
1Z!
0\!
0O!
0]!
1N!
1P!
1\!
1^!
0P!
0^!
#240000
0!
1U
0.!
#250000
1!
0U
1.!
1m"
1t"
1I!
1W!
0H!
0V!
1J!
1X!
#260000
0!
1U
0.!
#270000
1!
0U
1.!
1l"
0m"
1s"
0t"
0I!
1K!
0W!
1Y!
1H!
0J!
1V!
0X!
0K!
1M!
0Y!
1[!
1J!
0L!
1X!
0Z!
0M!
1O!
0[!
1]!
1L!
0N!
1Z!
0\!
0O!
0]!
1N!
1P!
1\!
1^!
0P!
0^!
#280000
0!
1U
0.!
#290000
1!
0U
1.!
1m"
1t"
1I!
1W!
0H!
0V!
1K!
1Y!
0J!
0X!
1M!
1[!
0L!
0Z!
1O!
1]!
0N!
0\!
1P!
1^!
#300000
0!
1U
0.!
#310000
1!
0U
1.!
1i"
0j"
0k"
0l"
0m"
1p"
0q"
0r"
0s"
0t"
0I!
0K!
0M!
0O!
1Q!
0W!
0Y!
0[!
0]!
1_!
1H!
1J!
1L!
1N!
0P!
1V!
1X!
1Z!
1\!
0^!
0Q!
0_!
0J!
0L!
0N!
1P!
1R!
0X!
0Z!
0\!
1^!
1`!
0R!
0`!
#320000
0!
1U
0.!
#330000
1!
0U
1.!
1m"
1t"
1I!
1W!
0H!
0V!
1J!
1X!
#340000
0!
1U
0.!
#350000
1!
0U
1.!
1l"
0m"
1s"
0t"
0I!
1K!
0W!
1Y!
1H!
0J!
1V!
0X!
0K!
0Y!
1J!
1L!
1X!
1Z!
0L!
0Z!
#360000
0!
1U
0.!
#370000
1!
0U
1.!
1m"
1t"
1I!
1W!
0H!
0V!
1K!
1Y!
0J!
0X!
1L!
1Z!
#380000
0!
1U
0.!
#390000
1!
0U
1.!
1k"
0l"
0m"
1r"
0s"
0t"
0I!
0K!
1M!
0W!
0Y!
1[!
1H!
1J!
0L!
1V!
1X!
0Z!
0M!
0[!
0J!
1L!
1N!
0X!
1Z!
1\!
0N!
0\!
#400000
0!
1U
0.!
#410000
1!
0U
1.!
1m"
1t"
1I!
1W!
0H!
0V!
1J!
1X!
#420000
0!
1U
0.!
#430000
1!
0U
1.!
1l"
0m"
1s"
0t"
0I!
1K!
0W!
1Y!
1H!
0J!
1V!
0X!
0K!
1M!
0Y!
1[!
1J!
0L!
1X!
0Z!
0M!
0[!
1L!
1N!
1Z!
1\!
0N!
0\!
#440000
0!
1U
0.!
#450000
1!
0U
1.!
1m"
1t"
1I!
1W!
0H!
0V!
1K!
1Y!
0J!
0X!
1M!
1[!
0L!
0Z!
1N!
1\!
#460000
0!
1U
0.!
#470000
1!
0U
1.!
1j"
0k"
0l"
0m"
1q"
0r"
0s"
0t"
0I!
0K!
0M!
1O!
0W!
0Y!
0[!
1]!
1H!
1J!
1L!
0N!
1V!
1X!
1Z!
0\!
0O!
1Q!
0]!
1_!
0J!
0L!
1N!
0P!
0X!
0Z!
1\!
0^!
0Q!
0_!
1P!
1R!
1^!
1`!
0R!
0`!
#480000
0!
1U
0.!
#490000
1!
0U
1.!
1m"
1t"
1I!
1W!
0H!
0V!
1J!
1X!
#500000
0!
1U
0.!
#510000
1!
0U
1.!
1l"
0m"
1s"
0t"
0I!
1K!
0W!
1Y!
1H!
0J!
1V!
0X!
0K!
0Y!
1J!
1L!
1X!
1Z!
0L!
0Z!
#520000
0!
1U
0.!
#530000
1!
0U
1.!
1m"
1t"
1I!
1W!
0H!
0V!
1K!
1Y!
0J!
0X!
1L!
1Z!
#540000
0!
1U
0.!
#550000
1!
0U
1.!
1k"
0l"
0m"
1r"
0s"
0t"
0I!
0K!
1M!
0W!
0Y!
1[!
1H!
1J!
0L!
1V!
1X!
0Z!
0M!
1O!
0[!
1]!
0J!
1L!
0N!
0X!
1Z!
0\!
0O!
1Q!
0]!
1_!
1N!
0P!
1\!
0^!
0Q!
0_!
1P!
1R!
1^!
1`!
0R!
0`!
#560000
0!
1U
0.!
#570000
1!
0U
1.!
1m"
1t"
1I!
1W!
0H!
0V!
1J!
1X!
#580000
0!
1U
0.!
#590000
1!
0U
1.!
1l"
0m"
1s"
0t"
0I!
1K!
0W!
1Y!
1H!
0J!
1V!
0X!
0K!
1M!
0Y!
1[!
1J!
0L!
1X!
0Z!
0M!
1O!
0[!
1]!
1L!
0N!
1Z!
0\!
0O!
1Q!
0]!
1_!
1N!
0P!
1\!
0^!
0Q!
0_!
1P!
1R!
1^!
1`!
0R!
0`!
#600000
0!
1U
0.!
#610000
1!
0U
1.!
1m"
1t"
1I!
1W!
0H!
0V!
1K!
1Y!
0J!
0X!
1M!
1[!
0L!
0Z!
1O!
1]!
0N!
0\!
1Q!
1_!
0P!
0^!
1R!
1`!
#620000
0!
1U
0.!
#630000
1!
0U
1.!
1h"
0i"
0j"
0k"
0l"
0m"
1o"
0p"
0q"
0r"
0s"
0t"
0I!
0K!
0M!
0O!
0Q!
1S!
0W!
0Y!
0[!
0]!
0_!
1a!
1H!
1J!
1L!
1N!
1P!
0R!
1V!
1X!
1Z!
1\!
1^!
0`!
0S!
0a!
0J!
0L!
0N!
0P!
1R!
1T!
0X!
0Z!
0\!
0^!
1`!
1b!
0T!
0b!
#640000
0!
1U
0.!
#650000
1!
0U
1.!
1m"
1t"
1I!
1W!
0H!
0V!
1J!
1X!
#660000
0!
1U
0.!
#670000
1!
0U
1.!
1l"
0m"
1s"
0t"
0I!
1K!
0W!
1Y!
1H!
0J!
1V!
0X!
0K!
0Y!
1J!
1L!
1X!
1Z!
0L!
0Z!
#680000
0!
1U
0.!
#690000
1!
0U
1.!
1m"
1t"
1I!
1W!
0H!
0V!
1K!
1Y!
0J!
0X!
1L!
1Z!
#700000
0!
1U
0.!
#710000
1!
0U
1.!
1k"
0l"
0m"
1r"
0s"
0t"
0I!
0K!
1M!
0W!
0Y!
1[!
1H!
1J!
0L!
1V!
1X!
0Z!
0M!
0[!
0J!
1L!
1N!
0X!
1Z!
1\!
0N!
0\!
#720000
0!
1U
0.!
#730000
1!
0U
1.!
1m"
1t"
1I!
1W!
0H!
0V!
1J!
1X!
#740000
0!
1U
0.!
#750000
1!
0U
1.!
1l"
0m"
1s"
0t"
0I!
1K!
0W!
1Y!
1H!
0J!
1V!
0X!
0K!
1M!
0Y!
1[!
1J!
0L!
1X!
0Z!
0M!
0[!
1L!
1N!
1Z!
1\!
0N!
0\!
#760000
0!
1U
0.!
#770000
1!
0U
1.!
1m"
1t"
1I!
1W!
0H!
0V!
1K!
1Y!
0J!
0X!
1M!
1[!
0L!
0Z!
1N!
1\!
#780000
0!
1U
0.!
#790000
1!
0U
1.!
1j"
0k"
0l"
0m"
1q"
0r"
0s"
0t"
0I!
0K!
0M!
1O!
0W!
0Y!
0[!
1]!
1H!
1J!
1L!
0N!
1V!
1X!
1Z!
0\!
0O!
0]!
0J!
0L!
1N!
1P!
0X!
0Z!
1\!
1^!
0P!
0^!
#800000
0!
1U
0.!
#810000
1!
0U
1.!
1m"
1t"
1I!
1W!
0H!
0V!
1J!
1X!
#820000
0!
1U
0.!
#830000
1!
0U
1.!
1l"
0m"
1s"
0t"
0I!
1K!
0W!
1Y!
1H!
0J!
1V!
0X!
0K!
0Y!
1J!
1L!
1X!
1Z!
0L!
0Z!
#840000
0!
1U
0.!
#850000
1!
0U
1.!
1m"
1t"
1I!
1W!
0H!
0V!
1K!
1Y!
0J!
0X!
1L!
1Z!
#860000
0!
1U
0.!
#870000
1!
0U
1.!
1k"
0l"
0m"
1r"
0s"
0t"
0I!
0K!
1M!
0W!
0Y!
1[!
1H!
1J!
0L!
1V!
1X!
0Z!
0M!
1O!
0[!
1]!
0J!
1L!
0N!
0X!
1Z!
0\!
0O!
0]!
1N!
1P!
1\!
1^!
0P!
0^!
#880000
0!
1U
0.!
#890000
1!
0U
1.!
1m"
1t"
1I!
1W!
0H!
0V!
1J!
1X!
#900000
0!
1U
0.!
#910000
1!
0U
1.!
1l"
0m"
1s"
0t"
0I!
1K!
0W!
1Y!
1H!
0J!
1V!
0X!
0K!
1M!
0Y!
1[!
1J!
0L!
1X!
0Z!
0M!
1O!
0[!
1]!
1L!
0N!
1Z!
0\!
0O!
0]!
1N!
1P!
1\!
1^!
0P!
0^!
#920000
0!
1U
0.!
#930000
1!
0U
1.!
1m"
1t"
1I!
1W!
0H!
0V!
1K!
1Y!
0J!
0X!
1M!
1[!
0L!
0Z!
1O!
1]!
0N!
0\!
1P!
1^!
#940000
0!
1U
0.!
#950000
1!
0U
1.!
1i"
0j"
0k"
0l"
0m"
1p"
0q"
0r"
0s"
0t"
0I!
0K!
0M!
0O!
1Q!
0W!
0Y!
0[!
0]!
1_!
1H!
1J!
1L!
1N!
0P!
1V!
1X!
1Z!
1\!
0^!
0Q!
1S!
0_!
1a!
0J!
0L!
0N!
1P!
0R!
0X!
0Z!
0\!
1^!
0`!
0S!
0a!
1R!
1T!
1`!
1b!
0T!
0b!
#960000
0!
1U
0.!
#970000
1!
0U
1.!
1m"
1t"
1I!
1W!
0H!
0V!
1J!
1X!
#980000
0!
1U
0.!
#990000
1!
0U
1.!
1l"
0m"
1s"
0t"
0I!
1K!
0W!
1Y!
1H!
0J!
1V!
0X!
0K!
0Y!
1J!
1L!
1X!
1Z!
0L!
0Z!
#1000000
0!
1U
0.!
#1010000
1!
0U
1.!
1m"
1t"
1I!
1W!
0H!
0V!
1K!
1Y!
0J!
0X!
1L!
1Z!
#1020000
0!
1U
0.!
