Assignments/3/simulation/qsim/shared_access_to_one_state_machine.msim.vcd
$comment
	File created using the following command:
		vcd file shared_access_to_one_state_machine.msim.vcd -direction
$end
$date
	Sun Mar 01 19:36:59 2020
$end
$version
	ModelSim Version 10.3c
$end
$timescale
	1ps
$end

$scope module shared_access_to_one_state_machine_vlg_vec_tst $end
$var reg 8 ! in_received_data [7:0] $end
$var reg 32 " input_arguments_a [31:0] $end
$var reg 32 # input_arguments_b [31:0] $end
$var reg 1 $ reset $end
$var reg 1 % sm_clk $end
$var reg 1 & start_request_a $end
$var reg 1 ' start_request_b $end
$var reg 1 ( target_state_machine_finished $end
$var wire 1 ) finish_a $end
$var wire 1 * finish_b $end
$var wire 1 + output_arguments [31] $end
$var wire 1 , output_arguments [30] $end
$var wire 1 - output_arguments [29] $end
$var wire 1 . output_arguments [28] $end
$var wire 1 / output_arguments [27] $end
$var wire 1 0 output_arguments [26] $end
$var wire 1 1 output_arguments [25] $end
$var wire 1 2 output_arguments [24] $end
$var wire 1 3 output_arguments [23] $end
$var wire 1 4 output_arguments [22] $end
$var wire 1 5 output_arguments [21] $end
$var wire 1 6 output_arguments [20] $end
$var wire 1 7 output_arguments [19] $end
$var wire 1 8 output_arguments [18] $end
$var wire 1 9 output_arguments [17] $end
$var wire 1 : output_arguments [16] $end
$var wire 1 ; output_arguments [15] $end
$var wire 1 < output_arguments [14] $end
$var wire 1 = output_arguments [13] $end
$var wire 1 > output_arguments [12] $end
$var wire 1 ? output_arguments [11] $end
$var wire 1 @ output_arguments [10] $end
$var wire 1 A output_arguments [9] $end
$var wire 1 B output_arguments [8] $end
$var wire 1 C output_arguments [7] $end
$var wire 1 D output_arguments [6] $end
$var wire 1 E output_arguments [5] $end
$var wire 1 F output_arguments [4] $end
$var wire 1 G output_arguments [3] $end
$var wire 1 H output_arguments [2] $end
$var wire 1 I output_arguments [1] $end
$var wire 1 J output_arguments [0] $end
$var wire 1 K received_data_a [7] $end
$var wire 1 L received_data_a [6] $end
$var wire 1 M received_data_a [5] $end
$var wire 1 N received_data_a [4] $end
$var wire 1 O received_data_a [3] $end
$var wire 1 P received_data_a [2] $end
$var wire 1 Q received_data_a [1] $end
$var wire 1 R received_data_a [0] $end
$var wire 1 S received_data_b [7] $end
$var wire 1 T received_data_b [6] $end
$var wire 1 U received_data_b [5] $end
$var wire 1 V received_data_b [4] $end
$var wire 1 W received_data_b [3] $end
$var wire 1 X received_data_b [2] $end
$var wire 1 Y received_data_b [1] $end
$var wire 1 Z received_data_b [0] $end
$var wire 1 [ reset_start_request_a $end
$var wire 1 \ reset_start_request_b $end
$var wire 1 ] start_target_state_machine $end
$var wire 1 ^ state [11] $end
$var wire 1 _ state [10] $end
$var wire 1 ` state [9] $end
$var wire 1 a state [8] $end
$var wire 1 b state [7] $end
$var wire 1 c state [6] $end
$var wire 1 d state [5] $end
$var wire 1 e state [4] $end
$var wire 1 f state [3] $end
$var wire 1 g state [2] $end
$var wire 1 h state [1] $end
$var wire 1 i state [0] $end
$var wire 1 j sampler $end

$scope module i1 $end
$var wire 1 k gnd $end
$var wire 1 l vcc $end
$var wire 1 m unknown $end
$var tri1 1 n devclrn $end
$var tri1 1 o devpor $end
$var tri1 1 p devoe $end
$var wire 1 q output_arguments[0]~output_o $end
$var wire 1 r output_arguments[1]~output_o $end
$var wire 1 s output_arguments[2]~output_o $end
$var wire 1 t output_arguments[3]~output_o $end
$var wire 1 u output_arguments[4]~output_o $end
$var wire 1 v output_arguments[5]~output_o $end
$var wire 1 w output_arguments[6]~output_o $end
$var wire 1 x output_arguments[7]~output_o $end
$var wire 1 y output_arguments[8]~output_o $end
$var wire 1 z output_arguments[9]~output_o $end
$var wire 1 { output_arguments[10]~output_o $end
$var wire 1 | output_arguments[11]~output_o $end
$var wire 1 } output_arguments[12]~output_o $end
$var wire 1 ~ output_arguments[13]~output_o $end
$var wire 1 !! output_arguments[14]~output_o $end
$var wire 1 "! output_arguments[15]~output_o $end
$var wire 1 #! output_arguments[16]~output_o $end
$var wire 1 $! output_arguments[17]~output_o $end
$var wire 1 %! output_arguments[18]~output_o $end
$var wire 1 &! output_arguments[19]~output_o $end
$var wire 1 '! output_arguments[20]~output_o $end
$var wire 1 (! output_arguments[21]~output_o $end
$var wire 1 )! output_arguments[22]~output_o $end
$var wire 1 *! output_arguments[23]~output_o $end
$var wire 1 +! output_arguments[24]~output_o $end
$var wire 1 ,! output_arguments[25]~output_o $end
$var wire 1 -! output_arguments[26]~output_o $end
$var wire 1 .! output_arguments[27]~output_o $end
$var wire 1 /! output_arguments[28]~output_o $end
$var wire 1 0! output_arguments[29]~output_o $end
$var wire 1 1! output_arguments[30]~output_o $end
$var wire 1 2! output_arguments[31]~output_o $end
$var wire 1 3! start_target_state_machine~output_o $end
$var wire 1 4! finish_a~output_o $end
$var wire 1 5! finish_b~output_o $end
$var wire 1 6! reset_start_request_a~output_o $end
$var wire 1 7! reset_start_request_b~output_o $end
$var wire 1 8! received_data_a[0]~output_o $end
$var wire 1 9! received_data_a[1]~output_o $end
$var wire 1 :! received_data_a[2]~output_o $end
$var wire 1 ;! received_data_a[3]~output_o $end
$var wire 1 <! received_data_a[4]~output_o $end
$var wire 1 =! received_data_a[5]~output_o $end
$var wire 1 >! received_data_a[6]~output_o $end
$var wire 1 ?! received_data_a[7]~output_o $end
$var wire 1 @! received_data_b[0]~output_o $end
$var wire 1 A! received_data_b[1]~output_o $end
$var wire 1 B! received_data_b[2]~output_o $end
$var wire 1 C! received_data_b[3]~output_o $end
$var wire 1 D! received_data_b[4]~output_o $end
$var wire 1 E! received_data_b[5]~output_o $end
$var wire 1 F! received_data_b[6]~output_o $end
$var wire 1 G! received_data_b[7]~output_o $end
$var wire 1 H! state[0]~output_o $end
$var wire 1 I! state[1]~output_o $end
$var wire 1 J! state[2]~output_o $end
$var wire 1 K! state[3]~output_o $end
$var wire 1 L! state[4]~output_o $end
$var wire 1 M! state[5]~output_o $end
$var wire 1 N! state[6]~output_o $end
$var wire 1 O! state[7]~output_o $end
$var wire 1 P! state[8]~output_o $end
$var wire 1 Q! state[9]~output_o $end
$var wire 1 R! state[10]~output_o $end
$var wire 1 S! state[11]~output_o $end
$var wire 1 T! sm_clk~input_o $end
$var wire 1 U! target_state_machine_finished~input_o $end
$var wire 1 V! reset~input_o $end
$var wire 1 W! state[2]~reg0_q $end
$var wire 1 X! state[0]~0_combout $end
$var wire 1 Y! state[0]~reg0_q $end
$var wire 1 Z! Equal5~0_combout $end
$var wire 1 [! start_request_b~input_o $end
$var wire 1 \! Selector4~0_combout $end
$var wire 1 ]! Selector0~0_combout $end
$var wire 1 ^! state[11]~reg0_q $end
$var wire 1 _! Equal6~0_combout $end
$var wire 1 `! start_request_a~input_o $end
$var wire 1 a! Selector5~1_combout $end
$var wire 1 b! state[5]~reg0_q $end
$var wire 1 c! state[4]~reg0_q $end
$var wire 1 d! Equal6~1_combout $end
$var wire 1 e! Equal6~2_combout $end
$var wire 1 f! Equal4~0_combout $end
$var wire 1 g! Selector4~1_combout $end
$var wire 1 h! Selector1~0_combout $end
$var wire 1 i! state[10]~reg0_q $end
$var wire 1 j! Equal2~0_combout $end
$var wire 1 k! Equal3~0_combout $end
$var wire 1 l! state[3]~reg0_q $end
$var wire 1 m! Equal0~1_combout $end
$var wire 1 n! Equal8~0_combout $end
$var wire 1 o! Equal8~1_combout $end
$var wire 1 p! Selector2~0_combout $end
$var wire 1 q! Equal9~0_combout $end
$var wire 1 r! Equal5~1_combout $end
$var wire 1 s! Equal1~0_combout $end
$var wire 1 t! WideNor0~0_combout $end
$var wire 1 u! Selector2~1_combout $end
$var wire 1 v! Selector2~2_combout $end
$var wire 1 w! state[9]~reg0_q $end
$var wire 1 x! Equal0~2_combout $end
$var wire 1 y! Selector5~0_combout $end
$var wire 1 z! state[6]~reg0_q $end
$var wire 1 {! Equal0~0_combout $end
$var wire 1 |! state[1]~1_combout $end
$var wire 1 }! state[1]~reg0_q $end
$var wire 1 ~! Equal2~1_combout $end
$var wire 1 !" Selector3~0_combout $end
$var wire 1 "" state[8]~reg0_q $end
$var wire 1 #" Equal7~0_combout $end
$var wire 1 $" Selector4~2_combout $end
$var wire 1 %" state[7]~reg0_q $end
$var wire 1 &" input_arguments_b[0]~input_o $end
$var wire 1 '" input_arguments_a[0]~input_o $end
$var wire 1 (" output_arguments~0_combout $end
$var wire 1 )" input_arguments_b[1]~input_o $end
$var wire 1 *" input_arguments_a[1]~input_o $end
$var wire 1 +" output_arguments~1_combout $end
$var wire 1 ," input_arguments_b[2]~input_o $end
$var wire 1 -" input_arguments_a[2]~input_o $end
$var wire 1 ." output_arguments~2_combout $end
$var wire 1 /" input_arguments_b[3]~input_o $end
$var wire 1 0" input_arguments_a[3]~input_o $end
$var wire 1 1" output_arguments~3_combout $end
$var wire 1 2" input_arguments_b[4]~input_o $end
$var wire 1 3" input_arguments_a[4]~input_o $end
$var wire 1 4" output_arguments~4_combout $end
$var wire 1 5" input_arguments_b[5]~input_o $end
$var wire 1 6" input_arguments_a[5]~input_o $end
$var wire 1 7" output_arguments~5_combout $end
$var wire 1 8" input_arguments_b[6]~input_o $end
$var wire 1 9" input_arguments_a[6]~input_o $end
$var wire 1 :" output_arguments~6_combout $end
$var wire 1 ;" input_arguments_b[7]~input_o $end
$var wire 1 <" input_arguments_a[7]~input_o $end
$var wire 1 =" output_arguments~7_combout $end
$var wire 1 >" input_arguments_b[8]~input_o $end
$var wire 1 ?" input_arguments_a[8]~input_o $end
$var wire 1 @" output_arguments~8_combout $end
$var wire 1 A" input_arguments_b[9]~input_o $end
$var wire 1 B" input_arguments_a[9]~input_o $end
$var wire 1 C" output_arguments~9_combout $end
$var wire 1 D" input_arguments_b[10]~input_o $end
$var wire 1 E" input_arguments_a[10]~input_o $end
$var wire 1 F" output_arguments~10_combout $end
$var wire 1 G" input_arguments_b[11]~input_o $end
$var wire 1 H" input_arguments_a[11]~input_o $end
$var wire 1 I" output_arguments~11_combout $end
$var wire 1 J" input_arguments_b[12]~input_o $end
$var wire 1 K" input_arguments_a[12]~input_o $end
$var wire 1 L" output_arguments~12_combout $end
$var wire 1 M" input_arguments_b[13]~input_o $end
$var wire 1 N" input_arguments_a[13]~input_o $end
$var wire 1 O" output_arguments~13_combout $end
$var wire 1 P" input_arguments_b[14]~input_o $end
$var wire 1 Q" input_arguments_a[14]~input_o $end
$var wire 1 R" output_arguments~14_combout $end
$var wire 1 S" input_arguments_b[15]~input_o $end
$var wire 1 T" input_arguments_a[15]~input_o $end
$var wire 1 U" output_arguments~15_combout $end
$var wire 1 V" input_arguments_b[16]~input_o $end
$var wire 1 W" input_arguments_a[16]~input_o $end
$var wire 1 X" output_arguments~16_combout $end
$var wire 1 Y" input_arguments_b[17]~input_o $end
$var wire 1 Z" input_arguments_a[17]~input_o $end
$var wire 1 [" output_arguments~17_combout $end
$var wire 1 \" input_arguments_b[18]~input_o $end
$var wire 1 ]" input_arguments_a[18]~input_o $end
$var wire 1 ^" output_arguments~18_combout $end
$var wire 1 _" input_arguments_b[19]~input_o $end
$var wire 1 `" input_arguments_a[19]~input_o $end
$var wire 1 a" output_arguments~19_combout $end
$var wire 1 b" input_arguments_b[20]~input_o $end
$var wire 1 c" input_arguments_a[20]~input_o $end
$var wire 1 d" output_arguments~20_combout $end
$var wire 1 e" input_arguments_b[21]~input_o $end
$var wire 1 f" input_arguments_a[21]~input_o $end
$var wire 1 g" output_arguments~21_combout $end
$var wire 1 h" input_arguments_b[22]~input_o $end
$var wire 1 i" input_arguments_a[22]~input_o $end
$var wire 1 j" output_arguments~22_combout $end
$var wire 1 k" input_arguments_b[23]~input_o $end
$var wire 1 l" input_arguments_a[23]~input_o $end
$var wire 1 m" output_arguments~23_combout $end
$var wire 1 n" input_arguments_b[24]~input_o $end
$var wire 1 o" input_arguments_a[24]~input_o $end
$var wire 1 p" output_arguments~24_combout $end
$var wire 1 q" input_arguments_b[25]~input_o $end
$var wire 1 r" input_arguments_a[25]~input_o $end
$var wire 1 s" output_arguments~25_combout $end
$var wire 1 t" input_arguments_b[26]~input_o $end
$var wire 1 u" input_arguments_a[26]~input_o $end
$var wire 1 v" output_arguments~26_combout $end
$var wire 1 w" input_arguments_b[27]~input_o $end
$var wire 1 x" input_arguments_a[27]~input_o $end
$var wire 1 y" output_arguments~27_combout $end
$var wire 1 z" input_arguments_b[28]~input_o $end
$var wire 1 {" input_arguments_a[28]~input_o $end
$var wire 1 |" output_arguments~28_combout $end
$var wire 1 }" input_arguments_b[29]~input_o $end
$var wire 1 ~" input_arguments_a[29]~input_o $end
$var wire 1 !# output_arguments~29_combout $end
$var wire 1 "# input_arguments_b[30]~input_o $end
$var wire 1 ## input_arguments_a[30]~input_o $end
$var wire 1 $# output_arguments~30_combout $end
$var wire 1 %# input_arguments_b[31]~input_o $end
$var wire 1 &# input_arguments_a[31]~input_o $end
$var wire 1 '# output_arguments~31_combout $end
$var wire 1 (# in_received_data[0]~input_o $end
$var wire 1 )# received_data_a[0]~reg0_q $end
$var wire 1 *# in_received_data[1]~input_o $end
$var wire 1 +# received_data_a[1]~reg0_q $end
$var wire 1 ,# in_received_data[2]~input_o $end
$var wire 1 -# received_data_a[2]~reg0_q $end
$var wire 1 .# in_received_data[3]~input_o $end
$var wire 1 /# received_data_a[3]~reg0_q $end
$var wire 1 0# in_received_data[4]~input_o $end
$var wire 1 1# received_data_a[4]~reg0_q $end
$var wire 1 2# in_received_data[5]~input_o $end
$var wire 1 3# received_data_a[5]~reg0_q $end
$var wire 1 4# in_received_data[6]~input_o $end
$var wire 1 5# received_data_a[6]~reg0_q $end
$var wire 1 6# in_received_data[7]~input_o $end
$var wire 1 7# received_data_a[7]~reg0_q $end
$var wire 1 8# received_data_b[0]~reg0_q $end
$var wire 1 9# received_data_b[1]~reg0_q $end
$var wire 1 :# received_data_b[2]~reg0_q $end
$var wire 1 ;# received_data_b[3]~reg0_q $end
$var wire 1 <# received_data_b[4]~reg0_q $end
$var wire 1 =# received_data_b[5]~reg0_q $end
$var wire 1 ># received_data_b[6]~reg0_q $end
$var wire 1 ?# received_data_b[7]~reg0_q $end
$upscope $end
$upscope $end
$enddefinitions $end
#0
$dumpvars
b110001 !
b1010011010011010101111101000001 "
b1010011010011010101111101000010 #
1$
0%
0&
0'
0(
0)
0*
1J
0I
0H
0G
0F
0E
1D
0C
1B
1A
1@
1?
1>
0=
1<
0;
1:
09
18
17
06
05
14
03
12
11
00
0/
1.
0-
1,
0+
0R
0Q
0P
0O
0N
0M
0L
0K
0Z
0Y
0X
0W
0V
0U
0T
0S
0[
0\
0]
0i
0h
0g
0f
0e
0d
0c
0b
0a
0`
0_
0^
xj
0k
1l
xm
1n
1o
1p
1q
0r
0s
0t
0u
0v
1w
0x
1y
1z
1{
1|
1}
0~
1!!
0"!
1#!
0$!
1%!
1&!
0'!
0(!
1)!
0*!
1+!
1,!
0-!
0.!
1/!
00!
11!
02!
03!
04!
05!
06!
07!
08!
09!
0:!
0;!
0<!
0=!
0>!
0?!
0@!
0A!
0B!
0C!
0D!
0E!
0F!
0G!
0H!
0I!
0J!
0K!
0L!
0M!
0N!
0O!
0P!
0Q!
0R!
0S!
0T!
0U!
1V!
0W!
0X!
0Y!
0Z!
0[!
0\!
0]!
0^!
0_!
0`!
0a!
0b!
0c!
0d!
0e!
0f!
1g!
1h!
0i!
0j!
0k!
0l!
1m!
0n!
0o!
1p!
0q!
0r!
0s!
0t!
1u!
0v!
0w!
1x!
0y!
0z!
1{!
0|!
0}!
0~!
1!"
0""
0#"
1$"
0%"
0&"
1'"
1("
1)"
0*"
0+"
0,"
0-"
0."
0/"
00"
01"
02"
03"
04"
05"
06"
07"
18"
19"
1:"
0;"
0<"
0="
1>"
1?"
1@"
1A"
1B"
1C"
1D"
1E"
1F"
1G"
1H"
1I"
1J"
1K"
1L"
0M"
0N"
0O"
1P"
1Q"
1R"
0S"
0T"
0U"
1V"
1W"
1X"
0Y"
0Z"
0["
1\"
1]"
1^"
1_"
1`"
1a"
0b"
0c"
0d"
0e"
0f"
0g"
1h"
1i"
1j"
0k"
0l"
0m"
1n"
1o"
1p"
1q"
1r"
1s"
0t"
0u"
0v"
0w"
0x"
0y"
1z"
1{"
1|"
0}"
0~"
0!#
1"#
1##
1$#
0%#
0&#
0'#
1(#
0)#
0*#
0+#
0,#
0-#
0.#
0/#
10#
01#
12#
03#
04#
05#
06#
07#
08#
09#
0:#
0;#
0<#
0=#
0>#
0?#
$end
#10000
1%
1(
1&
0$
1U!
1`!
0V!
0j
1T!
0g!
1y!
1a!
0$"
0h!
1%"
1""
1i!
1R!
1P!
1O!
0m!
1Z!
0x!
0p!
1_
1a
1b
0a!
1+"
0("
0q
1r
1r!
0J
1I
0!"
0y!
#20000
0%
1j
0T!
#30000
1'
1%
1[!
0j
1T!
0u!
1y!
1\!
1v!
1$"
1h!
0%"
0""
0i!
0R!
0P!
0O!
1m!
0Z!
0r!
0_
0a
0b
0\!
0+"
1("
1q
0r
1u!
1x!
1p!
1J
0I
0y!
1a!
0$"
0h!
1!"
0v!
1y!
#40000
0%
1j
0T!
#50000
1%
0j
1T!
1""
1z!
1b!
16!
1M!
13!
1N!
1P!
0{!
1s!
1_!
0x!
0p!
1[
1d
1]
1c
1a
0a!
1t!
0!"
0y!
0u!
1v!
#60000
0%
1j
0T!
#70000
1%
0j
1T!
0""
0z!
1w!
0b!
06!
0M!
1Q!
03!
0N!
0P!
1{!
0s!
0m!
1j!
0_!
0[
0d
1`
0]
0c
0a
0t!
1~!
1|!
1!"
#80000
0%
1j
0T!
#90000
1%
0j
1T!
1""
1}!
1I!
1P!
0~!
1h
1a
0|!
1k!
1u!
0!"
0v!
1h!
#100000
0%
1j
0T!
#110000
1%
0j
1T!
13#
11#
1)#
0""
0}!
0w!
1l!
1i!
1R!
14!
1K!
0Q!
0I!
0P!
18!
1<!
1=!
0j!
1f!
1~!
1_
1)
1f
0`
0h
0a
1R
1N
1M
1|!
0k!
0u!
1p!
1g!
0~!
1!"
0|!
0h!
1u!
1$"
1h!
#120000
b110011 !
b110010 !
0%
1j
0(#
1*#
0T!
#130000
1%
0j
1T!
1%"
1""
0l!
04!
0K!
1P!
1O!
0f!
1Z!
0p!
0g!
0)
0f
1a
1b
1+"
0("
0q
1r
1r!
0J
1I
0$"
0h!
0!"
1\!
0u!
1y!
1$"
1h!
1v!
#140000
0%
1j
0T!
#150000
1%
0j
1T!
0""
1z!
1w!
1c!
17!
1L!
1Q!
13!
1N!
0P!
0{!
1d!
1u!
1_!
0r!
1\
1e
1`
1]
1c
0a
0y!
0\!
1t!
1e!
0v!
0$"
0h!
0u!
1$"
1!"
1h!
1v!
#160000
0%
1j
0T!
#170000
1$
1%
1V!
0j
1T!
0c!
0i!
0w!
0z!
0%"
0)#
01#
03#
0=!
0<!
08!
0O!
03!
0N!
0Q!
0R!
07!
0L!
0Z!
1{!
0_!
1m!
0d!
0M
0N
0R
0b
0]
0c
0`
0_
0\
0e
0+"
1("
1q
0r
0t!
0e!
1x!
1p!
1J
0I
1a!
1u!
0v!
1y!
0$"
0h!
#180000
0$
0%
0V!
1j
0T!
#190000
1%
0j
1T!
1""
1z!
1b!
16!
1M!
13!
1N!
1P!
0{!
1s!
1_!
0x!
0p!
1[
1d
1]
1c
1a
0a!
1t!
0!"
0y!
0u!
1v!
#200000
b10011010011010101111101000001 "
b11010011010101111101000001 "
b1010011010101111101000001 "
b10011010101111101000001 "
b11010101111101000001 "
b1010101111101000001 "
b10101111101000001 "
b101111101000001 "
b1111101000001 "
b111101000001 "
b11101000001 "
b1101000001 "
b101000001 "
b1000001 "
b1 "
b0 "
b10011010011010101111101000010 #
b11010011010101111101000010 #
b1010011010101111101000010 #
b10011010101111101000010 #
b11010101111101000010 #
b1010101111101000010 #
b10101111101000010 #
b101111101000010 #
b1111101000010 #
b111101000010 #
b11101000010 #
b1101000010 #
b101000010 #
b1000010 #
b10 #
b0 #
0%
0)"
08"
0>"
0A"
0D"
0G"
0J"
0P"
0V"
0\"
0_"
0h"
0n"
0q"
0z"
0"#
0'"
09"
0?"
0B"
0E"
0H"
0K"
0Q"
0W"
0]"
0`"
0i"
0o"
0r"
0{"
0##
1j
0T!
0$#
0|"
0s"
0p"
0j"
0a"
0^"
0X"
0R"
0L"
0I"
0F"
0C"
0@"
0:"
0("
0q
0w
0y
0z
0{
0|
0}
0!!
0#!
0%!
0&!
0)!
0+!
0,!
0/!
01!
0J
0D
0B
0A
0@
0?
0>
0<
0:
08
07
04
02
01
0.
0,
#210000
1%
0j
1T!
0""
0z!
1w!
0b!
06!
0M!
1Q!
03!
0N!
0P!
1{!
0s!
0m!
1j!
0_!
0[
0d
1`
0]
0c
0a
0t!
1~!
1|!
1!"
#220000
b1000000000000000000000000000000 "
b1010000000000000000000000000000 "
b1010010000000000000000000000000 "
b1010011000000000000000000000000 "
b1010011010000000000000000000000 "
b1010011010010000000000000000000 "
b1010011010011000000000000000000 "
b1010011010011010000000000000000 "
b1010011010011010100000000000000 "
b1010011010011010101000000000000 "
b1010011010011010101100000000000 "
b1010011010011010101110000000000 "
b1010011010011010101111000000000 "
b1010011010011010101111100000000 "
b1010011010011010101111101000000 "
b1010011010011010101111101000001 "
b1000000000000000000000000000000 #
b1010000000000000000000000000000 #
b1010010000000000000000000000000 #
b1010011000000000000000000000000 #
b1010011010000000000000000000000 #
b1010011010010000000000000000000 #
b1010011010011000000000000000000 #
b1010011010011010000000000000000 #
b1010011010011010100000000000000 #
b1010011010011010101000000000000 #
b1010011010011010101100000000000 #
b1010011010011010101110000000000 #
b1010011010011010101111000000000 #
b1010011010011010101111100000000 #
b1010011010011010101111101000000 #
b1010011010011010101111101000010 #
0%
1)"
18"
1>"
1A"
1D"
1G"
1J"
1P"
1V"
1\"
1_"
1h"
1n"
1q"
1z"
1"#
1'"
19"
1?"
1B"
1E"
1H"
1K"
1Q"
1W"
1]"
1`"
1i"
1o"
1r"
1{"
1##
1j
0T!
1$#
1|"
1s"
1p"
1j"
1a"
1^"
1X"
1R"
1L"
1I"
1F"
1C"
1@"
1:"
1("
1q
1w
1y
1z
1{
1|
1}
1!!
1#!
1%!
1&!
1)!
1+!
1,!
1/!
11!
1J
1D
1B
1A
1@
1?
1>
1<
1:
18
17
14
12
11
1.
1,
#230000
1%
0j
1T!
1""
1}!
1I!
1P!
0~!
1h
1a
0|!
1k!
1u!
0!"
0v!
1h!
#240000
0%
1j
0T!
#250000
b110000 !
b110001 !
1%
0j
1(#
0*#
1T!
13#
11#
1)#
0""
0}!
0w!
1l!
1i!
1R!
14!
1K!
0Q!
0I!
0P!
18!
1<!
1=!
0j!
1f!
1~!
1_
1)
1f
0`
0h
0a
1R
1N
1M
1|!
0k!
0u!
1p!
1g!
0~!
1!"
0|!
0h!
1u!
1$"
1h!
#260000
0%
1j
0T!
#270000
1%
0j
1T!
1%"
1""
0l!
04!
0K!
1P!
1O!
0f!
1Z!
0p!
0g!
0)
0f
1a
1b
1+"
0("
0q
1r
1r!
0J
1I
0$"
0h!
0!"
1\!
0u!
1y!
1$"
1h!
1v!
#280000
0%
1j
0T!
#290000
b110011 !
b110010 !
1%
0j
0(#
1*#
1T!
0""
1z!
1w!
1c!
17!
1L!
1Q!
13!
1N!
0P!
0{!
1d!
1u!
1_!
0r!
1\
1e
1`
1]
1c
0a
0y!
0\!
1t!
1e!
0v!
0$"
0h!
0u!
1$"
1!"
1h!
1v!
#300000
0%
1j
0T!
#310000
1%
0j
1T!
1""
0z!
0c!
07!
0L!
03!
0N!
1P!
1{!
0d!
0_!
0\
0e
0]
0c
1a
0t!
0e!
1#"
1r!
1u!
0!"
0h!
1]!
1X!
0v!
#320000
0%
1j
0T!
#330000
1%
0j
1T!
0""
0w!
0i!
1^!
1Y!
1H!
1S!
0R!
0Q!
0P!
0{!
1n!
1m!
0Z!
0#"
0u!
0r!
1i
1^
0_
0`
0a
1y!
1u!
0y!
1v!
0$"
0]!
0X!
1o!
0v!
1$"
1!"
1]!
#340000
0%
1j
0T!
#350000
1%
0j
1T!
1=#
1<#
19#
1""
0Y!
1W!
15!
1J!
0H!
1P!
1A!
1D!
1E!
1q!
1*
1g
0i
1a
1Y
1V
1U
0o!
0$"
0!"
0]!
#360000
0%
1j
0T!
#370000
1%
0j
1T!
0%"
0""
0^!
0W!
05!
0J!
0S!
0P!
0O!
1{!
0q!
0n!
0*
0g
0^
0a
0b
0+"
1("
1q
0r
1x!
1p!
1J
0I
1a!
1!"
1y!
#380000
0%
1j
0T!
#390000
1%
0j
1T!
1""
1z!
1b!
16!
1M!
13!
1N!
1P!
0{!
1s!
1_!
0x!
0p!
1[
1d
1]
1c
1a
0a!
1t!
0!"
0y!
0u!
1v!
#400000
0%
1j
0T!
#410000
1%
0j
1T!
0""
0z!
1w!
0b!
06!
0M!
1Q!
03!
0N!
0P!
1{!
0s!
0m!
1j!
0_!
0[
0d
1`
0]
0c
0a
0t!
1~!
1|!
1!"
#420000
0%
1j
0T!
#430000
1%
0j
1T!
1""
1}!
1I!
1P!
0~!
1h
1a
0|!
1k!
1u!
0!"
0v!
1h!
#440000
0%
1j
0T!
#450000
1%
0j
1T!
1+#
0)#
0""
0}!
0w!
1l!
1i!
1R!
14!
1K!
0Q!
0I!
0P!
08!
19!
0j!
1f!
1~!
1_
1)
1f
0`
0h
0a
0R
1Q
1|!
0k!
0u!
1p!
1g!
0~!
1!"
0|!
0h!
1u!
1$"
1h!
#460000
0%
1j
0T!
#470000
1%
0j
1T!
1%"
1""
0l!
04!
0K!
1P!
1O!
0f!
1Z!
0p!
0g!
0)
0f
1a
1b
1+"
0("
0q
1r
1r!
0J
1I
0$"
0h!
0!"
1\!
0u!
1y!
1$"
1h!
1v!
#480000
0%
1j
0T!
#490000
1%
0j
1T!
0""
1z!
1w!
1c!
17!
1L!
1Q!
13!
1N!
0P!
0{!
1d!
1u!
1_!
0r!
1\
1e
1`
1]
1c
0a
0y!
0\!
1t!
1e!
0v!
0$"
0h!
0u!
1$"
1!"
1h!
1v!
#500000
0%
1j
0T!
#510000
1%
0j
1T!
1""
0z!
0c!
07!
0L!
03!
0N!
1P!
1{!
0d!
0_!
0\
0e
0]
0c
1a
0t!
0e!
1#"
1r!
1u!
0!"
0h!
1]!
1X!
0v!
#520000
0%
1j
0T!
#530000
1%
0j
1T!
0""
0w!
0i!
1^!
1Y!
1H!
1S!
0R!
0Q!
0P!
0{!
1n!
1m!
0Z!
0#"
0u!
0r!
1i
1^
0_
0`
0a
1y!
1u!
0y!
1v!
0$"
0]!
0X!
1o!
0v!
1$"
1!"
1]!
#540000
0%
1j
0T!
#550000
1%
0j
1T!
1""
0Y!
1W!
15!
1J!
0H!
1P!
1q!
1*
1g
0i
1a
0o!
0$"
0!"
0]!
#560000
0%
1j
0T!
#570000
1%
0j
1T!
0%"
0""
0^!
0W!
05!
0J!
0S!
0P!
0O!
1{!
0q!
0n!
0*
0g
0^
0a
0b
0+"
1("
1q
0r
1x!
1p!
1J
0I
1a!
1!"
1y!
#580000
0%
1j
0T!
#590000
1%
0j
1T!
1""
1z!
1b!
16!
1M!
13!
1N!
1P!
0{!
1s!
1_!
0x!
0p!
1[
1d
1]
1c
1a
0a!
1t!
0!"
0y!
0u!
1v!
#600000
0%
1j
0T!
#610000
1%
0j
1T!
0""
0z!
1w!
0b!
06!
0M!
1Q!
03!
0N!
0P!
1{!
0s!
0m!
1j!
0_!
0[
0d
1`
0]
0c
0a
0t!
1~!
1|!
1!"
#620000
0%
1j
0T!
#630000
1%
0j
1T!
1""
1}!
1I!
1P!
0~!
1h
1a
0|!
1k!
1u!
0!"
0v!
1h!
#640000
0%
1j
0T!
#650000
1%
0j
1T!
0""
0}!
0w!
1l!
1i!
1R!
14!
1K!
0Q!
0I!
0P!
0j!
1f!
1~!
1_
1)
1f
0`
0h
0a
1|!
0k!
0u!
1p!
1g!
0~!
1!"
0|!
0h!
1u!
1$"
1h!
#660000
0%
1j
0T!
#670000
1%
0j
1T!
1%"
1""
0l!
04!
0K!
1P!
1O!
0f!
1Z!
0p!
0g!
0)
0f
1a
1b
1+"
0("
0q
1r
1r!
0J
1I
0$"
0h!
0!"
1\!
0u!
1y!
1$"
1h!
1v!
#680000
0%
1j
0T!
#690000
1$
1%
1V!
0j
1T!
0i!
0""
0%"
0+#
01#
03#
09#
0<#
0=#
0E!
0D!
0A!
0=!
0<!
09!
0O!
0P!
0R!
0Z!
0r!
1m!
0U
0V
0Y
0M
0N
0Q
0b
0a
0_
0+"
1("
0\!
1q
0r
1x!
1p!
1u!
1J
0I
1a!
0y!
0$"
0h!
0v!
1!"
1y!
#700000
0%
1j
0T!
#710000
0$
1%
0V!
0j
1T!
1""
1z!
1b!
16!
1M!
13!
1N!
1P!
0{!
1s!
1_!
0x!
0p!
1[
1d
1]
1c
1a
0a!
1t!
0!"
0y!
0u!
1v!
#720000
0%
1j
0T!
#730000
1%
0j
1T!
0""
0z!
1w!
0b!
06!
0M!
1Q!
03!
0N!
0P!
1{!
0s!
0m!
1j!
0_!
0[
0d
1`
0]
0c
0a
0t!
1~!
1|!
1!"
#740000
0%
1j
0T!
#750000
1%
0j
1T!
1""
1}!
1I!
1P!
0~!
1h
1a
0|!
1k!
1u!
0!"
0v!
1h!
#760000
0%
1j
0T!
#770000
1%
0j
1T!
13#
11#
1+#
0""
0}!
0w!
1l!
1i!
1R!
14!
1K!
0Q!
0I!
0P!
19!
1<!
1=!
0j!
1f!
1~!
1_
1)
1f
0`
0h
0a
1Q
1N
1M
1|!
0k!
0u!
1p!
1g!
0~!
1!"
0|!
0h!
1u!
1$"
1h!
#780000
0%
1j
0T!
