Lab4/lab4_template_de1soc/simulation/qsim/rc4.msim.vcd
$comment
	File created using the following command:
		vcd file rc4.msim.vcd -direction
$end
$date
	Mon Mar 09 15:48:39 2020
$end
$version
	ModelSim Version 10.3c
$end
$timescale
	1ps
$end

$scope module decrypt_vlg_vec_tst $end
$var reg 8 ! address_compute [7:0] $end
$var reg 8 " address_init [7:0] $end
$var reg 8 # address_shuffle [7:0] $end
$var reg 1 $ clk $end
$var reg 1 % compute_complete $end
$var reg 8 & data_compute [7:0] $end
$var reg 8 ' data_init [7:0] $end
$var reg 8 ( data_shuffle [7:0] $end
$var reg 1 ) decrypt_start $end
$var reg 1 * init_complete $end
$var reg 1 + reset $end
$var reg 1 , shuffle_complete $end
$var reg 1 - wren_compute $end
$var reg 1 . wren_init $end
$var reg 1 / wren_shuffle $end
$var wire 1 0 address_out [7] $end
$var wire 1 1 address_out [6] $end
$var wire 1 2 address_out [5] $end
$var wire 1 3 address_out [4] $end
$var wire 1 4 address_out [3] $end
$var wire 1 5 address_out [2] $end
$var wire 1 6 address_out [1] $end
$var wire 1 7 address_out [0] $end
$var wire 1 8 compute_reset $end
$var wire 1 9 compute_start $end
$var wire 1 : data_out [7] $end
$var wire 1 ; data_out [6] $end
$var wire 1 < data_out [5] $end
$var wire 1 = data_out [4] $end
$var wire 1 > data_out [3] $end
$var wire 1 ? data_out [2] $end
$var wire 1 @ data_out [1] $end
$var wire 1 A data_out [0] $end
$var wire 1 B decrypt_complete $end
$var wire 1 C init_reset $end
$var wire 1 D init_start $end
$var wire 1 E shuffle_reset $end
$var wire 1 F shuffle_start $end
$var wire 1 G wren_out $end
$var wire 1 H sampler $end

$scope module i1 $end
$var wire 1 I gnd $end
$var wire 1 J vcc $end
$var wire 1 K unknown $end
$var tri1 1 L devclrn $end
$var tri1 1 M devpor $end
$var tri1 1 N devoe $end
$var wire 1 O decrypt_complete~output_o $end
$var wire 1 P init_start~output_o $end
$var wire 1 Q init_reset~output_o $end
$var wire 1 R shuffle_start~output_o $end
$var wire 1 S shuffle_reset~output_o $end
$var wire 1 T compute_start~output_o $end
$var wire 1 U compute_reset~output_o $end
$var wire 1 V address_out[0]~output_o $end
$var wire 1 W address_out[1]~output_o $end
$var wire 1 X address_out[2]~output_o $end
$var wire 1 Y address_out[3]~output_o $end
$var wire 1 Z address_out[4]~output_o $end
$var wire 1 [ address_out[5]~output_o $end
$var wire 1 \ address_out[6]~output_o $end
$var wire 1 ] address_out[7]~output_o $end
$var wire 1 ^ data_out[0]~output_o $end
$var wire 1 _ data_out[1]~output_o $end
$var wire 1 ` data_out[2]~output_o $end
$var wire 1 a data_out[3]~output_o $end
$var wire 1 b data_out[4]~output_o $end
$var wire 1 c data_out[5]~output_o $end
$var wire 1 d data_out[6]~output_o $end
$var wire 1 e data_out[7]~output_o $end
$var wire 1 f wren_out~output_o $end
$var wire 1 g clk~input_o $end
$var wire 1 h reset~input_o $end
$var wire 1 i state~2_combout $end
$var wire 1 j compute_complete~input_o $end
$var wire 1 k init_complete~input_o $end
$var wire 1 l state[3]~6_combout $end
$var wire 1 m state[3]~5_combout $end
$var wire 1 n shuffle_complete~input_o $end
$var wire 1 o decrypt_start~input_o $end
$var wire 1 p state[3]~4_combout $end
$var wire 1 q state[4]~16_combout $end
$var wire 1 r state[4]~17_combout $end
$var wire 1 s state[6]~12_combout $end
$var wire 1 t state[5]~14_combout $end
$var wire 1 u state[5]~15_combout $end
$var wire 1 v state[6]~13_combout $end
$var wire 1 w state[2]~8_combout $end
$var wire 1 x state[1]~9_combout $end
$var wire 1 y state[1]~10_combout $end
$var wire 1 z state~3_combout $end
$var wire 1 { state[0]~7_combout $end
$var wire 1 | shuffle_reset~1_combout $end
$var wire 1 } state[2]~0_combout $end
$var wire 1 ~ state[2]~11_combout $end
$var wire 1 !! state[3]~1_combout $end
$var wire 1 "! init_reset~0_combout $end
$var wire 1 #! shuffle_reset~0_combout $end
$var wire 1 $! compute_reset~0_combout $end
$var wire 1 %! address_compute[0]~input_o $end
$var wire 1 &! address_init[0]~input_o $end
$var wire 1 '! address_shuffle[0]~input_o $end
$var wire 1 (! address_out~0_combout $end
$var wire 1 )! address_compute[1]~input_o $end
$var wire 1 *! address_init[1]~input_o $end
$var wire 1 +! address_shuffle[1]~input_o $end
$var wire 1 ,! address_out~1_combout $end
$var wire 1 -! address_compute[2]~input_o $end
$var wire 1 .! address_init[2]~input_o $end
$var wire 1 /! address_shuffle[2]~input_o $end
$var wire 1 0! address_out~2_combout $end
$var wire 1 1! address_compute[3]~input_o $end
$var wire 1 2! address_init[3]~input_o $end
$var wire 1 3! address_shuffle[3]~input_o $end
$var wire 1 4! address_out~3_combout $end
$var wire 1 5! address_compute[4]~input_o $end
$var wire 1 6! address_init[4]~input_o $end
$var wire 1 7! address_shuffle[4]~input_o $end
$var wire 1 8! address_out~4_combout $end
$var wire 1 9! address_compute[5]~input_o $end
$var wire 1 :! address_init[5]~input_o $end
$var wire 1 ;! address_shuffle[5]~input_o $end
$var wire 1 <! address_out~5_combout $end
$var wire 1 =! address_compute[6]~input_o $end
$var wire 1 >! address_init[6]~input_o $end
$var wire 1 ?! address_shuffle[6]~input_o $end
$var wire 1 @! address_out~6_combout $end
$var wire 1 A! address_compute[7]~input_o $end
$var wire 1 B! address_init[7]~input_o $end
$var wire 1 C! address_shuffle[7]~input_o $end
$var wire 1 D! address_out~7_combout $end
$var wire 1 E! data_compute[0]~input_o $end
$var wire 1 F! data_init[0]~input_o $end
$var wire 1 G! data_shuffle[0]~input_o $end
$var wire 1 H! data_out~0_combout $end
$var wire 1 I! data_compute[1]~input_o $end
$var wire 1 J! data_init[1]~input_o $end
$var wire 1 K! data_shuffle[1]~input_o $end
$var wire 1 L! data_out~1_combout $end
$var wire 1 M! data_compute[2]~input_o $end
$var wire 1 N! data_init[2]~input_o $end
$var wire 1 O! data_shuffle[2]~input_o $end
$var wire 1 P! data_out~2_combout $end
$var wire 1 Q! data_compute[3]~input_o $end
$var wire 1 R! data_init[3]~input_o $end
$var wire 1 S! data_shuffle[3]~input_o $end
$var wire 1 T! data_out~3_combout $end
$var wire 1 U! data_compute[4]~input_o $end
$var wire 1 V! data_init[4]~input_o $end
$var wire 1 W! data_shuffle[4]~input_o $end
$var wire 1 X! data_out~4_combout $end
$var wire 1 Y! data_compute[5]~input_o $end
$var wire 1 Z! data_init[5]~input_o $end
$var wire 1 [! data_shuffle[5]~input_o $end
$var wire 1 \! data_out~5_combout $end
$var wire 1 ]! data_compute[6]~input_o $end
$var wire 1 ^! data_init[6]~input_o $end
$var wire 1 _! data_shuffle[6]~input_o $end
$var wire 1 `! data_out~6_combout $end
$var wire 1 a! data_compute[7]~input_o $end
$var wire 1 b! data_init[7]~input_o $end
$var wire 1 c! data_shuffle[7]~input_o $end
$var wire 1 d! data_out~7_combout $end
$var wire 1 e! wren_compute~input_o $end
$var wire 1 f! wren_init~input_o $end
$var wire 1 g! wren_shuffle~input_o $end
$var wire 1 h! wren_out~0_combout $end
$var wire 1 i! state [6] $end
$var wire 1 j! state [5] $end
$var wire 1 k! state [4] $end
$var wire 1 l! state [3] $end
$var wire 1 m! state [2] $end
$var wire 1 n! state [1] $end
$var wire 1 o! state [0] $end
$upscope $end
$upscope $end
$enddefinitions $end
#0
$dumpvars
b1000011 !
b1001001 "
b1010011 #
0$
0%
b110011 &
b110001 '
b110010 (
0)
0*
0+
0,
0-
0.
0/
07
06
05
04
03
02
01
00
08
09
0A
0@
0?
0>
0=
0<
0;
0:
0B
0C
0D
0E
0F
0G
xH
0I
1J
xK
1L
1M
1N
0O
0P
0Q
0R
0S
0T
0U
0V
0W
0X
0Y
0Z
0[
0\
0]
0^
0_
0`
0a
0b
0c
0d
0e
0f
0g
0h
1i
0j
0k
0l
0m
0n
0o
0p
1q
0r
0s
0t
0u
0v
0w
0x
0y
1z
0{
0|
0}
0~
0!!
0"!
0#!
0$!
1%!
1&!
1'!
0(!
1)!
0*!
1+!
0,!
0-!
0.!
0/!
00!
01!
12!
03!
04!
05!
06!
17!
08!
09!
0:!
0;!
0<!
1=!
1>!
1?!
0@!
0A!
0B!
0C!
0D!
1E!
1F!
0G!
0H!
1I!
0J!
1K!
0L!
0M!
0N!
0O!
0P!
0Q!
0R!
0S!
0T!
1U!
1V!
1W!
0X!
1Y!
1Z!
1[!
0\!
0]!
0^!
0_!
0`!
0a!
0b!
0c!
0d!
0e!
0f!
0g!
0h!
0o!
0n!
0m!
0l!
0k!
0j!
0i!
$end
#10000
1$
0H
1g
#20000
1)
0$
1o
1H
0g
1p
1{
1r
#30000
1$
0H
1g
1k!
1o!
1P
1t
0q
1m
1l
1D
1\!
1X!
1H!
1@!
14!
1(!
1V
1Y
1\
1^
1b
1c
17
14
11
1A
1=
1<
0r
1u
#40000
0$
1H
0g
#50000
0)
1$
0o
0H
1g
0p
1j!
0k!
0z
0t
1q
0m
0l
#60000
0$
1H
0g
#70000
1$
0H
1g
#80000
0$
1H
0g
#90000
1$
0H
1g
#100000
0$
1H
0g
#110000
1$
0H
1g
#120000
0$
1H
0g
#130000
1$
0H
1g
#140000
0$
1H
0g
#150000
1$
0H
1g
#160000
0$
1H
0g
#170000
1$
0H
1g
#180000
0$
1H
0g
#190000
1$
0H
1g
#200000
0$
1H
0g
#210000
1$
0H
1g
#220000
0$
1H
0g
#230000
1$
0H
1g
#240000
0$
1H
0g
#250000
1$
0H
1g
#260000
1*
0$
1k
1H
0g
1x
1l
0{
1r
1y
#270000
1$
0H
1g
1k!
0o!
1n!
1R
0P
0x
1s
0q
1m
1|
1p
1F
0D
1L!
0H!
18!
04!
1,!
1W
0Y
1Z
0^
1_
16
04
13
0A
1@
0r
1v
0u
#280000
0$
1H
0g
#290000
0*
1$
0k
0H
1g
1i!
0j!
0k!
0s
1q
0m
0p
0l
#300000
0$
1H
0g
#310000
1$
0H
1g
#320000
0$
1H
0g
#330000
1$
0H
1g
#340000
0$
1H
0g
#350000
1$
0H
1g
#360000
0$
1H
0g
#370000
1$
0H
1g
#380000
0$
1H
0g
#390000
1$
0H
1g
#400000
0$
1H
0g
#410000
1$
0H
1g
#420000
0$
1H
0g
#430000
1$
0H
1g
#440000
0$
1H
0g
#450000
1$
0H
1g
#460000
0$
1H
0g
#470000
1$
0H
1g
#480000
0$
1H
0g
#490000
1,
1$
1n
0H
1g
1w
1p
1r
1~
0y
#500000
0$
1H
0g
#510000
0,
1$
0n
0H
1g
0w
0p
0r
0~
1y
1k!
1m!
0n!
0R
1T
1t
0q
1m
0|
1p
0i
0F
19
1H!
08!
0y
1~
0Z
1^
03
1A
1u
#520000
0$
1H
0g
#530000
1$
0H
1g
1j!
0k!
0t
1q
0m
0p
#540000
0$
1H
0g
#550000
1$
0H
1g
#560000
0$
1H
0g
#570000
1$
0H
1g
#580000
0$
1H
0g
#590000
1$
0H
1g
#600000
0$
1H
0g
#610000
1$
0H
1g
#620000
0$
1H
0g
#630000
1$
0H
1g
#640000
0$
1H
0g
#650000
1$
0H
1g
#660000
0$
1H
0g
#670000
1$
0H
1g
#680000
0$
1H
0g
#690000
1$
0H
1g
#700000
0$
1H
0g
#710000
1$
0H
1g
#720000
0$
1H
0g
#730000
1$
0H
1g
#740000
0$
1H
0g
#750000
1%
1$
1j
0H
1g
1}
1l
1r
1!!
0~
#760000
0%
0$
0j
1H
0g
0}
0l
0r
0!!
1~
#770000
1$
0H
1g
#780000
0$
1H
0g
#790000
1$
0H
1g
#800000
0$
1H
0g
#810000
1$
0H
1g
#820000
0$
1H
0g
#830000
1$
0H
1g
#840000
0$
1H
0g
#850000
1$
0H
1g
#860000
0$
1H
0g
#870000
1$
0H
1g
#880000
0$
1H
0g
#890000
1$
0H
1g
#900000
0$
1H
0g
#910000
1$
0H
1g
#920000
0$
1H
0g
#930000
1$
0H
1g
#940000
0$
1H
0g
#950000
1$
0H
1g
#960000
0$
1H
0g
#970000
1+
1$
1h
0H
1g
1m
1$!
0~
0v
0u
1U
18
#980000
0$
1H
0g
#990000
0+
1$
0h
0H
1g
0m
0$!
1~
1v
1u
1r
0U
08
0r
0i!
0j!
0m!
0T
1i
09
0v
0u
0\!
0X!
0L!
0H!
0@!
0,!
0(!
0~
0V
0W
0\
0^
0_
0b
0c
1z
07
06
01
0A
0@
0=
0<
