Assignments/2Q1/simulation/qsim/fsm.msim.vcd
$comment
	File created using the following command:
		vcd file fsm.msim.vcd -direction
$end
$date
	Sun Feb 09 15:18:20 2020
$end
$version
	ModelSim Version 10.3c
$end
$timescale
	1ps
$end

$scope module fsm_vlg_vec_tst $end
$var reg 1 ! clk $end
$var reg 1 " pause $end
$var reg 1 # restart $end
$var reg 1 $ rst $end
$var wire 1 % even $end
$var wire 1 & odd $end
$var wire 1 ' state [1] $end
$var wire 1 ( state [0] $end
$var wire 1 ) terminal $end
$var wire 1 * sampler $end

$scope module i1 $end
$var wire 1 + gnd $end
$var wire 1 , vcc $end
$var wire 1 - unknown $end
$var tri1 1 . devclrn $end
$var tri1 1 / devpor $end
$var tri1 1 0 devoe $end
$var wire 1 1 state[0]~output_o $end
$var wire 1 2 state[1]~output_o $end
$var wire 1 3 odd~output_o $end
$var wire 1 4 even~output_o $end
$var wire 1 5 terminal~output_o $end
$var wire 1 6 clk~input_o $end
$var wire 1 7 pause~input_o $end
$var wire 1 8 restart~input_o $end
$var wire 1 9 Mux0~0_combout $end
$var wire 1 : rst~input_o $end
$var wire 1 ; state[1]~reg0_q $end
$var wire 1 < Mux1~0_combout $end
$var wire 1 = state[0]~reg0_q $end
$var wire 1 > Equal2~0_combout $end
$var wire 1 ? terminal~0_combout $end
$upscope $end
$upscope $end
$enddefinitions $end
#0
$dumpvars
0!
0"
0#
1$
0%
1&
1(
1'
0)
x*
0+
1,
x-
1.
1/
10
11
12
13
04
05
06
07
08
19
1:
0;
0<
0=
0>
0?
$end
#5000
1!
0*
16
#10000
1"
0$
0!
17
0:
1*
06
09
#15000
1!
0*
16
#20000
1#
0"
0!
18
07
1*
06
#25000
1!
0*
16
#30000
1"
0!
17
1*
06
#35000
1!
0*
16
#40000
0#
0"
0!
08
07
1*
06
19
#45000
1!
0*
16
1;
03
02
0&
0'
1>
1<
09
14
1%
#50000
1"
0!
17
1*
06
0<
19
#55000
1!
0*
16
#60000
1#
0"
0!
18
07
1*
06
09
#65000
1!
0*
16
0;
13
12
1&
1'
0>
04
0%
#70000
0#
0!
08
1*
06
19
#75000
1!
0*
16
1;
03
02
0&
0'
1>
1<
09
14
1%
#80000
1"
1#
0!
17
18
1*
06
0<
#85000
1!
0*
16
0;
13
12
1&
1'
0>
04
0%
#90000
0"
0#
0!
07
08
1*
06
19
#95000
1!
0*
16
1;
03
02
0&
0'
1>
1<
09
14
1%
#100000
0!
1*
06
#105000
1!
0*
16
1=
0;
13
12
01
1&
1'
0(
1?
0>
0<
04
15
0%
1)
#110000
0!
1*
06
#115000
1!
0*
16
0=
11
1(
0?
19
05
0)
#120000
0!
1*
06
#125000
1!
0*
16
1;
03
02
0&
0'
1>
1<
09
14
1%
#130000
0!
1*
06
#135000
1!
0*
16
1=
0;
13
12
01
1&
1'
0(
1?
0>
0<
04
15
0%
1)
#140000
1#
0!
18
1*
06
#145000
1!
0*
16
0=
11
1(
0?
05
0)
#150000
0#
0!
08
1*
06
19
#155000
1!
0*
16
1;
03
02
0&
0'
1>
1<
09
14
1%
#160000
0!
1*
06
#165000
1!
0*
16
1=
0;
13
12
01
1&
1'
0(
1?
0>
0<
04
15
0%
1)
#170000
1"
1#
0!
17
18
1*
06
#175000
1!
0*
16
0=
11
1(
0?
05
0)
#180000
0"
0#
0!
07
08
1*
06
19
#185000
1!
0*
16
1;
03
02
0&
0'
1>
1<
09
14
1%
#190000
0!
1*
06
#195000
1!
0*
16
1=
0;
13
12
01
1&
1'
0(
1?
0>
0<
04
15
0%
1)
#200000
1"
0!
17
1*
06
0?
1<
05
0)
#205000
1!
0*
16
#210000
1$
0"
0!
1:
07
1*
06
1?
0<
15
1)
0=
11
1(
0?
19
05
0)
#215000
1!
0*
16
#220000
0$
0!
0:
1*
06
#225000
1!
0*
16
1;
03
02
0&
0'
1>
1<
09
14
1%
#230000
0!
1*
06
#235000
1!
0*
16
1=
0;
13
12
01
1&
1'
0(
1?
0>
0<
04
15
0%
1)
#240000
0!
1*
06
#245000
1!
0*
16
0=
11
1(
0?
19
05
0)
#250000
0!
1*
06
#255000
1!
0*
16
1;
03
02
0&
0'
1>
1<
09
14
1%
#260000
0!
1*
06
#265000
1!
0*
16
1=
0;
13
12
01
1&
1'
0(
1?
0>
0<
04
15
0%
1)
#270000
0!
1*
06
#275000
1!
0*
16
0=
11
1(
0?
19
05
0)
#280000
0!
1*
06
#285000
1!
0*
16
1;
03
02
0&
0'
1>
1<
09
14
1%
#290000
0!
1*
06
#295000
1!
0*
16
1=
0;
13
12
01
1&
1'
0(
1?
0>
0<
04
15
0%
1)
#300000
0!
1*
06
#305000
1!
0*
16
0=
11
1(
0?
19
05
0)
#310000
0!
1*
06
#315000
1!
0*
16
1;
03
02
0&
0'
1>
1<
09
14
1%
#320000
0!
1*
06
#325000
1!
0*
16
1=
0;
13
12
01
1&
1'
0(
1?
0>
0<
04
15
0%
1)
#330000
0!
1*
06
#335000
1!
0*
16
0=
11
1(
0?
19
05
0)
#340000
0!
1*
06
#345000
1!
0*
16
1;
03
02
0&
0'
1>
1<
09
14
1%
#350000
0!
1*
06
#355000
1!
0*
16
1=
0;
13
12
01
1&
1'
0(
1?
0>
0<
04
15
0%
1)
#360000
0!
1*
06
#365000
1!
0*
16
0=
11
1(
0?
19
05
0)
#370000
0!
1*
06
#375000
1!
0*
16
1;
03
02
0&
0'
1>
1<
09
14
1%
#380000
0!
1*
06
#385000
1!
0*
16
1=
0;
13
12
01
1&
1'
0(
1?
0>
0<
04
15
0%
1)
#390000
0!
1*
06
#395000
1!
0*
16
0=
11
1(
0?
19
05
0)
#400000
0!
1*
06
#405000
1!
0*
16
1;
03
02
0&
0'
1>
1<
09
14
1%
#410000
0!
1*
06
#415000
1!
0*
16
1=
0;
13
12
01
1&
1'
0(
1?
0>
0<
04
15
0%
1)
#420000
0!
1*
06
#425000
1!
0*
16
0=
11
1(
0?
19
05
0)
#430000
0!
1*
06
#435000
1!
0*
16
1;
03
02
0&
0'
1>
1<
09
14
1%
#440000
0!
1*
06
#445000
1!
0*
16
1=
0;
13
12
01
1&
1'
0(
1?
0>
0<
04
15
0%
1)
#450000
0!
1*
06
#455000
1!
0*
16
0=
11
1(
0?
19
05
0)
#460000
0!
1*
06
#465000
1!
0*
16
1;
03
02
0&
0'
1>
1<
09
14
1%
#470000
0!
1*
06
#475000
1!
0*
16
1=
0;
13
12
01
1&
1'
0(
1?
0>
0<
04
15
0%
1)
#480000
0!
1*
06
#485000
1!
0*
16
0=
11
1(
0?
19
05
0)
#490000
0!
1*
06
#495000
1!
0*
16
1;
03
02
0&
0'
1>
1<
09
14
1%
#500000
0!
1*
06
#505000
1!
0*
16
1=
0;
13
12
01
1&
1'
0(
1?
0>
0<
04
15
0%
1)
#510000
0!
1*
06
#515000
1!
0*
16
0=
11
1(
0?
19
05
0)
#520000
0!
1*
06
#525000
1!
0*
16
1;
03
02
0&
0'
1>
1<
09
14
1%
#530000
0!
1*
06
#535000
1!
0*
16
1=
0;
13
12
01
1&
1'
0(
1?
0>
0<
04
15
0%
1)
#540000
0!
1*
06
#545000
1!
0*
16
0=
11
1(
0?
19
05
0)
#550000
0!
1*
06
#555000
1!
0*
16
1;
03
02
0&
0'
1>
1<
09
14
1%
#560000
0!
1*
06
#565000
1!
0*
16
1=
0;
13
12
01
1&
1'
0(
1?
0>
0<
04
15
0%
1)
#570000
0!
1*
06
#575000
1!
0*
16
0=
11
1(
0?
19
05
0)
#580000
0!
1*
06
#585000
1!
0*
16
1;
03
02
0&
0'
1>
1<
09
14
1%
#590000
0!
1*
06
#595000
1!
0*
16
1=
0;
13
12
01
1&
1'
0(
1?
0>
0<
04
15
0%
1)
#600000
0!
1*
06
#605000
1!
0*
16
0=
11
1(
0?
19
05
0)
#610000
0!
1*
06
#615000
1!
0*
16
1;
03
02
0&
0'
1>
1<
09
14
1%
#620000
0!
1*
06
#625000
1!
0*
16
1=
0;
13
12
01
1&
1'
0(
1?
0>
0<
04
15
0%
1)
#630000
0!
1*
06
#635000
1!
0*
16
0=
11
1(
0?
19
05
0)
#640000
0!
1*
06
#645000
1!
0*
16
1;
03
02
0&
0'
1>
1<
09
14
1%
#650000
0!
1*
06
#655000
1!
0*
16
1=
0;
13
12
01
1&
1'
0(
1?
0>
0<
04
15
0%
1)
#660000
0!
1*
06
#665000
1!
0*
16
0=
11
1(
0?
19
05
0)
#670000
0!
1*
06
#675000
1!
0*
16
1;
03
02
0&
0'
1>
1<
09
14
1%
#680000
0!
1*
06
#685000
1!
0*
16
1=
0;
13
12
01
1&
1'
0(
1?
0>
0<
04
15
0%
1)
#690000
0!
1*
06
#695000
1!
0*
16
0=
11
1(
0?
19
05
0)
#700000
0!
1*
06
#705000
1!
0*
16
1;
03
02
0&
0'
1>
1<
09
14
1%
#710000
0!
1*
06
#715000
1!
0*
16
1=
0;
13
12
01
1&
1'
0(
1?
0>
0<
04
15
0%
1)
#720000
0!
1*
06
#725000
1!
0*
16
0=
11
1(
0?
19
05
0)
#730000
0!
1*
06
#735000
1!
0*
16
1;
03
02
0&
0'
1>
1<
09
14
1%
#740000
0!
1*
06
#745000
1!
0*
16
1=
0;
13
12
01
1&
1'
0(
1?
0>
0<
04
15
0%
1)
#750000
0!
1*
06
#755000
1!
0*
16
0=
11
1(
0?
19
05
0)
#760000
0!
1*
06
#765000
1!
0*
16
1;
03
02
0&
0'
1>
1<
09
14
1%
#770000
0!
1*
06
#775000
1!
0*
16
1=
0;
13
12
01
1&
1'
0(
1?
0>
0<
04
15
0%
1)
#780000
0!
1*
06
#785000
1!
0*
16
0=
11
1(
0?
19
05
0)
#790000
0!
1*
06
#795000
1!
0*
16
1;
03
02
0&
0'
1>
1<
09
14
1%
#800000
0!
1*
06
#805000
1!
0*
16
1=
0;
13
12
01
1&
1'
0(
1?
0>
0<
04
15
0%
1)
#810000
0!
1*
06
#815000
1!
0*
16
0=
11
1(
0?
19
05
0)
#820000
0!
1*
06
#825000
1!
0*
16
1;
03
02
0&
0'
1>
1<
09
14
1%
#830000
0!
1*
06
#835000
1!
0*
16
1=
0;
13
12
01
1&
1'
0(
1?
0>
0<
04
15
0%
1)
#840000
0!
1*
06
#845000
1!
0*
16
0=
11
1(
0?
19
05
0)
#850000
0!
1*
06
#855000
1!
0*
16
1;
03
02
0&
0'
1>
1<
09
14
1%
#860000
0!
1*
06
#865000
1!
0*
16
1=
0;
13
12
01
1&
1'
0(
1?
0>
0<
04
15
0%
1)
#870000
0!
1*
06
#875000
1!
0*
16
0=
11
1(
0?
19
05
0)
#880000
0!
1*
06
#885000
1!
0*
16
1;
03
02
0&
0'
1>
1<
09
14
1%
#890000
0!
1*
06
#895000
1!
0*
16
1=
0;
13
12
01
1&
1'
0(
1?
0>
0<
04
15
0%
1)
#900000
0!
1*
06
#905000
1!
0*
16
0=
11
1(
0?
19
05
0)
#910000
0!
1*
06
#915000
1!
0*
16
1;
03
02
0&
0'
1>
1<
09
14
1%
#920000
0!
1*
06
#925000
1!
0*
16
1=
0;
13
12
01
1&
1'
0(
1?
0>
0<
04
15
0%
1)
#930000
0!
1*
06
#935000
1!
0*
16
0=
11
1(
0?
19
05
0)
#940000
0!
1*
06
#945000
1!
0*
16
1;
03
02
0&
0'
1>
1<
09
14
1%
#950000
0!
1*
06
#955000
1!
0*
16
1=
0;
13
12
01
1&
1'
0(
1?
0>
0<
04
15
0%
1)
#960000
0!
1*
06
#965000
1!
0*
16
0=
11
1(
0?
19
05
0)
#970000
0!
1*
06
#975000
1!
0*
16
1;
03
02
0&
0'
1>
1<
09
14
1%
#980000
0!
1*
06
#985000
1!
0*
16
1=
0;
13
12
01
1&
1'
0(
1?
0>
0<
04
15
0%
1)
#990000
0!
1*
06
#995000
1!
0*
16
0=
11
1(
0?
19
05
0)
