Assignments/2Q1/simulation/qsim/fsm.msim.vcd
$comment
	File created using the following command:
		vcd file fsm.msim.vcd -direction
$end
$date
	Wed Apr 15 20:08:59 2020
$end
$version
	ModelSim Version 10.3c
$end
$timescale
	1ps
$end

$scope module fsm_vlg_vec_tst $end
$var reg 1 ! clk $end
$var reg 1 " dataValid $end
$var reg 1 # read $end
$var reg 1 $ start $end
$var reg 1 % waitRequest $end
$var wire 1 & complete $end
$var wire 1 ' sampler $end

$scope module i1 $end
$var wire 1 ( gnd $end
$var wire 1 ) vcc $end
$var wire 1 * unknown $end
$var tri1 1 + devclrn $end
$var tri1 1 , devpor $end
$var tri1 1 - devoe $end
$var wire 1 . complete~output_o $end
$var wire 1 / clk~input_o $end
$var wire 1 0 Selector3~0_combout $end
$var wire 1 1 start~input_o $end
$var wire 1 2 waitRequest~input_o $end
$var wire 1 3 read~input_o $end
$var wire 1 4 dataValid~input_o $end
$var wire 1 5 Selector2~0_combout $end
$var wire 1 6 state[0]~0_combout $end
$var wire 1 7 state[0]~2_combout $end
$var wire 1 8 state[0]~1_combout $end
$var wire 1 9 state [4] $end
$var wire 1 : state [3] $end
$var wire 1 ; state [2] $end
$var wire 1 < state [1] $end
$var wire 1 = state [0] $end
$upscope $end
$upscope $end
$enddefinitions $end
#0
$dumpvars
0!
0"
0#
1$
0%
0&
x'
0(
1)
x*
1+
1,
1-
0.
0/
10
11
02
03
04
05
06
17
08
0=
0<
0;
z:
z9
$end
#5000
1!
0'
1/
1<
16
15
00
07
#10000
0!
1'
0/
#15000
1!
0'
1/
#20000
0!
1'
0/
#25000
1!
0'
1/
#30000
0!
1'
0/
#35000
1!
0'
1/
#40000
0!
1'
0/
#45000
1!
0'
1/
#50000
0!
1'
0/
#55000
1!
0'
1/
#60000
0!
1'
0/
#65000
1!
0'
1/
#70000
0!
1'
0/
#75000
1!
0'
1/
#80000
0!
1'
0/
#85000
1!
0'
1/
#90000
0!
1'
0/
#95000
1!
0'
1/
#100000
0!
1'
0/
#105000
1!
0'
1/
#110000
0!
1'
0/
#115000
1!
0'
1/
#120000
0!
1'
0/
#125000
1!
0'
1/
#130000
0!
1'
0/
#135000
1!
0'
1/
#140000
0!
1'
0/
#145000
1!
0'
1/
#150000
0!
1'
0/
#155000
1!
0'
1/
#160000
0!
1'
0/
#165000
1!
0'
1/
#170000
0!
1'
0/
#175000
1!
0'
1/
#180000
0!
1'
0/
#185000
1!
0'
1/
#190000
0!
1'
0/
#195000
1!
0'
1/
#200000
0!
1'
0/
#205000
1!
0'
1/
#210000
0!
1'
0/
#215000
1!
0'
1/
#220000
0!
1'
0/
#225000
1!
0'
1/
#230000
0!
1'
0/
#235000
1!
0'
1/
#240000
0!
1'
0/
#245000
1!
0'
1/
#250000
0!
1'
0/
#255000
1!
0'
1/
#260000
0!
1'
0/
#265000
1!
0'
1/
#270000
0!
1'
0/
#275000
1!
0'
1/
#280000
0!
1'
0/
#285000
1!
0'
1/
#290000
1#
0!
13
1'
0/
06
17
#295000
1!
0'
1/
0<
1;
10
#300000
0!
1'
0/
#305000
1!
0'
1/
1<
18
05
00
#310000
0!
1'
0/
#315000
1!
0'
1/
0<
0;
1=
1.
1&
08
#320000
0!
1'
0/
#325000
1!
0'
1/
0=
0.
0&
10
#330000
0!
1'
0/
#335000
1!
0'
1/
1<
15
00
#340000
0!
1'
0/
#345000
1!
0'
1/
0<
1;
10
#350000
0!
1'
0/
#355000
1!
0'
1/
1<
18
05
00
#360000
0!
1'
0/
#365000
1!
0'
1/
0<
0;
1=
1.
1&
08
#370000
0!
1'
0/
#375000
1!
0'
1/
0=
0.
0&
10
#380000
0!
1'
0/
#385000
1!
0'
1/
1<
15
00
#390000
0!
1'
0/
#395000
1!
0'
1/
0<
1;
10
#400000
0!
1'
0/
#405000
1!
0'
1/
1<
18
05
00
#410000
0!
1'
0/
#415000
1!
0'
1/
0<
0;
1=
1.
1&
08
#420000
0!
1'
0/
#425000
1!
0'
1/
0=
0.
0&
10
#430000
0!
1'
0/
#435000
1!
0'
1/
1<
15
00
#440000
0!
1'
0/
#445000
1!
0'
1/
0<
1;
10
#450000
0!
1'
0/
#455000
1!
0'
1/
1<
18
05
00
#460000
0!
1'
0/
#465000
1!
0'
1/
0<
0;
1=
1.
1&
08
#470000
0!
1'
0/
#475000
1!
0'
1/
0=
0.
0&
10
#480000
0!
1'
0/
#485000
1!
0'
1/
1<
15
00
#490000
0!
1'
0/
#495000
1!
0'
1/
0<
1;
10
#500000
0!
1'
0/
#505000
1!
0'
1/
1<
18
05
00
#510000
0!
1'
0/
#515000
1!
0'
1/
0<
0;
1=
1.
1&
08
#520000
0!
1'
0/
#525000
1!
0'
1/
0=
0.
0&
10
#530000
0!
1'
0/
#535000
1!
0'
1/
1<
15
00
#540000
0!
1'
0/
#545000
1!
0'
1/
0<
1;
10
#550000
0!
1'
0/
#555000
1!
0'
1/
1<
18
05
00
#560000
0!
1'
0/
#565000
1!
0'
1/
0<
0;
1=
1.
1&
08
#570000
0!
1'
0/
#575000
1!
0'
1/
0=
0.
0&
10
#580000
0!
1'
0/
#585000
1!
0'
1/
1<
15
00
#590000
0!
1'
0/
#595000
1!
0'
1/
0<
1;
10
#600000
0!
1'
0/
#605000
1!
0'
1/
1<
18
05
00
#610000
0!
1'
0/
#615000
1!
0'
1/
0<
0;
1=
1.
1&
08
#620000
0!
1'
0/
#625000
1!
0'
1/
0=
0.
0&
10
#630000
0!
1'
0/
#635000
1!
0'
1/
1<
15
00
#640000
0!
1'
0/
#645000
1!
0'
1/
0<
1;
10
#650000
0!
1'
0/
#655000
1!
0'
1/
1<
18
05
00
#660000
0!
1'
0/
#665000
1!
0'
1/
0<
0;
1=
1.
1&
08
#670000
0!
1'
0/
#675000
1!
0'
1/
0=
0.
0&
10
#680000
0!
1'
0/
#685000
1!
0'
1/
1<
15
00
#690000
0!
1'
0/
#695000
1!
0'
1/
0<
1;
10
#700000
0!
1'
0/
#705000
1!
0'
1/
1<
18
05
00
#710000
0!
1'
0/
#715000
1!
0'
1/
0<
0;
1=
1.
1&
08
#720000
0!
1'
0/
#725000
1!
0'
1/
0=
0.
0&
10
#730000
0!
1'
0/
#735000
1!
0'
1/
1<
15
00
#740000
0!
1'
0/
#745000
1!
0'
1/
0<
1;
10
#750000
0!
1'
0/
#755000
1!
0'
1/
1<
18
05
00
#760000
0!
1'
0/
#765000
1!
0'
1/
0<
0;
1=
1.
1&
08
#770000
0!
1'
0/
#775000
1!
0'
1/
0=
0.
0&
10
#780000
0!
1'
0/
#785000
1!
0'
1/
1<
15
00
#790000
0!
1'
0/
#795000
1!
0'
1/
0<
1;
10
#800000
0!
1'
0/
#805000
1!
0'
1/
1<
18
05
00
#810000
0!
1'
0/
#815000
1!
0'
1/
0<
0;
1=
1.
1&
08
#820000
0!
1'
0/
#825000
1!
0'
1/
0=
0.
0&
10
#830000
0!
1'
0/
#835000
1!
0'
1/
1<
15
00
#840000
0!
1'
0/
#845000
1!
0'
1/
0<
1;
10
#850000
0!
1'
0/
#855000
1!
0'
1/
1<
18
05
00
#860000
0!
1'
0/
#865000
1!
0'
1/
0<
0;
1=
1.
1&
08
#870000
0!
1'
0/
#875000
1!
0'
1/
0=
0.
0&
10
#880000
0!
1'
0/
#885000
1!
0'
1/
1<
15
00
#890000
0!
1'
0/
#895000
1!
0'
1/
0<
1;
10
#900000
0!
1'
0/
#905000
1!
0'
1/
1<
18
05
00
#910000
0!
1'
0/
#915000
1!
0'
1/
0<
0;
1=
1.
1&
08
#920000
0!
1'
0/
#925000
1!
0'
1/
0=
0.
0&
10
#930000
0!
1'
0/
#935000
1!
0'
1/
1<
15
00
#940000
0!
1'
0/
#945000
1!
0'
1/
0<
1;
10
#950000
0!
1'
0/
#955000
1!
0'
1/
1<
18
05
00
#960000
0!
1'
0/
#965000
1!
0'
1/
0<
0;
1=
1.
1&
08
#970000
0!
1'
0/
#975000
1!
0'
1/
0=
0.
0&
10
#980000
0!
1'
0/
#985000
1!
0'
1/
1<
15
00
#990000
0!
1'
0/
#995000
1!
0'
1/
0<
1;
10
