Assignments/1Q7/simulation/qsim/assignment1q7.msim.vcd
$comment
	File created using the following command:
		vcd file assignment1q7.msim.vcd -direction
$end
$date
	Fri Jan 24 02:13:32 2020
$end
$version
	ModelSim Version 10.3c
$end
$timescale
	1ps
$end

$scope module assignment1q7_vlg_vec_tst $end
$var reg 1 ! async_sig $end
$var reg 1 " outclk $end
$var wire 1 # out_sync_sig $end
$var wire 1 $ sampler $end

$scope module i1 $end
$var wire 1 % gnd $end
$var wire 1 & vcc $end
$var wire 1 ' unknown $end
$var tri1 1 ( devclrn $end
$var tri1 1 ) devpor $end
$var tri1 1 * devoe $end
$var wire 1 + out_sync_sig~output_o $end
$var wire 1 , outclk~input_o $end
$var wire 1 - async_sig~input_o $end
$var wire 1 . fdc1|q~q $end
$var wire 1 / fdc2|q~q $end
$var wire 1 0 fdc3|q~q $end
$var wire 1 1 fdc4|q~q $end
$upscope $end
$upscope $end
$enddefinitions $end
#0
$dumpvars
1!
0"
0#
x$
0%
1&
x'
1(
1)
1*
0+
0,
1-
0.
0/
00
01
$end
#5000
1"
0$
1,
#10000
0"
1$
0,
#15000
1"
0$
1,
#20000
0"
1$
0,
#25000
1"
0$
1,
#30000
0!
0"
1$
0-
0,
#35000
1"
0$
1,
#40000
1!
0"
1$
1-
0,
1/
#45000
1"
0$
1,
10
#50000
0"
1$
0,
#55000
1"
0$
1,
11
1+
1#
#60000
0"
1$
0,
#65000
1"
0$
1,
1.
0/
#70000
0"
1$
0,
#75000
1"
0$
1,
00
#80000
0"
1$
0,
#85000
1"
0$
1,
01
0+
0#
#90000
0!
0"
1$
0-
0,
#95000
1"
0$
1,
0.
#100000
1!
0"
1$
1-
0,
1/
#105000
1"
0$
1,
10
#110000
0"
1$
0,
#115000
1"
0$
1,
11
1+
1#
#120000
0!
0"
1$
0-
0,
#125000
1"
0$
1,
1.
0/
#130000
1!
0"
1$
1-
0,
#135000
1"
0$
1,
00
#140000
0"
1$
0,
#145000
1"
0$
1,
01
0+
0#
#150000
0"
1$
0,
#155000
1"
0$
1,
0.
#160000
0"
1$
0,
#165000
1"
0$
1,
#170000
0!
0"
1$
0-
0,
#175000
1"
0$
1,
#180000
0"
1$
0,
#185000
1"
0$
1,
#190000
1!
0"
1$
1-
0,
1/
#195000
1"
0$
1,
10
#200000
0"
1$
0,
#205000
1"
0$
1,
11
1+
1#
#210000
0!
0"
1$
0-
0,
#215000
1"
0$
1,
1.
0/
#220000
0"
1$
0,
#225000
1"
0$
1,
00
#230000
0"
1$
0,
#235000
1"
0$
1,
01
0+
0#
#240000
0"
1$
0,
#245000
1"
0$
1,
0.
#250000
1!
0"
1$
1-
0,
1/
#255000
1"
0$
1,
10
#260000
0"
1$
0,
#265000
1"
0$
1,
11
1+
1#
#270000
0"
1$
0,
#275000
1"
0$
1,
1.
0/
#280000
0!
0"
1$
0-
0,
#285000
1"
0$
1,
00
#290000
0"
1$
0,
#295000
1"
0$
1,
01
0+
0#
#300000
1!
0"
1$
1-
0,
#305000
1"
0$
1,
0.
#310000
0!
0"
1$
0-
0,
#315000
1"
0$
1,
#320000
1!
0"
1$
1-
0,
1/
#325000
1"
0$
1,
10
#330000
0"
1$
0,
#335000
1"
0$
1,
11
1+
1#
#340000
0"
1$
0,
#345000
1"
0$
1,
1.
0/
#350000
0!
0"
1$
0-
0,
#355000
1"
0$
1,
00
#360000
0"
1$
0,
#365000
1"
0$
1,
01
0+
0#
#370000
0"
1$
0,
#375000
1"
0$
1,
0.
#380000
0"
1$
0,
#385000
1"
0$
1,
#390000
0"
1$
0,
#395000
1"
0$
1,
#400000
0"
1$
0,
#405000
1"
0$
1,
#410000
0"
1$
0,
#415000
1"
0$
1,
#420000
1!
0"
1$
1-
0,
1/
#425000
1"
0$
1,
10
#430000
0!
0"
1$
0-
0,
#435000
1"
0$
1,
11
1+
1#
#440000
1!
0"
1$
1-
0,
#445000
1"
0$
1,
1.
0/
#450000
0!
0"
1$
0-
0,
#455000
1"
0$
1,
00
#460000
1!
0"
1$
1-
0,
#465000
1"
0$
1,
01
0+
0#
#470000
0"
1$
0,
#475000
1"
0$
1,
0.
#480000
0!
0"
1$
0-
0,
#485000
1"
0$
1,
#490000
0"
1$
0,
#495000
1"
0$
1,
#500000
1!
0"
1$
1-
0,
1/
#505000
1"
0$
1,
10
#510000
0!
0"
1$
0-
0,
#515000
1"
0$
1,
11
1+
1#
#520000
1!
0"
1$
1-
0,
#525000
1"
0$
1,
1.
0/
#530000
0"
1$
0,
#535000
1"
0$
1,
00
#540000
0"
1$
0,
#545000
1"
0$
1,
01
0+
0#
#550000
0!
0"
1$
0-
0,
#555000
1"
0$
1,
0.
#560000
1!
0"
1$
1-
0,
1/
#565000
1"
0$
1,
10
#570000
0!
0"
1$
0-
0,
#575000
1"
0$
1,
11
1+
1#
#580000
0"
1$
0,
#585000
1"
0$
1,
1.
0/
#590000
1!
0"
1$
1-
0,
#595000
1"
0$
1,
00
#600000
0"
1$
0,
#605000
1"
0$
1,
01
0+
0#
#610000
0"
1$
0,
#615000
1"
0$
1,
0.
#620000
0"
1$
0,
#625000
1"
0$
1,
#630000
0!
0"
1$
0-
0,
#635000
1"
0$
1,
#640000
1!
0"
1$
1-
0,
1/
#645000
1"
0$
1,
10
#650000
0!
0"
1$
0-
0,
#655000
1"
0$
1,
11
1+
1#
#660000
0"
1$
0,
#665000
1"
0$
1,
1.
0/
#670000
0"
1$
0,
#675000
1"
0$
1,
00
#680000
1!
0"
1$
1-
0,
#685000
1"
0$
1,
01
0+
0#
#690000
0"
1$
0,
#695000
1"
0$
1,
0.
#700000
0!
0"
1$
0-
0,
#705000
1"
0$
1,
#710000
1!
0"
1$
1-
0,
1/
#715000
1"
0$
1,
10
#720000
0!
0"
1$
0-
0,
#725000
1"
0$
1,
11
1+
1#
#730000
1!
0"
1$
1-
0,
#735000
1"
0$
1,
1.
0/
#740000
0"
1$
0,
#745000
1"
0$
1,
00
#750000
0"
1$
0,
#755000
1"
0$
1,
01
0+
0#
#760000
0!
0"
1$
0-
0,
#765000
1"
0$
1,
0.
#770000
1!
0"
1$
1-
0,
1/
#775000
1"
0$
1,
10
#780000
0!
0"
1$
0-
0,
#785000
1"
0$
1,
11
1+
1#
#790000
1!
0"
1$
1-
0,
#795000
1"
0$
1,
1.
0/
#800000
0"
1$
0,
#805000
1"
0$
1,
00
#810000
0"
1$
0,
#815000
1"
0$
1,
01
0+
0#
#820000
0!
0"
1$
0-
0,
#825000
1"
0$
1,
0.
#830000
1!
0"
1$
1-
0,
1/
#835000
1"
0$
1,
10
#840000
0"
1$
0,
#845000
1"
0$
1,
11
1+
1#
#850000
0!
0"
1$
0-
0,
#855000
1"
0$
1,
1.
0/
#860000
0"
1$
0,
#865000
1"
0$
1,
00
#870000
1!
0"
1$
1-
0,
#875000
1"
0$
1,
01
0+
0#
#880000
0"
1$
0,
#885000
1"
0$
1,
0.
#890000
0"
1$
0,
#895000
1"
0$
1,
#900000
0"
1$
0,
#905000
1"
0$
1,
#910000
0"
1$
0,
#915000
1"
0$
1,
#920000
0"
1$
0,
#925000
1"
0$
1,
#930000
0"
1$
0,
#935000
1"
0$
1,
#940000
0"
1$
0,
#945000
1"
0$
1,
#950000
0!
0"
1$
0-
0,
#955000
1"
0$
1,
#960000
1!
0"
1$
1-
0,
1/
#965000
1"
0$
1,
10
#970000
0!
0"
1$
0-
0,
#975000
1"
0$
1,
11
1+
1#
#980000
1!
0"
1$
1-
0,
#985000
1"
0$
1,
1.
0/
#990000
0"
1$
0,
#995000
1"
0$
1,
00
